{
  "name": "+2/+4 Ammunition Special Abilities",
  "flags": {},
  "description": "",
  "results": [
    {
      "_id": "Jf5YK1LJJ0zQt7V4",
      "flags": {},
      "type": 0,
      "text": "Anarchic",
      "weight": 75,
      "range": [1, 75],
      "drawn": false
    },
    {
      "_id": "noVcHJCTHZMswP6j",
      "flags": {},
      "type": 0,
      "text": "Speed",
      "weight": 25,
      "range": [76, 100],
      "drawn": false
    }
  ],
  "formula": "1d100",
  "replacement": true,
  "displayRoll": true,
  "_id": "FADt3fmJbBueHAz5"
}
