{
  "name": "Common Level 1 Potions and Oils",
  "flags": {},
  "description": "",
  "results": [
    {
      "_id": "qa1Iplqt67AsKkMS",
      "flags": {},
      "type": 0,
      "text": "Potion of Bless Weapon",
      "img": "icons/svg/d20-black.svg",
      "resultId": "",
      "weight": 4,
      "range": [1, 4],
      "drawn": false
    },
    {
      "_id": "QO8OH0PD03FrOY4b",
      "flags": {},
      "type": 0,
      "text": "Potion of Cure Light Wounds",
      "img": "icons/svg/d20-black.svg",
      "resultId": "",
      "weight": 10,
      "range": [5, 14],
      "drawn": false
    },
    {
      "_id": "8oX9A9wJLA3lj5kH",
      "flags": {},
      "type": 0,
      "text": "Potion of Endure Elements",
      "img": "icons/svg/d20-black.svg",
      "resultId": "",
      "weight": 5,
      "range": [15, 19],
      "drawn": false
    },
    {
      "_id": "CXEhSNL8T1SFFpZR",
      "flags": {},
      "type": 0,
      "text": "Potion of Enlarge Person",
      "img": "icons/svg/d20-black.svg",
      "resultId": "",
      "weight": 8,
      "range": [20, 27],
      "drawn": false
    },
    {
      "_id": "55VXREYwaSmKWxMz",
      "flags": {},
      "type": 0,
      "text": "Potion of Jump",
      "img": "icons/svg/d20-black.svg",
      "resultId": "",
      "weight": 6,
      "range": [28, 33],
      "drawn": false
    },
    {
      "_id": "FoEEFMrAQc8dX7Uw",
      "flags": {},
      "type": 0,
      "text": "Potion of Mage Armor",
      "img": "icons/svg/d20-black.svg",
      "resultId": "",
      "weight": 8,
      "range": [34, 41],
      "drawn": false
    },
    {
      "_id": "O3mmDdBsuKEhctU5",
      "flags": {},
      "type": 0,
      "text": "Potion of Magic Fang",
      "img": "icons/svg/d20-black.svg",
      "resultId": "",
      "weight": 6,
      "range": [42, 47],
      "drawn": false
    },
    {
      "_id": "I2cwLMV4v599PK62",
      "flags": {},
      "type": 0,
      "text": "Potion of Magic Weapon",
      "img": "icons/svg/d20-black.svg",
      "resultId": "",
      "weight": 8,
      "range": [48, 55],
      "drawn": false
    },
    {
      "_id": "2cIRdliEo32QjiKK",
      "flags": {},
      "type": 0,
      "text": "Potion of Pass Without Trace",
      "img": "icons/svg/d20-black.svg",
      "resultId": "",
      "weight": 5,
      "range": [56, 60],
      "drawn": false
    },
    {
      "_id": "d8r1vbMBCgMEu6bE",
      "flags": {},
      "type": 0,
      "text": "Potion of Protection From Chaos",
      "img": "icons/svg/d20-black.svg",
      "resultId": "",
      "weight": 4,
      "range": [61, 64],
      "drawn": false
    },
    {
      "_id": "UV2O46QpEv5CwDl6",
      "flags": {},
      "type": 0,
      "text": "Potion of Protection From Evil",
      "img": "icons/svg/d20-black.svg",
      "resultId": "",
      "weight": 4,
      "range": [65, 68],
      "drawn": false
    },
    {
      "_id": "evxXu08AF6MuwPzd",
      "flags": {},
      "type": 0,
      "text": "Potion of Protection From Good",
      "img": "icons/svg/d20-black.svg",
      "resultId": "",
      "weight": 4,
      "range": [69, 72],
      "drawn": false
    },
    {
      "_id": "0pfM3pKwfIl4XbhF",
      "flags": {},
      "type": 0,
      "text": "Potion of Protection From Law",
      "img": "icons/svg/d20-black.svg",
      "resultId": "",
      "weight": 4,
      "range": [73, 76],
      "drawn": false
    },
    {
      "_id": "MEKgWfdH92hOKuF4",
      "flags": {},
      "type": 0,
      "text": "Potion of Reduce Person",
      "img": "icons/svg/d20-black.svg",
      "resultId": "",
      "weight": 5,
      "range": [77, 81],
      "drawn": false
    },
    {
      "_id": "cA9HrzSNr7nAdMFE",
      "flags": {},
      "type": 0,
      "text": "Potion of Remove Fear",
      "img": "icons/svg/d20-black.svg",
      "resultId": "",
      "weight": 6,
      "range": [82, 87],
      "drawn": false
    },
    {
      "_id": "KjksljugGwYUp5g4",
      "flags": {},
      "type": 0,
      "text": "Potion of Sanctuary",
      "img": "icons/svg/d20-black.svg",
      "resultId": "",
      "weight": 5,
      "range": [88, 92],
      "drawn": false
    },
    {
      "_id": "w78XvYxcFTHoPzRO",
      "flags": {},
      "type": 0,
      "text": "Potion of Shield of Faith",
      "img": "icons/svg/d20-black.svg",
      "resultId": "",
      "weight": 5,
      "range": [93, 100],
      "drawn": false
    }
  ],
  "formula": "1d100",
  "replacement": true,
  "displayRoll": true,
  "_id": "iZ6RDY3vBx0QF5fg"
}
