{
  "name": "Common Level 7 Arcane Scrolls",
  "flags": {},
  "description": "",
  "results": [
    {
      "_id": "YiFp4FMUwb7PFOIx",
      "flags": {},
      "type": 0,
      "text": "Scroll of Arcane Sight, Greater",
      "img": "icons/svg/d20-black.svg",
      "resultId": "",
      "weight": 4,
      "range": [1, 4],
      "drawn": false
    },
    {
      "_id": "4whdWCrQlybxoLxC",
      "flags": {},
      "type": 0,
      "text": "Scroll of Banishment",
      "img": "icons/svg/d20-black.svg",
      "resultId": "",
      "weight": 3,
      "range": [5, 7],
      "drawn": false
    },
    {
      "_id": "0GeV42v86i62IoTR",
      "flags": {},
      "type": 0,
      "text": "Scroll of Delayed Blast Fireball",
      "img": "icons/svg/d20-black.svg",
      "resultId": "",
      "weight": 6,
      "range": [8, 13],
      "drawn": false
    },
    {
      "_id": "YQPjmgH3nviWRdCu",
      "flags": {},
      "type": 0,
      "text": "Scroll of Ethereal Jaunt",
      "img": "icons/svg/d20-black.svg",
      "resultId": "",
      "weight": 4,
      "range": [14, 17],
      "drawn": false
    },
    {
      "_id": "z3RTQB6SJrURPQLp",
      "flags": {},
      "type": 0,
      "text": "Scroll of Finger of Death",
      "img": "icons/svg/d20-black.svg",
      "resultId": "",
      "weight": 5,
      "range": [18, 22],
      "drawn": false
    },
    {
      "_id": "FilvkTGFeAkSZu9N",
      "flags": {},
      "type": 0,
      "text": "Scroll of Form of the Dragon II",
      "img": "icons/svg/d20-black.svg",
      "resultId": "",
      "weight": 5,
      "range": [23, 27],
      "drawn": false
    },
    {
      "_id": "VH8UCNffO48X0kaP",
      "flags": {},
      "type": 0,
      "text": "Scroll of Hold Person, Mass",
      "img": "icons/svg/d20-black.svg",
      "resultId": "",
      "weight": 3,
      "range": [28, 30],
      "drawn": false
    },
    {
      "_id": "PzIxExlOht3jMslt",
      "flags": {},
      "type": 0,
      "text": "Scroll of Invisibility, Mass",
      "img": "icons/svg/d20-black.svg",
      "resultId": "",
      "weight": 5,
      "range": [31, 35],
      "drawn": false
    },
    {
      "_id": "pjKUpg22oCOELpyE",
      "flags": {},
      "type": 0,
      "text": "Scroll of Mage's Sword",
      "img": "icons/svg/d20-black.svg",
      "resultId": "",
      "weight": 4,
      "range": [36, 39],
      "drawn": false
    },
    {
      "_id": "6uJpCUXKFzaLRSy0",
      "flags": {},
      "type": 0,
      "text": "Scroll of Phase Door",
      "img": "icons/svg/d20-black.svg",
      "resultId": "",
      "weight": 3,
      "range": [40, 42],
      "drawn": false
    },
    {
      "_id": "5tBnIbB7Bto0HYz4",
      "flags": {},
      "type": 0,
      "text": "Scroll of Plane Shift",
      "img": "icons/svg/d20-black.svg",
      "resultId": "",
      "weight": 6,
      "range": [43, 48],
      "drawn": false
    },
    {
      "_id": "z3hMIe0xNDfgcRFl",
      "flags": {},
      "type": 0,
      "text": "Scroll of Polymorph, Greater",
      "img": "icons/svg/d20-black.svg",
      "resultId": "",
      "weight": 5,
      "range": [49, 53],
      "drawn": false
    },
    {
      "_id": "jNBOkpMa2tnkITnD",
      "flags": {},
      "type": 0,
      "text": "Scroll of Power Word Blind",
      "img": "icons/svg/d20-black.svg",
      "resultId": "",
      "weight": 4,
      "range": [54, 57],
      "drawn": false
    },
    {
      "_id": "cFU8OqePWzBdAPwQ",
      "flags": {},
      "type": 0,
      "text": "Scroll of Prismatic Spray",
      "img": "icons/svg/d20-black.svg",
      "resultId": "",
      "weight": 5,
      "range": [58, 62],
      "drawn": false
    },
    {
      "_id": "KaPvZ8gYRZPBsvyP",
      "flags": {},
      "type": 0,
      "text": "Scroll of Reverse Gravity",
      "img": "icons/svg/d20-black.svg",
      "resultId": "",
      "weight": 4,
      "range": [63, 66],
      "drawn": false
    },
    {
      "_id": "Evn2IPAbxCnNFbVZ",
      "flags": {},
      "type": 0,
      "text": "Scroll of Scrying, Greater",
      "img": "icons/svg/d20-black.svg",
      "resultId": "",
      "weight": 4,
      "range": [67, 70],
      "drawn": false
    },
    {
      "_id": "h89aRMt4UpqeqItZ",
      "flags": {},
      "type": 0,
      "text": "Scroll of Shadow Conjuration, Greater",
      "img": "icons/svg/d20-black.svg",
      "resultId": "",
      "weight": 3,
      "range": [71, 73],
      "drawn": false
    },
    {
      "_id": "l4WuFbHYZY4bc8dK",
      "flags": {},
      "type": 0,
      "text": "Scroll of Spell Turning",
      "img": "icons/svg/d20-black.svg",
      "resultId": "",
      "weight": 5,
      "range": [74, 78],
      "drawn": false
    },
    {
      "_id": "3jZbo40AAnWtBwI0",
      "flags": {},
      "type": 0,
      "text": "Scroll of Summon Monster VII",
      "img": "icons/svg/d20-black.svg",
      "resultId": "",
      "weight": 3,
      "range": [79, 81],
      "drawn": false
    },
    {
      "_id": "Ll2ggIfasMe3D5fo",
      "flags": {},
      "type": 0,
      "text": "Scroll of Teleport, Greater",
      "img": "icons/svg/d20-black.svg",
      "resultId": "",
      "weight": 6,
      "range": [82, 87],
      "drawn": false
    },
    {
      "_id": "5MSlFUDBb2RECOSy",
      "flags": {},
      "type": 0,
      "text": "Scroll of Waves of Exhaustion",
      "img": "icons/svg/d20-black.svg",
      "resultId": "",
      "weight": 3,
      "range": [88, 90],
      "drawn": false
    },
    {
      "_id": "jT7pzHnrjXnMjIWW",
      "flags": {},
      "type": 0,
      "text": "Scroll of Project Image",
      "img": "icons/svg/d20-black.svg",
      "resultId": "",
      "weight": 3,
      "range": [91, 93],
      "drawn": false
    },
    {
      "_id": "OPWdMR1COgpRcmGL",
      "flags": {},
      "type": 0,
      "text": "Scroll of Forcecage",
      "img": "icons/svg/d20-black.svg",
      "resultId": "",
      "weight": 4,
      "range": [94, 97],
      "drawn": false
    },
    {
      "_id": "tHAeeuNhPKrxIJMo",
      "flags": {},
      "type": 0,
      "text": "Scroll of Limited Wish",
      "img": "icons/svg/d20-black.svg",
      "resultId": "",
      "weight": 3,
      "range": [98, 100],
      "drawn": false
    }
  ],
  "formula": "1d100",
  "replacement": true,
  "displayRoll": true,
  "_id": "Ay1EA4QGpshwCAnI"
}
