{
  "name": "Common Level 6 Arcane Scrolls",
  "flags": {},
  "description": "",
  "results": [
    {
      "_id": "cBLlbIuCeWnyb6YZ",
      "flags": {},
      "type": 0,
      "text": "Scroll of Acid Fog",
      "img": "icons/svg/d20-black.svg",
      "resultId": "",
      "weight": 3,
      "range": [1, 3],
      "drawn": false
    },
    {
      "_id": "ECUgF5msnztY50hl",
      "flags": {},
      "type": 0,
      "text": "Scroll of Antimagic Field",
      "img": "icons/svg/d20-black.svg",
      "resultId": "",
      "weight": 4,
      "range": [4, 7],
      "drawn": false
    },
    {
      "_id": "QWDu5SGaSuY4ZIkL",
      "flags": {},
      "type": 0,
      "text": "Scroll of Bear's Endurance, Mass",
      "img": "icons/svg/d20-black.svg",
      "resultId": "",
      "weight": 3,
      "range": [8, 10],
      "drawn": false
    },
    {
      "_id": "A3YEvsMNdeLEWGiz",
      "flags": {},
      "type": 0,
      "text": "Scroll of Beast Shape IV",
      "img": "icons/svg/d20-black.svg",
      "resultId": "",
      "weight": 3,
      "range": [11, 13],
      "drawn": false
    },
    {
      "_id": "9s9S7VTfIRH5YFPy",
      "flags": {},
      "type": 0,
      "text": "Scroll of Bull's Strength, Mass",
      "img": "icons/svg/d20-black.svg",
      "resultId": "",
      "weight": 3,
      "range": [14, 16],
      "drawn": false
    },
    {
      "_id": "eVhcL4OqMwgcR7BZ",
      "flags": {},
      "type": 0,
      "text": "Scroll of Cat's Grace, Mass",
      "img": "icons/svg/d20-black.svg",
      "resultId": "",
      "weight": 3,
      "range": [17, 19],
      "drawn": false
    },
    {
      "_id": "Kq3323n4AsSpol66",
      "flags": {},
      "type": 0,
      "text": "Scroll of Chain Lightning",
      "img": "icons/svg/d20-black.svg",
      "resultId": "",
      "weight": 6,
      "range": [20, 25],
      "drawn": false
    },
    {
      "_id": "X7gPqKJpCfouMv6i",
      "flags": {},
      "type": 0,
      "text": "Scroll of Disintegrate",
      "img": "icons/svg/d20-black.svg",
      "resultId": "",
      "weight": 6,
      "range": [26, 31],
      "drawn": false
    },
    {
      "_id": "mRkKzqNG7JWzQesK",
      "flags": {},
      "type": 0,
      "text": "Scroll of Dispel Magic, Greater",
      "img": "icons/svg/d20-black.svg",
      "resultId": "",
      "weight": 6,
      "range": [32, 37],
      "drawn": false
    },
    {
      "_id": "mlmxBxiLjk3EPzyS",
      "flags": {},
      "type": 0,
      "text": "Scroll of Eagle's Splendor, Mass",
      "img": "icons/svg/d20-black.svg",
      "resultId": "",
      "weight": 3,
      "range": [38, 40],
      "drawn": false
    },
    {
      "_id": "5zQTtWfoOMxUG32n",
      "flags": {},
      "type": 0,
      "text": "Scroll of Eyebite",
      "img": "icons/svg/d20-black.svg",
      "resultId": "",
      "weight": 2,
      "range": [41, 42],
      "drawn": false
    },
    {
      "_id": "DGps6J1laxakilEz",
      "flags": {},
      "type": 0,
      "text": "Scroll of Flesh To Stone",
      "img": "icons/svg/d20-black.svg",
      "resultId": "",
      "weight": 5,
      "range": [43, 47],
      "drawn": false
    },
    {
      "_id": "UQSANWrFb4RuNrl6",
      "flags": {},
      "type": 0,
      "text": "Scroll of Form of the Dragon I",
      "img": "icons/svg/d20-black.svg",
      "resultId": "",
      "weight": 3,
      "range": [48, 50],
      "drawn": false
    },
    {
      "_id": "MeUjSGCmFZNg7Qfj",
      "flags": {},
      "type": 0,
      "text": "Scroll of Fox's Cunning, Mass",
      "img": "icons/svg/d20-black.svg",
      "resultId": "",
      "weight": 3,
      "range": [51, 53],
      "drawn": false
    },
    {
      "_id": "6kgn9ouvLAfgX89y",
      "flags": {},
      "type": 0,
      "text": "Scroll of Globe of Invulnerability",
      "img": "icons/svg/d20-black.svg",
      "resultId": "",
      "weight": 3,
      "range": [54, 56],
      "drawn": false
    },
    {
      "_id": "uaSxfHVC6s68FOkX",
      "flags": {},
      "type": 0,
      "text": "Scroll of Heroism, Greater",
      "img": "icons/svg/d20-black.svg",
      "resultId": "",
      "weight": 3,
      "range": [57, 59],
      "drawn": false
    },
    {
      "_id": "Zix69rDXQwGspuyv",
      "flags": {},
      "type": 0,
      "text": "Scroll of Mislead",
      "img": "icons/svg/d20-black.svg",
      "resultId": "",
      "weight": 3,
      "range": [60, 62],
      "drawn": false
    },
    {
      "_id": "xI4PDp1dTbSb6d7t",
      "flags": {},
      "type": 0,
      "text": "Scroll of Owl's Wisdom, Mass",
      "img": "icons/svg/d20-black.svg",
      "resultId": "",
      "weight": 3,
      "range": [63, 65],
      "drawn": false
    },
    {
      "_id": "QZl5wBLD7XzEkGOy",
      "flags": {},
      "type": 0,
      "text": "Scroll of Planar Binding",
      "img": "icons/svg/d20-black.svg",
      "resultId": "",
      "weight": 2,
      "range": [66, 67],
      "drawn": false
    },
    {
      "_id": "JmIJZbWSSxBCMXEm",
      "flags": {},
      "type": 0,
      "text": "Scroll of Shadow Walk",
      "img": "icons/svg/d20-black.svg",
      "resultId": "",
      "weight": 3,
      "range": [68, 70],
      "drawn": false
    },
    {
      "_id": "Wt16BL2oCcXye8Gc",
      "flags": {},
      "type": 0,
      "text": "Scroll of Stone To Flesh",
      "img": "icons/svg/d20-black.svg",
      "resultId": "",
      "weight": 2,
      "range": [71, 72],
      "drawn": false
    },
    {
      "_id": "nSX3GW398DgHbkRV",
      "flags": {},
      "type": 0,
      "text": "Scroll of Suggestion, Mass",
      "img": "icons/svg/d20-black.svg",
      "resultId": "",
      "weight": 4,
      "range": [73, 76],
      "drawn": false
    },
    {
      "_id": "tshtYYv97Ivggftx",
      "flags": {},
      "type": 0,
      "text": "Scroll of Summon Monster VI",
      "img": "icons/svg/d20-black.svg",
      "resultId": "",
      "weight": 3,
      "range": [77, 79],
      "drawn": false
    },
    {
      "_id": "axhoypUXDQIhI1Jg",
      "flags": {},
      "type": 0,
      "text": "Scroll of Transformation",
      "img": "icons/svg/d20-black.svg",
      "resultId": "",
      "weight": 3,
      "range": [80, 82],
      "drawn": false
    },
    {
      "_id": "1KGBP0lzn7GjIZlA",
      "flags": {},
      "type": 0,
      "text": "Scroll of Veil",
      "img": "icons/svg/d20-black.svg",
      "resultId": "",
      "weight": 2,
      "range": [83, 84],
      "drawn": false
    },
    {
      "_id": "DhGUT9fXgTUk9uqz",
      "flags": {},
      "type": 0,
      "text": "Scroll of Wall of Iron",
      "img": "icons/svg/d20-black.svg",
      "resultId": "",
      "weight": 3,
      "range": [85, 87],
      "drawn": false
    },
    {
      "_id": "hB8DKI0x43z87vvQ",
      "flags": {},
      "type": 0,
      "text": "Scroll of Create Undead",
      "img": "icons/svg/d20-black.svg",
      "resultId": "",
      "weight": 2,
      "range": [88, 89],
      "drawn": false
    },
    {
      "_id": "TMcNTkFMS5BlxxXw",
      "flags": {},
      "type": 0,
      "text": "Scroll of Legend Lore",
      "img": "icons/svg/d20-black.svg",
      "resultId": "",
      "weight": 3,
      "range": [90, 92],
      "drawn": false
    },
    {
      "_id": "Sbr6dnvIbvgL41Kh",
      "flags": {},
      "type": 0,
      "text": "Scroll of True Seeing",
      "img": "icons/svg/d20-black.svg",
      "resultId": "",
      "weight": 4,
      "range": [93, 96],
      "drawn": false
    },
    {
      "_id": "AxljJLFxV1RdxF8L",
      "flags": {},
      "type": 0,
      "text": "Scroll of Circle of Death",
      "img": "icons/svg/d20-black.svg",
      "resultId": "",
      "weight": 2,
      "range": [97, 98],
      "drawn": false
    },
    {
      "_id": "5MZODg4kr1CrfKpj",
      "flags": {},
      "type": 0,
      "text": "Scroll of Symbol of Fear",
      "img": "icons/svg/d20-black.svg",
      "resultId": "",
      "weight": 2,
      "range": [99, 100],
      "drawn": false
    }
  ],
  "formula": "1d100",
  "replacement": true,
  "displayRoll": true,
  "_id": "RN2ZXwsjOsjljVUS"
}
