{
  "name": "Common Level 3 Divine Scrolls",
  "flags": {},
  "description": "",
  "results": [
    {
      "_id": "3xa46Hb73zWLvtLf",
      "flags": {},
      "type": 0,
      "text": "Scroll of Bestow Curse",
      "img": "icons/svg/d20-black.svg",
      "resultId": "",
      "weight": 3,
      "range": [1, 3],
      "drawn": false
    },
    {
      "_id": "Ae5u4mrtiLi8eQet",
      "flags": {},
      "type": 0,
      "text": "Scroll of Call Lightning",
      "img": "icons/svg/d20-black.svg",
      "resultId": "",
      "weight": 5,
      "range": [4, 8],
      "drawn": false
    },
    {
      "_id": "k5Ikv2qZi39gPobj",
      "flags": {},
      "type": 0,
      "text": "Scroll of Cure Serious Wounds",
      "img": "icons/svg/d20-black.svg",
      "resultId": "",
      "weight": 7,
      "range": [9, 15],
      "drawn": false
    },
    {
      "_id": "Sr5FTE9eX6codIme",
      "flags": {},
      "type": 0,
      "text": "Scroll of Daylight",
      "img": "icons/svg/d20-black.svg",
      "resultId": "",
      "weight": 4,
      "range": [16, 19],
      "drawn": false
    },
    {
      "_id": "Lw3sP0ILTjnEqOQn",
      "flags": {},
      "type": 0,
      "text": "Scroll of Deeper Darkness",
      "img": "icons/svg/d20-black.svg",
      "resultId": "",
      "weight": 4,
      "range": [20, 23],
      "drawn": false
    },
    {
      "_id": "VkVc8NIO8usQ9KSy",
      "flags": {},
      "type": 0,
      "text": "Scroll of Dispel Magic",
      "img": "icons/svg/d20-black.svg",
      "resultId": "",
      "weight": 5,
      "range": [24, 28],
      "drawn": false
    },
    {
      "_id": "rivuWx5zpLFKqV4l",
      "flags": {},
      "type": 0,
      "text": "Scroll of Inflict Serious Wounds",
      "img": "icons/svg/d20-black.svg",
      "resultId": "",
      "weight": 5,
      "range": [29, 33],
      "drawn": false
    },
    {
      "_id": "miZCAjNIzLQS9qrk",
      "flags": {},
      "type": 0,
      "text": "Scroll of Invisibility Purge",
      "img": "icons/svg/d20-black.svg",
      "resultId": "",
      "weight": 4,
      "range": [34, 37],
      "drawn": false
    },
    {
      "_id": "0TjD1YqsA10asCVS",
      "flags": {},
      "type": 0,
      "text": "Scroll of Locate Object",
      "img": "icons/svg/d20-black.svg",
      "resultId": "",
      "weight": 3,
      "range": [38, 40],
      "drawn": false
    },
    {
      "_id": "6UzExdASRk53XNzA",
      "flags": {},
      "type": 0,
      "text": "Scroll of Magic Circle Against Chaos",
      "img": "icons/svg/d20-black.svg",
      "resultId": "",
      "weight": 2,
      "range": [41, 42],
      "drawn": false
    },
    {
      "_id": "Ui6HPk15s81J6L1U",
      "flags": {},
      "type": 0,
      "text": "Scroll of Magic Circle Against Evil",
      "img": "icons/svg/d20-black.svg",
      "resultId": "",
      "weight": 2,
      "range": [43, 44],
      "drawn": false
    },
    {
      "_id": "sXZoMjWwTx5Nr8yq",
      "flags": {},
      "type": 0,
      "text": "Scroll of Magic Circle Against Good",
      "img": "icons/svg/d20-black.svg",
      "resultId": "",
      "weight": 2,
      "range": [45, 46],
      "drawn": false
    },
    {
      "_id": "cONVmmUh2UMS4Yhu",
      "flags": {},
      "type": 0,
      "text": "Scroll of Magic Circle Against Law",
      "img": "icons/svg/d20-black.svg",
      "resultId": "",
      "weight": 2,
      "range": [47, 48],
      "drawn": false
    },
    {
      "_id": "lTmsMpWCPtYM1NrV",
      "flags": {},
      "type": 0,
      "text": "Scroll of Magic Fang, Greater",
      "img": "icons/svg/d20-black.svg",
      "resultId": "",
      "weight": 4,
      "range": [49, 52],
      "drawn": false
    },
    {
      "_id": "52UxApRpiaS1plQP",
      "flags": {},
      "type": 0,
      "text": "Scroll of Magic Vestment",
      "img": "icons/svg/d20-black.svg",
      "resultId": "",
      "weight": 5,
      "range": [53, 57],
      "drawn": false
    },
    {
      "_id": "FUIROMe27mXOwYTH",
      "flags": {},
      "type": 0,
      "text": "Scroll of Poison",
      "img": "icons/svg/d20-black.svg",
      "resultId": "",
      "weight": 2,
      "range": [58, 59],
      "drawn": false
    },
    {
      "_id": "H6F8sMQepKc2tTnO",
      "flags": {},
      "type": 0,
      "text": "Scroll of Prayer",
      "img": "icons/svg/d20-black.svg",
      "resultId": "",
      "weight": 6,
      "range": [60, 65],
      "drawn": false
    },
    {
      "_id": "O8Q9dfwcvRMeya8x",
      "flags": {},
      "type": 0,
      "text": "Scroll of Protection From Energy",
      "img": "icons/svg/d20-black.svg",
      "resultId": "",
      "weight": 3,
      "range": [66, 68],
      "drawn": false
    },
    {
      "_id": "otAQ9eJ3lzOOzIoM",
      "flags": {},
      "type": 0,
      "text": "Scroll of Remove Blindness/Deafness",
      "img": "icons/svg/d20-black.svg",
      "resultId": "",
      "weight": 2,
      "range": [69, 70],
      "drawn": false
    },
    {
      "_id": "QDEbG3ybysucN2xV",
      "flags": {},
      "type": 0,
      "text": "Scroll of Remove Curse",
      "img": "icons/svg/d20-black.svg",
      "resultId": "",
      "weight": 3,
      "range": [71, 73],
      "drawn": false
    },
    {
      "_id": "1lF54RGLpmfknLrc",
      "flags": {},
      "type": 0,
      "text": "Scroll of Remove Disease",
      "img": "icons/svg/d20-black.svg",
      "resultId": "",
      "weight": 3,
      "range": [74, 76],
      "drawn": false
    },
    {
      "_id": "pSvs3BzODwsimEjF",
      "flags": {},
      "type": 0,
      "text": "Scroll of Searing Light",
      "img": "icons/svg/d20-black.svg",
      "resultId": "",
      "weight": 3,
      "range": [77, 79],
      "drawn": false
    },
    {
      "_id": "U3hVJABXNZVn3fIM",
      "flags": {},
      "type": 0,
      "text": "Scroll of Sleet Storm",
      "img": "icons/svg/d20-black.svg",
      "resultId": "",
      "weight": 2,
      "range": [80, 81],
      "drawn": false
    },
    {
      "_id": "vxuceXysDQkEwExg",
      "flags": {},
      "type": 0,
      "text": "Scroll of Speak With Dead",
      "img": "icons/svg/d20-black.svg",
      "resultId": "",
      "weight": 4,
      "range": [82, 85],
      "drawn": false
    },
    {
      "_id": "muResy7wfjK1nrka",
      "flags": {},
      "type": 0,
      "text": "Scroll of Stone Shape",
      "img": "icons/svg/d20-black.svg",
      "resultId": "",
      "weight": 2,
      "range": [86, 87],
      "drawn": false
    },
    {
      "_id": "uLnbislyvRKYd5UW",
      "flags": {},
      "type": 0,
      "text": "Scroll of Summon Monster III",
      "img": "icons/svg/d20-black.svg",
      "resultId": "",
      "weight": 2,
      "range": [88, 89],
      "drawn": false
    },
    {
      "_id": "Tb6KlkHFzjrjXXtM",
      "flags": {},
      "type": 0,
      "text": "Scroll of Summon Nature's Ally III",
      "img": "icons/svg/d20-black.svg",
      "resultId": "",
      "weight": 2,
      "range": [90, 91],
      "drawn": false
    },
    {
      "_id": "TUKkg5UVoPTxtFsL",
      "flags": {},
      "type": 0,
      "text": "Scroll of Water Breathing",
      "img": "icons/svg/d20-black.svg",
      "resultId": "",
      "weight": 4,
      "range": [92, 95],
      "drawn": false
    },
    {
      "_id": "7IkZqHVs0pWZV9Dz",
      "flags": {},
      "type": 0,
      "text": "Scroll of Water Walk",
      "img": "icons/svg/d20-black.svg",
      "resultId": "",
      "weight": 2,
      "range": [96, 97],
      "drawn": false
    },
    {
      "_id": "7bNUIlSkG7hsH9vh",
      "flags": {},
      "type": 0,
      "text": "Scroll of Animate Dead",
      "img": "icons/svg/d20-black.svg",
      "resultId": "",
      "weight": 3,
      "range": [98, 100],
      "drawn": false
    }
  ],
  "formula": "1d100",
  "replacement": true,
  "displayRoll": true,
  "_id": "haj5Z1NTEPbRQWtH"
}
