{
  "name": "Greater Minor Ring",
  "flags": {},
  "description": "",
  "results": [
    {
      "_id": "f5tnM1ht7KrC7eqU",
      "flags": {},
      "type": 0,
      "text": "Ring of Counterspells",
      "weight": 15,
      "range": [1, 15],
      "drawn": false
    },
    {
      "_id": "QCqWgITn6BWGtA9t",
      "flags": {},
      "type": 0,
      "text": "Ring of Maniacal Devices",
      "weight": 10,
      "range": [16, 25],
      "drawn": false
    },
    {
      "_id": "yLdPnTk9lwKK58FT",
      "flags": {},
      "type": 0,
      "text": "Ring of Rat Fangs",
      "weight": 10,
      "range": [26, 35],
      "drawn": false
    },
    {
      "_id": "I05x9IuYYoVwKzVL",
      "flags": {},
      "type": 0,
      "text": "Ring of Sacred Mistletoe",
      "weight": 17,
      "range": [36, 52],
      "drawn": false
    },
    {
      "_id": "XtOQEazqy3pX1Fw3",
      "flags": {},
      "type": 0,
      "text": "Ring of Spell Knowledge II",
      "weight": 17,
      "range": [53, 69],
      "drawn": false
    },
    {
      "_id": "ASlWn6IAEONGZty6",
      "flags": {},
      "type": 0,
      "text": "Ring of Swarming Stabs",
      "weight": 17,
      "range": [70, 86],
      "drawn": false
    },
    {
      "_id": "P54cxjvlkqSYUmDJ",
      "flags": {},
      "type": 0,
      "text": "Ring of Grit Mastery",
      "weight": 14,
      "range": [87, 100],
      "drawn": false
    }
  ],
  "formula": "1d100",
  "replacement": true,
  "displayRoll": true,
  "_id": "6CFyqL4mL8vkuNNg"
}
