{
  "name": "Greater Medium Specific Shields",
  "flags": {},
  "description": "",
  "results": [
    {
      "_id": "PPWAQlGJxcHl33zZ",
      "flags": {},
      "type": 0,
      "text": "Greater Caster Shield",
      "weight": 20,
      "range": [1, 20],
      "drawn": false
    },
    {
      "_id": "2tsFFPae8ecYDvU3",
      "flags": {},
      "type": 0,
      "text": "Celestial Shield",
      "weight": 20,
      "range": [21, 40],
      "drawn": false
    },
    {
      "_id": "HgIpNczxYADQQcCl",
      "flags": {},
      "type": 0,
      "text": "Maelstrom Shield",
      "weight": 20,
      "range": [41, 60],
      "drawn": false
    },
    {
      "_id": "DXQu4E2QOVwa3lZD",
      "flags": {},
      "type": 0,
      "text": "Volcanic Shield",
      "weight": 20,
      "range": [61, 80],
      "drawn": false
    },
    {
      "_id": "hLFjJewk0Hqrntm6",
      "flags": {},
      "type": 0,
      "text": "Tempest Shield",
      "weight": 20,
      "range": [81, 100],
      "drawn": false
    }
  ],
  "formula": "1d100",
  "replacement": true,
  "displayRoll": true,
  "_id": "etbc5jZpeygNibhm"
}
