{
  "name": "Greater Major Hand",
  "flags": {},
  "description": "",
  "results": [
    {
      "_id": "ckMJdxmU5tTLjPeJ",
      "flags": {},
      "type": 0,
      "text": "\tTalons of Leng",
      "weight": 60,
      "range": [1, 60],
      "drawn": false
    },
    {
      "_id": "PKLyhNrFE8IIQjO3",
      "flags": {},
      "type": 0,
      "text": "\tGauntlets of the Weaponmaster",
      "weight": 40,
      "range": [61, 100],
      "drawn": false
    }
  ],
  "formula": "1d100",
  "replacement": true,
  "displayRoll": true,
  "_id": "l7sgI97nrwqkrhVH"
}
