{
  "_id": "EHEhc1qrCCgwQEGi",
  "name": "Greater Minor Weapon",
  "flags": {},
  "description": "",
  "results": [
    {
      "_id": "lpeWr55WbFuLwp5E",
      "flags": {},
      "type": 0,
      "text": "+1",
      "img": "icons/svg/d20-black.svg",
      "resultId": "",
      "weight": 26,
      "range": [1, 20],
      "drawn": false
    },
    {
      "_id": "7R7IrAOX1uMQyBzQ",
      "flags": {},
      "type": 2,
      "text": "Weapon Type",
      "img": "icons/svg/d20-black.svg",
      "collection": "pf1.ultimate-equipment",
      "resultId": "RwcA3WdbaYSp3xze",
      "weight": 20,
      "range": [1, 50],
      "drawn": false
    },
    {
      "_id": "hGdCkSRrmz6SIiCf",
      "flags": {},
      "type": 0,
      "text": "+2",
      "img": "icons/svg/d20-black.svg",
      "resultId": "",
      "weight": 27,
      "range": [21, 35],
      "drawn": false
    },
    {
      "_id": "y1x0M1NNPS5NgdXr",
      "flags": {},
      "type": 0,
      "text": "+1, with one +1 special ability:",
      "img": "icons/svg/d20-black.svg",
      "resultId": "",
      "weight": 27,
      "range": [36, 50],
      "drawn": false
    },
    {
      "_id": "GLfIZ7ZGobLlPG6j",
      "flags": {},
      "type": 2,
      "text": "+1 Weapon Special Ability",
      "img": "icons/svg/d20-black.svg",
      "collection": "pf1.ultimate-equipment",
      "resultId": "TYiIMLFmg8vY5SzD",
      "weight": 20,
      "range": [36, 50],
      "drawn": false
    },
    {
      "_id": "vfWvn9UfeqRnXLqm",
      "flags": {},
      "type": 0,
      "text": "+1",
      "img": "icons/svg/d20-black.svg",
      "resultId": "",
      "weight": 20,
      "range": [51, 58],
      "drawn": false
    },
    {
      "_id": "eZREepZFSIoUyG2Z",
      "flags": {},
      "type": 2,
      "text": "Ranged",
      "img": "icons/svg/d20-black.svg",
      "collection": "pf1.ultimate-equipment",
      "resultId": "QMDELLppsdz5zS7S",
      "weight": 20,
      "range": [51, 70],
      "drawn": false
    },
    {
      "_id": "surl913wVkCnX2ac",
      "flags": {},
      "type": 0,
      "text": "+2",
      "img": "icons/svg/d20-black.svg",
      "resultId": "",
      "weight": 20,
      "range": [59, 65],
      "drawn": false
    },
    {
      "_id": "tXgBANDFJ3Ou6s2A",
      "flags": {},
      "type": 0,
      "text": "+1, with one +1 special ability:",
      "img": "icons/svg/d20-black.svg",
      "resultId": "",
      "weight": 20,
      "range": [66, 70],
      "drawn": false
    },
    {
      "_id": "sJEGgcOOj5Mt3fUn",
      "flags": {},
      "type": 1,
      "text": "+1 Ranged Special Abilities",
      "img": "icons/svg/d20-black.svg",
      "collection": "pf1.ultimate-equipment",
      "resultId": "zSSXL511ypbCJiU9",
      "weight": 20,
      "range": [66, 70],
      "drawn": false
    },
    {
      "_id": "P9U41OnZjnTLsTyk",
      "flags": {},
      "type": 0,
      "text": "+1",
      "img": "icons/svg/d20-black.svg",
      "resultId": "",
      "weight": 20,
      "range": [71, 74],
      "drawn": false
    },
    {
      "_id": "lLpfy1isXMt99MEJ",
      "flags": {},
      "type": 2,
      "text": "Ammunition",
      "img": "icons/svg/d20-black.svg",
      "collection": "pf1.ultimate-equipment",
      "resultId": "HIi7oxxt0rIhvNA6",
      "weight": 20,
      "range": [71, 80],
      "drawn": false
    },
    {
      "_id": "PIxsPg9Zsms0WQXt",
      "flags": {},
      "type": 0,
      "text": "+2",
      "img": "icons/svg/d20-black.svg",
      "resultId": "",
      "weight": 20,
      "range": [75, 77],
      "drawn": false
    },
    {
      "_id": "ZwvcXhklXDUaX2Mp",
      "flags": {},
      "type": 0,
      "text": "+1, with one +1 special ability:",
      "img": "icons/svg/d20-black.svg",
      "resultId": "",
      "weight": 20,
      "range": [78, 80],
      "drawn": false
    },
    {
      "_id": "Y0vWPEW31fdIFWfE",
      "flags": {},
      "type": 2,
      "text": "+1 Ammunition Special Abilities",
      "img": "icons/svg/d20-black.svg",
      "collection": "pf1.ultimate-equipment",
      "resultId": "y7aKImUJ8DQV1UaB",
      "weight": 20,
      "range": [78, 80],
      "drawn": false
    },
    {
      "_id": "mXaFxIhbbxSLyonL",
      "flags": {},
      "type": 2,
      "text": "Greater Minor Specific Weapons",
      "img": "icons/svg/d20-black.svg",
      "collection": "pf1.ultimate-equipment",
      "resultId": "Djgwm2PCstVZEJup",
      "weight": 20,
      "range": [81, 100],
      "drawn": false
    }
  ],
  "formula": "1d100",
  "replacement": true,
  "displayRoll": true
}
