{
  "_id": "zzxds6HBqb1rZHhI",
  "name": "Lesser Major Arcane Scrolls",
  "flags": {},
  "description": "",
  "results": [
    {
      "_id": "PxfAwoQQFhXE1KDm",
      "flags": {},
      "type": 2,
      "text": "Common Level 4 Arcane Scrolls",
      "img": "icons/svg/d20-black.svg",
      "collection": "pf1.ultimate-equipment",
      "resultId": "Y7s37fkkSu5iUBcw",
      "weight": 30,
      "range": [1, 30],
      "drawn": false
    },
    {
      "_id": "6kRygHw9qIOgTag8",
      "flags": {},
      "type": 2,
      "text": "Common Level 5 Arcane Scrolls",
      "img": "icons/svg/d20-black.svg",
      "collection": "pf1.ultimate-equipment",
      "resultId": "Lqg6bl37KioIAjX0",
      "weight": 35,
      "range": [31, 65],
      "drawn": false
    },
    {
      "_id": "UpnkCouY9Ybbwwct",
      "flags": {},
      "type": 2,
      "text": "Common Level 6 Arcane Scrolls",
      "img": "icons/svg/d20-black.svg",
      "collection": "pf1.ultimate-equipment",
      "resultId": "RN2ZXwsjOsjljVUS",
      "weight": 25,
      "range": [66, 90],
      "drawn": false
    },
    {
      "_id": "f5tjtBOOxuWbeMXf",
      "flags": {},
      "type": 2,
      "text": "Common Level 7 Arcane Scrolls",
      "collection": "pf1.ultimate-equipment",
      "resultId": "Ay1EA4QGpshwCAnI",
      "weight": 10,
      "range": [91, 100],
      "drawn": false
    }
  ],
  "formula": "1d100",
  "replacement": true,
  "displayRoll": true
}
