{
  "_id": "GwJr1v7M6hkIlYHR",
  "name": "Lesser Minor Weapon",
  "flags": {},
  "description": "",
  "results": [
    {
      "_id": "mZ7qanSLLYKocL98",
      "flags": {},
      "type": 0,
      "text": "+1",
      "img": "icons/svg/d20-black.svg",
      "resultId": "",
      "weight": 80,
      "range": [1, 80],
      "drawn": false
    },
    {
      "_id": "TrSK9OvuUDI1RteB",
      "flags": {},
      "type": 2,
      "text": "Weapon Type",
      "img": "icons/svg/d20-black.svg",
      "collection": "pf1.ultimate-equipment",
      "resultId": "RwcA3WdbaYSp3xze",
      "weight": 20,
      "range": [1, 50],
      "drawn": false
    },
    {
      "_id": "spOW7JJDZKMTI80u",
      "flags": {},
      "type": 2,
      "text": "Ranged",
      "img": "icons/svg/d20-black.svg",
      "collection": "pf1.ultimate-equipment",
      "resultId": "QMDELLppsdz5zS7S",
      "weight": 20,
      "range": [51, 70],
      "drawn": false
    },
    {
      "_id": "Zo648ASO3t4t0MCW",
      "flags": {},
      "type": 2,
      "text": "Ammunition",
      "img": "icons/svg/d20-black.svg",
      "collection": "pf1.ultimate-equipment",
      "resultId": "HIi7oxxt0rIhvNA6",
      "weight": 20,
      "range": [71, 80],
      "drawn": false
    },
    {
      "_id": "qFTo5NaeU6NQ5u0o",
      "flags": {},
      "type": 2,
      "text": "Lesser Minor Specific Weapons",
      "img": "icons/svg/d20-black.svg",
      "collection": "pf1.ultimate-equipment",
      "resultId": "g95u0EKJ4nNqKi9j",
      "weight": 20,
      "range": [81, 100],
      "drawn": false
    }
  ],
  "formula": "1d100",
  "replacement": true,
  "displayRoll": true
}
