{
  "name": "Lesser Major Shoulders",
  "flags": {},
  "description": "",
  "results": [
    {
      "_id": "xfF2SmKgZwZgaIQL",
      "flags": {},
      "type": 0,
      "text": "\tHighwayman's Cape",
      "weight": 40,
      "range": [1, 40],
      "drawn": false
    },
    {
      "_id": "AveYiGpfvpDv8KgO",
      "flags": {},
      "type": 0,
      "text": "\tJuggernaut's Pauldrons",
      "weight": 20,
      "range": [41, 60],
      "drawn": false
    },
    {
      "_id": "jamfodulciNOYOIb",
      "flags": {},
      "type": 0,
      "text": "\tCharlatan's Cape",
      "weight": 40,
      "range": [61, 100],
      "drawn": false
    }
  ],
  "formula": "1d100",
  "replacement": true,
  "displayRoll": true,
  "_id": "yiO4RuVs9hMgPd8E"
}
