{
  "_id": "3mQTIhwAaZgvJq12",
  "name": "Tower Shield",
  "type": "equipment",
  "img": "systems/pf1/icons/items/armor/shield-tower.PNG",
  "sort": 0,
  "flags": {},
  "system": {
    "description": {
      "value": "<p>This massive wooden shield is nearly as tall as its user. In most situations, it provides the indicated shield bonus to your AC. As a standard action, however, you can use a tower shield to grant you total cover until the beginning of your next turn. When using a tower shield in this way, you must choose one edge of your space. That edge is treated as a solid wall for attacks targeting you only. You gain total cover for attacks that pass through this edge and no cover for attacks that do not pass through this edge (see cover,&nbsp;Core Rulebook&nbsp;195). The shield does not, however, provide cover against targeted spells; a spellcaster can cast a spell on you by targeting the shield you are holding. You cannot bash with a tower shield, nor can you use your shield hand for anything else.<br><br>When employing a tower shield in combat, you take a –2 penalty on attack rolls because of the shield’s encumbrance.</p>"
    },
    "tags": [],
    "weight": {
      "value": 45
    },
    "price": 30,
    "hp": {
      "max": 20,
      "value": 20
    },
    "hardness": 5,
    "changes": [],
    "contextNotes": [],
    "actions": [],
    "attackNotes": [],
    "effectNotes": [],
    "links": {
      "children": [],
      "charges": []
    },
    "scriptCalls": [],
    "subType": "shield",
    "equipmentSubtype": "towerShield",
    "armor": {
      "value": 4,
      "dex": 2,
      "acp": 10
    },
    "spellFailure": 50,
    "slot": "shield"
  }
}
