{
  "_id": "8kHcvgFNoGObDhQ8",
  "name": "Celestial",
  "type": "feat",
  "img": "systems/pf1/icons/skills/violet_07.jpg",
  "sort": 0,
  "flags": {},
  "system": {
    "description": {
      "value": "<p><strong>Acquired/Inherited Template</strong>&nbsp;Acquired<br><strong>Simple Template</strong>&nbsp;Yes<br><strong>Usable with Summons</strong>&nbsp;Yes<br><br>Celestial creatures dwell in the higher planes, but can be summoned using spells such as summon monster and planar ally. A celestial creature’s CR increases by +1 only if the base creature has 5 or more HD. A celestial creature’s quick and rebuild rules are the same.<br><br><strong>Rebuild Rules:</strong>&nbsp;Senses&nbsp;gains darkvision 60 ft.;&nbsp;Defensive Abilities&nbsp;gains DR and energy resistance as noted on the table;&nbsp;SR&nbsp;gains SR equal to new CR +5;&nbsp;Special Attacks&nbsp;smite evil 1/day as a swift action (adds Cha bonus to attack rolls and damage bonus equal to HD against evil foes; smite persists until target is dead or the celestial creature rests).</p>\n<p><br><strong>Celestial Creature Defenses</strong></p>\n<hr>\n<table class=\"inner\" style=\"border-color: white; color: #ffffff; font-family: 'Century Gothic', CenturyGothic, AppleGothic, sans-serif; font-size: 15px; background-color: #0f0f0f;\">\n<tbody style=\"margin-top: 0px;\">\n<tr style=\"margin-top: 0px;\">\n<td style=\"margin: 0px; border: 1px solid white; padding: 1px 5px; text-align: center;\"><strong style=\"margin-top: 0px;\">Hit Dice</strong></td>\n<td style=\"border: 1px solid white; padding: 1px 5px; margin: 0px; text-align: center;\"><strong style=\"margin-top: 0px;\">Resist Acid, Cold, and Electricity</strong></td>\n<td style=\"border: 1px solid white; padding: 1px 5px; margin: 0px; text-align: center;\"><strong style=\"margin-top: 0px;\">DR</strong></td>\n</tr>\n<tr style=\"background: #3e3e3e;\">\n<td style=\"margin: 0px; border: 1px solid white; padding: 1px 5px; text-align: center;\">1-4</td>\n<td style=\"border: 1px solid white; padding: 1px 5px; margin: 0px; text-align: center;\">5</td>\n<td style=\"border: 1px solid white; padding: 1px 5px; margin: 0px; text-align: center;\">—</td>\n</tr>\n<tr>\n<td style=\"margin: 0px; border: 1px solid white; padding: 1px 5px; text-align: center;\">5-10</td>\n<td style=\"border: 1px solid white; padding: 1px 5px; margin: 0px; text-align: center;\">10</td>\n<td style=\"border: 1px solid white; padding: 1px 5px; margin: 0px; text-align: center;\">5/evil</td>\n</tr>\n<tr style=\"background: #3e3e3e;\">\n<td style=\"margin: 0px; border: 1px solid white; padding: 1px 5px; text-align: center;\">11+</td>\n<td style=\"border: 1px solid white; padding: 1px 5px; margin: 0px; text-align: center;\">15</td>\n<td style=\"border: 1px solid white; padding: 1px 5px; margin: 0px; text-align: center;\">10/evil</td>\n</tr>\n</tbody>\n</table>"
    },
    "tags": [],
    "actions": [],
    "attackNotes": [],
    "effectNotes": [],
    "changes": [],
    "contextNotes": [],
    "links": {
      "children": [],
      "charges": []
    },
    "armorProf": {
      "value": []
    },
    "weaponProf": {
      "value": []
    },
    "languages": {
      "value": []
    },
    "scriptCalls": [],
    "subType": "template",
    "associations": {
      "classes": []
    },
    "crOffset": "@attributes.hd.total >= 5 ? 1 : 0"
  }
}
