{
  "_id": "sFoAenfeqwUBbc67",
  "name": "Deep Creature (Quick)",
  "type": "feat",
  "img": "systems/pf1/icons/skills/violet_07.jpg",
  "sort": 0,
  "flags": {},
  "system": {
    "description": {
      "value": "<p><strong>Acquired/Inherited Template</strong>&nbsp;Acquired</p>\n<p><strong>Simple Template&nbsp;</strong>Yes<br /><strong>Usable with Summons</strong>&nbsp;No<br /><br />Deep creatures have been twisted by the deep ones, whether through interbreeding or foul rituals.<br /><br /><strong>Quick Rules: </strong>+8 on Swim checks and can always take 10 on Swim checks; swim speed equal to base land speed; +1 to AC; +1 on rolls based on Con or Wis; +1 hp/HD; two claw attacks that each deal 1d4 points of damage (for Medium creatures); amphibious.<br /><br /><strong>Rebuild Rules:</strong>&nbsp;Type&nbsp;gain the aquatic and deep one subtypes;&nbsp;AC&nbsp;natural armor increases by 1;&nbsp;Speed&nbsp;swim speed equal to base land speed;&nbsp;Melee&nbsp;two claw attacks that each deal 1d4 points of damage (for Medium creatures);&nbsp;Special Qualities&nbsp;amphibious;&nbsp;Ability Scores&nbsp;+2 Str, +2 Con, +2 Wis.</p>"
    },
    "tags": [],
    "actions": [],
    "attackNotes": [],
    "effectNotes": [],
    "changes": [
      {
        "_id": "6u0vi6v1",
        "formula": "8",
        "operator": "add",
        "subTarget": "skill.swm",
        "modifier": "untyped",
        "priority": 0,
        "value": 0,
        "target": "skill"
      },
      {
        "_id": "v1a13431",
        "formula": "1",
        "operator": "add",
        "subTarget": "ac",
        "modifier": "untyped",
        "priority": 0,
        "value": 0,
        "target": "ac"
      },
      {
        "_id": "k2ub2q6d",
        "formula": "@attributes.hd.total",
        "operator": "add",
        "subTarget": "mhp",
        "modifier": "untyped",
        "priority": 0,
        "value": 0,
        "target": "misc"
      },
      {
        "_id": "j2tr4cku",
        "formula": "1",
        "operator": "add",
        "subTarget": "fort",
        "modifier": "untyped",
        "priority": 0,
        "value": 0,
        "target": "savingThrows"
      },
      {
        "_id": "wfmlcav1",
        "formula": "1",
        "operator": "add",
        "subTarget": "conSkills",
        "modifier": "untyped",
        "priority": 0,
        "value": 0,
        "target": "skills"
      },
      {
        "_id": "bt91n5q2",
        "formula": "1",
        "operator": "add",
        "subTarget": "conChecks",
        "modifier": "untyped",
        "priority": 0,
        "value": 0,
        "target": "abilityChecks"
      },
      {
        "_id": "v0rcoojz",
        "formula": "1",
        "operator": "add",
        "subTarget": "will",
        "modifier": "untyped",
        "priority": 0,
        "value": 0,
        "target": "savingThrows"
      },
      {
        "_id": "61kwdc6e",
        "formula": "1",
        "operator": "add",
        "subTarget": "wisChecks",
        "modifier": "untyped",
        "priority": 0,
        "value": 0,
        "target": "abilityChecks"
      },
      {
        "_id": "ffh0o6yt",
        "formula": "1",
        "operator": "add",
        "subTarget": "wisSkills",
        "modifier": "untyped",
        "priority": 0,
        "value": 0,
        "target": "skills"
      }
    ],
    "contextNotes": [],
    "links": {
      "children": [],
      "charges": []
    },
    "armorProf": {
      "value": []
    },
    "weaponProf": {
      "value": []
    },
    "languages": {
      "value": []
    },
    "scriptCalls": [],
    "subType": "template",
    "associations": {
      "classes": []
    },
    "crOffset": "1"
  }
}
