{
  "name": "Venerable (Age Category)",
  "type": "feat",
  "img": "icons/magic/time/hourglass-tilted-gray.webp",
  "sort": 0,
  "flags": {},
  "_id": "Bt4NFHWKPeoW0ZfQ",
  "system": {
    "description": {
      "value": "<p>You suffer a -6 penalty to your physical ability scores, and gain a +3 to your mental ability scores, due to your age category.</p>"
    },
    "tags": [],
    "actions": [],
    "attackNotes": [],
    "effectNotes": [],
    "changes": [
      {
        "_id": "ngi43p28",
        "formula": "-min(6, @abilities.str.total - 1)",
        "operator": "add",
        "subTarget": "str",
        "modifier": "untypedPerm",
        "priority": -500,
        "value": -1
      },
      {
        "_id": "kndqvezz",
        "formula": "-min(6, @abilities.dex.total - 1)",
        "operator": "add",
        "subTarget": "dex",
        "modifier": "untypedPerm",
        "priority": -500,
        "value": -1
      },
      {
        "_id": "1ose1les",
        "formula": "-min(6, @abilities.con.total - 1)",
        "operator": "add",
        "subTarget": "con",
        "modifier": "untypedPerm",
        "priority": -500,
        "value": -1
      },
      {
        "_id": "70k8rdw0",
        "formula": "3",
        "operator": "add",
        "subTarget": "int",
        "modifier": "untypedPerm",
        "priority": 0,
        "value": 1
      },
      {
        "_id": "81zqir3h",
        "formula": "3",
        "operator": "add",
        "subTarget": "wis",
        "modifier": "untypedPerm",
        "priority": 0,
        "value": 1
      },
      {
        "_id": "c8y6ubiw",
        "formula": "3",
        "operator": "add",
        "subTarget": "cha",
        "modifier": "untypedPerm",
        "priority": 0,
        "value": 1
      }
    ],
    "contextNotes": [],
    "links": {
      "children": [],
      "charges": []
    },
    "armorProf": {
      "value": []
    },
    "weaponProf": {
      "value": []
    },
    "languages": {
      "value": []
    },
    "scriptCalls": [],
    "subType": "misc",
    "associations": {
      "classes": []
    }
  }
}
