{
  "_id": "ieww7CP6JK5pwtpg",
  "name": "Alignment Channel",
  "type": "feat",
  "img": "systems/pf1/icons/feats/alignment-channel.jpg",
  "sort": 0,
  "flags": {},
  "system": {
    "description": {
      "value": "<em>Choose chaos, evil, good, or law. You can channel divine energy to affect outsiders that possess this subtype.</em><br/><br/><b>Prerequisites</b><br/>Ability to channel energy.<br/><br/><b>Benefits</b><br/>Instead of its normal effect, you can choose to have your ability to channel energy heal or harm outsiders of the chosen alignment subtype. You must make this choice each time you channel energy. If you choose to heal or harm creatures of the chosen alignment subtype, your channel energy has no effect on other creatures. The amount of damage healed or dealt and the DC to halve the damage is otherwise unchanged.<br/><br/><b>Special</b><br/>You can gain this feat multiple times. Its effects do not stack. Each time you take this feat, it applies to a new alignment subtype. Whenever you channel energy, you must choose which type to effect."
    },
    "tags": [["PFS"], ["Channeling"]],
    "actions": [
      {
        "_id": "7sgpni7m2zp0t01f",
        "name": "Use",
        "img": "systems/pf1/icons/feats/alignment-channel.jpg",
        "description": "",
        "tag": "",
        "activation": {
          "cost": 1,
          "type": "standard"
        },
        "unchainedAction": {
          "activation": {
            "cost": 2,
            "type": "action"
          }
        },
        "duration": {
          "value": null,
          "units": "inst"
        },
        "target": {
          "value": "Outsiders of chosen alignment subtype"
        },
        "range": {
          "value": "30",
          "units": "ft",
          "maxIncrements": "1",
          "minValue": null,
          "minUnits": ""
        },
        "uses": {
          "autoDeductChargesCost": "",
          "self": {
            "value": 0,
            "maxFormula": "",
            "per": null
          },
          "per": "day",
          "value": 0,
          "maxFormula": "3 + @abilities.cha.mod"
        },
        "measureTemplate": {
          "type": "circle",
          "size": "30",
          "overrideColor": false,
          "customColor": "",
          "overrideTexture": false,
          "customTexture": ""
        },
        "attackName": "",
        "actionType": "save",
        "attackBonus": "",
        "critConfirmBonus": "",
        "damage": {
          "parts": [
            [
              "(ceil(@classes.cleric.level / 2))d6",
              {
                "values": ["positive"],
                "custom": ""
              }
            ]
          ],
          "critParts": [],
          "nonCritParts": []
        },
        "attackParts": [],
        "formulaicAttacks": {
          "count": {
            "formula": ""
          },
          "bonus": {
            "formula": ""
          },
          "label": null
        },
        "formula": "",
        "ability": {
          "attack": null,
          "damage": "",
          "damageMult": 1,
          "critRange": 20,
          "critMult": 2
        },
        "save": {
          "dc": "10 + floor(@classes.cleric.level / 2) + @abilities.cha.mod",
          "type": "will",
          "description": "Will halves damage"
        },
        "effectNotes": [],
        "attackNotes": [],
        "soundEffect": "",
        "powerAttack": {
          "multiplier": "",
          "damageBonus": 2,
          "critMultiplier": 1
        },
        "naturalAttack": {
          "primaryAttack": true,
          "secondary": {
            "attackBonus": "-5",
            "damageMult": 0.5
          }
        },
        "nonlethal": false,
        "usesAmmo": false,
        "spellEffect": "",
        "spellArea": "",
        "conditionals": [],
        "enh": {
          "value": null
        }
      }
    ],
    "uses": {
      "per": "day",
      "maxFormula": "3 + @abilities.cha.mod"
    },
    "attackNotes": [],
    "effectNotes": [],
    "changes": [],
    "contextNotes": [],
    "links": {
      "children": [],
      "charges": []
    },
    "tag": "feat_alignmentChannel",
    "useCustomTag": true,
    "armorProf": {
      "value": []
    },
    "weaponProf": {
      "value": []
    },
    "languages": {
      "value": []
    },
    "scriptCalls": [],
    "associations": {
      "classes": []
    }
  }
}
