{
  "_id": "CjLNTqNGz4zU4zpp",
  "name": "Command Undead",
  "type": "feat",
  "img": "systems/pf1/icons/feats/command-undead.png",
  "sort": 0,
  "flags": {},
  "system": {
    "description": {
      "value": "<p><em>Using foul powers of necromancy, you can command undead creatures, making them into your servants.</em><br /><br /><strong>Prerequisites</strong><br />Channel negative energy class feature.<br /><br /><strong>Benefits</strong><br />As a standard action, you can use one of your uses of channel negative energy to enslave undead within 30 feet. Undead receive a Will save to negate the effect. The DC for this Will save is equal to 10 + 1/2 your cleric level + your Charisma modifier. Undead that fail their saves fall under your control, obeying your commands to the best of their ability, as if under the effects of control undead. Intelligent undead receive a new saving throw each day to resist your command. You can control any number of undead, so long as their total Hit Dice do not exceed your cleric level. If you use channel energy in this way, it has no other effect (it does not heal or harm nearby creatures). If an undead creature is under the control of another creature, you must make an opposed Charisma check whenever your orders conflict.</p>\n<p>&nbsp;</p>\n<p><strong>Usage:</strong>&nbsp;link this feat to Channel Energy charges.</p>"
    },
    "tags": [["PFS"], ["General"]],
    "actions": [
      {
        "_id": "x4ytugnyvaxfcp79",
        "name": "Use",
        "img": "systems/pf1/icons/feats/command-undead.png",
        "description": "",
        "tag": "",
        "activation": {
          "cost": 1,
          "type": "standard"
        },
        "unchainedAction": {
          "activation": {
            "cost": 2,
            "type": "action"
          }
        },
        "duration": {
          "value": null,
          "units": ""
        },
        "target": {
          "value": ""
        },
        "range": {
          "value": null,
          "units": "",
          "maxIncrements": 1,
          "minValue": null,
          "minUnits": ""
        },
        "uses": {
          "autoDeductChargesCost": "",
          "self": {
            "value": 0,
            "maxFormula": "",
            "per": null
          },
          "per": "day",
          "value": 0,
          "maxFormula": "3 + @abilities.cha.mod"
        },
        "measureTemplate": {
          "type": "circle",
          "size": "30",
          "overrideColor": false,
          "customColor": "",
          "overrideTexture": false,
          "customTexture": ""
        },
        "attackName": "",
        "actionType": "save",
        "attackBonus": "",
        "critConfirmBonus": "",
        "damage": {
          "parts": [],
          "critParts": [],
          "nonCritParts": []
        },
        "attackParts": [],
        "formulaicAttacks": {
          "count": {
            "formula": ""
          },
          "bonus": {
            "formula": ""
          },
          "label": null
        },
        "formula": "",
        "ability": {
          "attack": null,
          "damage": "",
          "damageMult": 1,
          "critRange": 20,
          "critMult": 2
        },
        "save": {
          "dc": "10 + floor( @classes.cleric.level / 2) + @abilities.cha.mod",
          "type": "will",
          "description": "Will negates"
        },
        "effectNotes": [
          "Command Undead: as if under the effects of @Compendium[pf1.spells.wkp8u7xl1dgpk362]{Control Undead}."
        ],
        "attackNotes": [],
        "soundEffect": "",
        "powerAttack": {
          "multiplier": "",
          "damageBonus": 2,
          "critMultiplier": 1
        },
        "naturalAttack": {
          "primaryAttack": true,
          "secondary": {
            "attackBonus": "-5",
            "damageMult": 0.5
          }
        },
        "nonlethal": false,
        "usesAmmo": false,
        "spellEffect": "",
        "spellArea": "",
        "conditionals": [],
        "enh": {
          "value": null
        }
      }
    ],
    "uses": {
      "per": "day",
      "maxFormula": "3 + @abilities.cha.mod"
    },
    "attackNotes": [],
    "effectNotes": [],
    "changes": [],
    "contextNotes": [],
    "links": {
      "children": [],
      "charges": []
    },
    "tag": "feat_commandUndead",
    "useCustomTag": true,
    "armorProf": {
      "value": []
    },
    "weaponProf": {
      "value": []
    },
    "languages": {
      "value": []
    },
    "scriptCalls": [],
    "associations": {
      "classes": []
    }
  }
}
