{
  "_id": "lRWXptGqGabk1vfH",
  "name": "Critical Mastery",
  "type": "feat",
  "img": "systems/pf1/icons/feats/critical-mastery.jpg",
  "sort": 0,
  "flags": {},
  "system": {
    "description": {
      "value": "<em>Your critical hits cause two additional effects.</em><br/><br/><b>Prerequisites</b><br/>Critical Focus, any two critical feats, 14th-level fighter.<br/><br/><b>Benefits</b><br/>When you score a critical hit, you can apply the effects of two critical feats in addition to the damage dealt.<br/><br/><b>Normal</b><br/>You can only apply the effects of one critical feat to a given critical hit in addition to the damage dealt."
    },
    "tags": [["PFS"], ["Combat"], ["Critical"]],
    "actions": [],
    "attackNotes": [],
    "effectNotes": [],
    "changes": [],
    "contextNotes": [
      {
        "subTarget": "effect",
        "text": "Critical Mastery: apply to effects to your critical hits."
      }
    ],
    "links": {
      "children": [],
      "charges": []
    },
    "tag": "feat_criticalMastery",
    "useCustomTag": true,
    "armorProf": {
      "value": []
    },
    "weaponProf": {
      "value": []
    },
    "languages": {
      "value": []
    },
    "scriptCalls": [],
    "associations": {
      "classes": []
    }
  }
}
