{
  "_id": "SMyexRzOm5PfjT5I",
  "name": "Deft Hands",
  "type": "feat",
  "img": "systems/pf1/icons/feats/deft-hands.PNG",
  "sort": 0,
  "flags": {},
  "system": {
    "description": {
      "value": "\n                <i>You have exceptional manual dexterity.</i>\n                <br />\n                <br />\n                \n                <p><b>Benefits</b></p>\n                <p><p class=\"stat-block-1\"> You get a +2 bonus on Disable Device and Sleight of Hand skill checks. If you have 10 or more ranks in one of these skills, the bonus increases to +4 for that skill.</p></p>\n                \n            \n            "
    },
    "tags": [["General"], ["Skill"]],
    "actions": [],
    "attackNotes": [],
    "effectNotes": [],
    "changes": [
      {
        "_id": "znpaklyl",
        "formula": "@skills.dev.rank>=10?4:2",
        "operator": "add",
        "subTarget": "skill.dev",
        "modifier": "untyped",
        "priority": 0,
        "value": 2,
        "target": "skill"
      },
      {
        "_id": "mst1c6vi",
        "formula": "@skills.slt.rank>=10?4:2",
        "operator": "add",
        "subTarget": "skill.slt",
        "modifier": "untyped",
        "priority": 0,
        "value": 2,
        "target": "skill"
      }
    ],
    "contextNotes": [],
    "links": {
      "children": [],
      "charges": []
    },
    "tag": "feat_deftHands",
    "useCustomTag": true,
    "armorProf": {
      "value": []
    },
    "weaponProf": {
      "value": []
    },
    "languages": {
      "value": []
    },
    "scriptCalls": [],
    "associations": {
      "classes": []
    }
  }
}
