{
  "_id": "RDgJ7awoKBhacWsu",
  "name": "Extra Lay On Hands",
  "type": "feat",
  "img": "systems/pf1/icons/feats/extra-lay-on-hands.jpg",
  "sort": 0,
  "flags": {},
  "system": {
    "description": {
      "value": "\n                <i>You can use your lay on hands ability more often.</i>\n                <br />\n                <br />\n                \n                <p><b>Prerequisites</b></p>\n                <p> Lay on hands class feature.</p>\n                \n            <br />\n                <p><b>Benefits</b></p>\n                <p><p class=\"stat-block-1\"> You can use your lay on hands ability two additional times per day. </p></p>\n                \n            <br />\n                <p><b>Special</b></p>\n                <p><p class=\"stat-block-1\"> You can gain Extra Lay On Hands multiple times. Its effects stack.</p></p>\n                \n            \n            "
    },
    "tags": [["General"]],
    "actions": [],
    "attackNotes": [],
    "effectNotes": [],
    "changes": [],
    "contextNotes": [],
    "links": {
      "children": [],
      "charges": []
    },
    "tag": "feat_extraLayOnHands",
    "useCustomTag": true,
    "armorProf": {
      "value": []
    },
    "weaponProf": {
      "value": []
    },
    "languages": {
      "value": []
    },
    "scriptCalls": [],
    "associations": {
      "classes": []
    }
  }
}
