{
  "_id": "jGYtflqD2m71KaEg",
  "name": "Extra Rogue Talent",
  "type": "feat",
  "img": "icons/environment/traps/spike-skull-white-brown.webp",
  "sort": 0,
  "flags": {},
  "system": {
    "description": {
      "value": "<div>\n<div>\n<div>\n<div>\n<p>Through constant practice, you have learned how to perform a special trick.</p>\n<p>Prerequisite:&nbsp;<em>Rogue talent class feature</em>.</p>\n<p>Benefit: You gain one additional&nbsp;<em>rogue</em>&nbsp;talent. You must meet all of the prerequisites for this&nbsp;<em>rogue</em>&nbsp;talent.</p>\n<p>Special: You can gain Extra&nbsp;<em>Rogue</em>&nbsp;Talent multiple times.</p>\n</div>\n</div>\n</div>\n</div>"
    },
    "tags": [],
    "actions": [],
    "attackNotes": [],
    "effectNotes": [],
    "changes": [],
    "contextNotes": [],
    "links": {
      "children": [],
      "charges": []
    },
    "tag": "feat_extraRogueTalent",
    "useCustomTag": true,
    "armorProf": {
      "value": []
    },
    "weaponProf": {
      "value": []
    },
    "languages": {
      "value": []
    },
    "scriptCalls": [],
    "associations": {
      "classes": []
    }
  }
}
