{
  "_id": "4fAgch4ut1JYPBbL",
  "name": "Unseat",
  "type": "feat",
  "img": "systems/pf1/icons/feats/unseat.png",
  "sort": 0,
  "flags": {},
  "system": {
    "description": {
      "value": "\n                <i>You are skilled at unseating your mounted opponents.</i>\n                <br />\n                <br />\n                \n                <p><b>Prerequisites</b></p>\n                <p> Str 13, Ride 1 rank, Mounted Combat, Power Attack, Improved Bull Rush, base attack bonus +1.</p>\n                \n            <br />\n                <p><b>Benefits</b></p>\n                <p><p class=\"stat-block-1\"> When charging an opponent while mounted and wielding a lance, resolve the attack as normal. If it hits, you may immediately make a free bull rush attempt in addition to the normal damage. If successful, the target is knocked off his horse and lands prone in a space adjacent to his mount that is directly away from you.</p></p>\n                \n            \n            "
    },
    "tags": [["Combat"], ["Mount"], ["Movement"], ["Offensive"], ["Combat Maneuver"]],
    "actions": [],
    "attackNotes": [],
    "effectNotes": [],
    "changes": [],
    "contextNotes": [],
    "links": {
      "children": [],
      "charges": []
    },
    "tag": "feat_unseat",
    "useCustomTag": true,
    "armorProf": {
      "value": []
    },
    "weaponProf": {
      "value": []
    },
    "languages": {
      "value": []
    },
    "scriptCalls": [],
    "associations": {
      "classes": []
    }
  }
}
