{
  "_id": "9p0aAtCyLdcwnftS",
  "name": "Wind Stance",
  "type": "feat",
  "img": "systems/pf1/icons/feats/wind-stance.jpg",
  "sort": 0,
  "flags": {},
  "system": {
    "description": {
      "value": "\n                <i>Your erratic movements make it difficult for enemies to pinpoint your location.</i>\n                <br />\n                <br />\n                \n                <p><b>Prerequisites</b></p>\n                <p> Dex 15, Dodge, base attack bonus +6.</p>\n                \n            <br />\n                <p><b>Benefits</b></p>\n                <p><p class=\"stat-block-1\"> If you move more than 5 feet this turn, you gain 20% concealment for 1 round against ranged attacks.</p></p>\n                \n            \n            "
    },
    "tags": [["Combat"], ["Defensive"], ["Movement"]],
    "actions": [],
    "attackNotes": [],
    "effectNotes": [],
    "changes": [],
    "contextNotes": [],
    "links": {
      "children": [],
      "charges": []
    },
    "tag": "feat_windStance",
    "useCustomTag": true,
    "armorProf": {
      "value": []
    },
    "weaponProf": {
      "value": []
    },
    "languages": {
      "value": []
    },
    "scriptCalls": [],
    "associations": {
      "classes": []
    }
  }
}
