{
  "_id": "gZxiUYLYsGqQYwGZ",
  "name": "Ogre",
  "type": "race",
  "img": "systems/pf1/icons/races/ogre.png",
  "sort": 0,
  "flags": {},
  "system": {
    "description": {
      "value": "<h2>Standard Racial Traits</h2><ul><li><strong>Ability Score Modifiers</strong>: Paragon (+4 <em>Strength</em>, +2 <em>Constitution</em>, –2 <em>Intelligence</em>, –2 <em>Charisma</em>)</li><li><strong>Type:</strong> <em>Humanoid</em> (<em>giant</em>)</li><li><strong>Size:</strong> Large</li><li><strong>Base Speed</strong>: Ogres have a base land speed of 40 ft.</li><li><strong>Languages:</strong> Ogres only know Giant.</li><li><strong>Natural Armor</strong>: Ogres have thick greasy skin, granting them a +2 natural armor bonus.</li><li><strong>Darkvision:</strong> Ogres have <em>darkvision</em> and so can see perfectly in the dark up to 60 feet</li><li><strong>Low-Light Vision</strong>: Ogres can see twice as far as <em>humans</em> in dim light (they have <em>low-light vision</em>)</li></ul>"
    },
    "tags": [],
    "changes": [
      {
        "_id": "m5xcngfg",
        "formula": "4",
        "operator": "add",
        "subTarget": "str",
        "modifier": "racial",
        "priority": 0,
        "value": 0,
        "target": "ability"
      },
      {
        "_id": "8tew4zcy",
        "formula": "2",
        "operator": "add",
        "subTarget": "con",
        "modifier": "racial",
        "priority": 0,
        "value": 0,
        "target": "ability"
      },
      {
        "_id": "4uqlx7ij",
        "formula": "-2",
        "operator": "add",
        "subTarget": "int",
        "modifier": "racial",
        "priority": 0,
        "value": 0,
        "target": "ability"
      },
      {
        "_id": "cxae6jpw",
        "formula": "-2",
        "operator": "add",
        "subTarget": "cha",
        "modifier": "racial",
        "priority": 0,
        "value": 0,
        "target": "ability"
      },
      {
        "_id": "bkqv04h5",
        "formula": "2",
        "operator": "add",
        "subTarget": "nac",
        "modifier": "base",
        "priority": 0,
        "value": 0,
        "target": "ac"
      }
    ],
    "contextNotes": [],
    "links": {
      "children": []
    },
    "armorProf": {
      "value": []
    },
    "weaponProf": {
      "value": []
    },
    "languages": {
      "value": [],
      "custom": "Ogre"
    },
    "scriptCalls": [],
    "size": "lg",
    "subTypes": [["Giant"]]
  }
}
