{
  "_id": "sMHXS804w3UdTVKH",
  "name": "Triaxian",
  "type": "race",
  "img": "systems/pf1/icons/skills/blue_37.jpg",
  "sort": 0,
  "flags": {},
  "system": {
    "description": {
      "value": "<h2>Standard Racial Traits</h2><ul><li><strong>Ability Score Modifiers</strong> Triaxians are a hardy and wily race, as befits their constantly changing environment, but their lean forms have trouble maintaining large amounts of muscle mass. They gain +2 <em>Constitution</em>, +2 <em>Wisdom</em>, –2 <em>Strength</em></li><li><strong>Size</strong>: Triaxians are Medium creatures and have no bonuses or penalties due to their size.</li><li><strong>Speed</strong>: Triaxians have a base speed of 30 ft.</li><li><strong>Languages</strong>: Triaxians speak Triaxian. Triaxians with high <em>Intelligence</em> scores can choose any languages (except secret languages, such as Druidic).</li><li><strong>Bonus Feat:</strong> Triaxians select one extra feat at 1st level.</li></ul><h3>Senses</h3><ul><li><strong>Low-Light Vision:</strong> Triaxians can see twice as far as humans in dim light.</li></ul><h3>Skill Racial Abilities</h3><ul><li><strong>Keen Senses:</strong> Triaxians' unique ear construction grants them a +2 bonus on <em>Perception</em> checks.</li></ul><h3>Other Racial Traits</h3><ul><li><strong>Seasoned (Ex)</strong> Choose summer or winter. If summer is chosen, the triaxian can exist comfortably in conditions between 90 and 110 degrees Fahrenheit without having to attempt <em>Fortitude</em> saves due to the environment. If winter is chosen, the triaxian can exist comfortably in conditions between 40 and 0 degrees Fahrenheit without having to attempt <em>Fortitude</em> saves. When in conditions of severe cold or heat, Triaxians have to attempt <em>Fortitude</em> saves only once per hour instead of once every 10 minutes. Transitional Triaxians do not have this ability.</li></ul>"
    },
    "tags": [],
    "changes": [
      {
        "_id": "zdvycq07",
        "formula": "2",
        "operator": "add",
        "subTarget": "con",
        "modifier": "racial",
        "priority": 0,
        "value": 0,
        "target": "ability"
      },
      {
        "_id": "4p2gqgch",
        "formula": "2",
        "operator": "add",
        "subTarget": "wis",
        "modifier": "racial",
        "priority": 0,
        "value": 0,
        "target": "ability"
      },
      {
        "_id": "vow0ptat",
        "formula": "-2",
        "operator": "add",
        "subTarget": "str",
        "modifier": "racial",
        "priority": 0,
        "value": 0,
        "target": "ability"
      },
      {
        "_id": "d2jkq9od",
        "formula": "2",
        "operator": "add",
        "subTarget": "skill.per",
        "modifier": "racial",
        "priority": 0,
        "value": 0,
        "target": "skill"
      }
    ],
    "contextNotes": [],
    "links": {
      "children": []
    },
    "armorProf": {
      "value": []
    },
    "weaponProf": {
      "value": []
    },
    "languages": {
      "value": [],
      "custom": "Triaxian"
    },
    "scriptCalls": [],
    "subTypes": [["Triaxian"]]
  }
}
