{
  "_id": "kTiSd8vO1cPMxXWo",
  "name": "Dwarven Double Waraxe",
  "type": "weapon",
  "img": "systems/pf1/icons/items/weapons/waraxe-dwarven-double.png",
  "sort": 0,
  "flags": {},
  "system": {
    "description": {
      "value": "<p><strong>Source</strong> <em>Advanced Race Guide pg. 17</em></p><h3 class=\"framing\"><span title=\"PFS Legal\">[PFS]</span> Statistics</h3><p><strong>Cost</strong> 60 gp <strong>Weight</strong> 12 lbs.</p><p><strong>Damage</strong> 1d8 (small), 1d10 (medium); <strong>Critical</strong> x3; <strong>Range</strong> -; <strong>Type</strong> S; <strong>Special</strong> see text</p><p><strong>Category</strong> One-Handed; <strong>Proficiency</strong> Exotic</p><h3 class=\"framing\">Description</h3><p>This hefty waraxe is similar to the common dwarven waraxe, but its recurved blade spans forward and back from its head like a deadly butterfly. A dwarven double waraxe grants a +1 bonus on all attack rolls after the first when using Cleave or Great Cleave.</p>"
    },
    "tags": [],
    "weight": {
      "value": 12
    },
    "price": 60,
    "hp": {
      "max": 5,
      "value": 5
    },
    "hardness": 10,
    "identifiedName": "Dwarven Double Waraxe",
    "changes": [],
    "actions": [
      {
        "_id": "ubl0aque4zljid2i",
        "name": "Attack",
        "img": "systems/pf1/icons/items/weapons/waraxe-dwarven-double.png",
        "description": "",
        "tag": "",
        "activation": {
          "cost": 1,
          "type": "attack"
        },
        "unchainedAction": {
          "activation": {
            "cost": 1,
            "type": ""
          }
        },
        "duration": {
          "value": null,
          "units": "inst"
        },
        "target": {
          "value": ""
        },
        "range": {
          "value": "0",
          "units": "melee",
          "maxIncrements": 1,
          "minValue": null,
          "minUnits": ""
        },
        "uses": {
          "autoDeductChargesCost": "",
          "self": {
            "value": 0,
            "maxFormula": "",
            "per": null
          },
          "per": null,
          "value": 0,
          "maxFormula": ""
        },
        "measureTemplate": {
          "type": "",
          "size": "",
          "overrideColor": false,
          "customColor": "",
          "overrideTexture": false,
          "customTexture": ""
        },
        "attackName": "",
        "actionType": "mwak",
        "attackBonus": "",
        "critConfirmBonus": "",
        "damage": {
          "parts": [
            [
              "sizeRoll(1, 10, @size)",
              {
                "values": ["slashing"],
                "custom": ""
              }
            ]
          ],
          "critParts": [],
          "nonCritParts": []
        },
        "attackParts": [],
        "formulaicAttacks": {
          "count": {
            "formula": "min(3, ceil(@attributes.bab.total / 5) - 1)"
          },
          "bonus": {
            "formula": "@formulaicAttack * -5"
          },
          "label": null
        },
        "formula": "",
        "ability": {
          "attack": "str",
          "damage": "str",
          "damageMult": 1,
          "critRange": 20,
          "critMult": 3
        },
        "save": {
          "dc": 0,
          "type": "",
          "description": ""
        },
        "effectNotes": [],
        "attackNotes": [],
        "soundEffect": "",
        "powerAttack": {
          "multiplier": "",
          "damageBonus": 2,
          "critMultiplier": 1
        },
        "naturalAttack": {
          "primaryAttack": true,
          "secondary": {
            "attackBonus": "-5",
            "damageMult": 0.5
          }
        },
        "nonlethal": false,
        "usesAmmo": false,
        "spellEffect": "",
        "spellArea": "",
        "conditionals": [],
        "enh": {
          "value": null
        }
      }
    ],
    "attackNotes": [],
    "effectNotes": [],
    "contextNotes": [],
    "links": {
      "children": []
    },
    "tag": "dwarvenDoubleWaraxe",
    "scriptCalls": [],
    "weaponGroups": {
      "value": ["axes", "double"]
    },
    "subType": "exotic",
    "weaponSubtype": "1h"
  }
}
