{
  "_id": "w20dQkQPOe4sTiRT",
  "name": "Firearm Bullet",
  "type": "loot",
  "img": "systems/pf1/icons/items/weapons/bullet.png",
  "sort": 0,
  "flags": {},
  "system": {
    "description": {
      "value": "<p><strong>Source</strong> <em>Ultimate Equipment pg. 41</em>, <em>Pathfinder Campaign Setting pg. 211</em>, <em>Ultimate Combat pg. 141</em></p><h3 class=\"framing\"><span title=\"PFS Legal\">[PFS]</span> Statistics</h3><p><strong>Cost</strong> 1 gp <strong>Weight</strong> -</p><p><strong>Category</strong> Ammunition; <strong>Proficiency</strong> Exotic</p><h3 class=\"framing\">Description</h3><p>The ammunition of most one-handed and two-handed firearms, firearm bullets typically take the form of small balls of lead or some other metal. Thirty bullets weigh half a pound.</p>"
    },
    "tags": [],
    "weight": {
      "value": 0.016
    },
    "price": 1,
    "equipped": false,
    "hp": {
      "max": 1,
      "value": 1
    },
    "hardness": 5,
    "identifiedName": "Firearm Bullet",
    "changes": [],
    "contextNotes": [],
    "links": {
      "children": []
    },
    "tag": "firearmBullet1",
    "scriptCalls": [],
    "subType": "ammo",
    "extraType": "gunBullet"
  }
}
