{
  "_id": "VUP7AmeSuf8Cse1a",
  "name": "Incendiary Crossbow Bolt",
  "type": "loot",
  "img": "systems/pf1/icons/items/weapons/bolt.PNG",
  "sort": 0,
  "flags": {},
  "system": {
    "description": {
      "value": "<p><strong>Source</strong>&nbsp;<em>Ranged Tactics Toolbox pg. 19</em></p>\n<h3 class=\"framing\"><span title=\"PFS Legal\">[PFS]</span> Statistics</h3>\n<p><strong>Cost</strong>&nbsp;10 gp&nbsp;<strong>Weight</strong>&nbsp;3 lbs.</p>\n<p><strong>Category</strong>&nbsp;Ammunition;&nbsp;<strong>Proficiency</strong>&nbsp;Ammunition</p>\n<h3 class=\"framing\">Description</h3>\n<p>A metal cage behind this arrow's point contains flammable material. You take a&nbsp;<strong>-1 penalty on attack rolls</strong>&nbsp;when firing incendiary arrows. You can light up to six incendiary arrows as a full-round action (a standard action if you use a tindertwig) that provokes attacks of opportunity.</p>\n<p>Once lit, the arrow burns for 2 rounds. A lit incendiary arrow deals an additional&nbsp;<strong>1 point of fire damage</strong>. On a critical hit, the target must succeed at a DC 15 Reflex save or catch fire.</p>\n<p>Incendiary bolts exist for crossbows.</p>"
    },
    "tags": [],
    "quantity": 20,
    "weight": {
      "value": 0.15
    },
    "price": 2,
    "equipped": false,
    "hp": {
      "max": 1,
      "value": 1
    },
    "hardness": 5,
    "unidentified": {
      "price": 2
    },
    "identifiedName": "Incendiary Crossbow Bolt",
    "changes": [],
    "contextNotes": [],
    "links": {
      "children": []
    },
    "scriptCalls": [],
    "subType": "ammo",
    "extraType": "bolt"
  }
}
