{
  "_id": "QtEyY1J0B6jTmEWQ",
  "name": "Rockwasp Bomb (Siege)",
  "type": "loot",
  "img": "icons/weapons/ammunition/shot-round-brown.webp",
  "sort": 0,
  "flags": {},
  "system": {
    "description": {
      "value": "<p><strong>Source</strong> <em>Belkzen, Hold of the Orc Hordes pg. 39</em></p>\n<h3 class=\"framing\">Statistics</h3>\n<p><strong>Cost</strong> 2,000 gp <strong>Weight</strong> 100 lbs.</p>\n<p><strong>Category</strong> Ammunition; <strong>Proficiency</strong> Siege Engine</p>\n<h3 class=\"framing\">Description</h3>\n<p>Usable in catapults and trebuchets, this ammunition consists of a wooden crate packed with wax globes, from which a faint buzzing sound emanates.</p>\n<p>Visible as a dark shape at the center of each globe is a rat-sized hornet known as a rockwasp. The alchemical wax keeps the wasps immobilized, while tiny air holes allow them to breath.</p>\n<p>This ammunition <strong>deals only half damage</strong>, but releases a wasp swarm-two wasp swarms if used for a heavy catapult or heavy trebuchet. The wasps attack for 1 minute before dispersing.</p>\n<h3>Mishap</h3>\n<p>On a siege engine mishap, the wasps escape before the ammunition is launched.</p>"
    },
    "tags": [],
    "weight": {
      "value": 100
    },
    "price": 2000,
    "equipped": false,
    "hp": {
      "max": 1,
      "value": 1
    },
    "hardness": 5,
    "identifiedName": "Rockwasp Bomb (Siege)",
    "changes": [],
    "contextNotes": [],
    "links": {
      "children": []
    },
    "tag": "rockwaspBombSiege",
    "scriptCalls": [],
    "subType": "ammo"
  }
}
