{
  "_id": "xiugmcsMdCy4Hdg7",
  "name": "Sharpstones Sling Bullet",
  "type": "loot",
  "img": "icons/weapons/ammunition/shot-round-silver.webp",
  "sort": 0,
  "flags": {},
  "system": {
    "description": {
      "value": "<p><strong>Source</strong> <em>Halflings of Golarion pg. 23</em></p><h3 class=\"framing\"><span title=\"PFS Legal\">[PFS]</span> Statistics</h3><p><strong>Cost</strong> 1 gp <strong>Weight</strong> 5 lbs.</p><p><strong>Category</strong> Ammunition; <strong>Proficiency</strong> Ammunition</p><h3 class=\"framing\">Description</h3><p>A thin layer of baked clay covers the spikes and jagged ridges covering this specially designed bullet. A proficient user knows how to crack the clay (a free action) so that it peels off from either the spikes or ridges when fired, dealing either piercing or slashing damage.</p>"
    },
    "tags": [],
    "quantity": 10,
    "weight": {
      "value": 0.5
    },
    "price": 0.1,
    "equipped": false,
    "hp": {
      "max": 1,
      "value": 1
    },
    "hardness": 5,
    "identifiedName": "Sharpstones Sling Bullet",
    "changes": [],
    "contextNotes": [],
    "links": {
      "children": []
    },
    "tag": "halflingSharpstones10",
    "scriptCalls": [],
    "subType": "ammo",
    "extraType": "slingBullet"
  }
}
