{
  "types": ["Bug Fixes", "Changelog", "Compendium", "Localization", "API"],
  "gitIssueTemplate": "[NUMBER](https://gitlab.com/Furyspark/foundryvtt-pathfinder1/-/issues/NUMBER)",
  "autoCommitAdd": false,
  "changelogMessageAdd": "Add changelog entry for #NUMBER",
  "autoCommitRelease": false,
  "changelogMessageRelease": "changelog",
  "defaultCommand": "add"
}
