{
  "_id": "cubhtyskecferwpv",
  "name": "Alchemist's Lab, Portable",
  "type": "loot",
  "img": "systems/pf1/icons/items/inventory/dice.jpg",
  "sort": 0,
  "flags": {},
  "system": {
    "description": {
      "value": "\r\n<p class=\"source\"><b>Source</b> <em>PZO9410</em></p>\r\n<p>This compact version of a full-sized alchemist's lab provides a +1 <em>circumstance bonus</em> on <em>Craft</em> (alchemy) checks.</p>\r\n"
    },
    "tags": [],
    "weight": {
      "value": 20
    },
    "price": 75,
    "equipped": false,
    "identifiedName": "Alchemist's Lab, Portable",
    "changes": [
      {
        "_id": "y4afj0c7",
        "formula": "1",
        "operator": "add",
        "subTarget": "crf",
        "modifier": "circumstance",
        "priority": null,
        "value": 1,
        "target": "skill"
      }
    ],
    "contextNotes": [],
    "links": {
      "children": []
    },
    "tag": "alchemistsLabPortable",
    "scriptCalls": [],
    "subType": "gear"
  }
}
