{
  "_id": "uhbuqzuyjthjlfrh",
  "name": "Altar, Portable",
  "type": "loot",
  "img": "systems/pf1/icons/items/inventory/dice.jpg",
  "sort": 0,
  "flags": {},
  "system": {
    "description": {
      "value": "\r\n<p><b>Price</b> 250 gp; <b>Weight</b> 40 lbs.</p>\r\n<p>Portable altars are typically made of wood and are ornately carved and decorated with the religious iconography of a specific religion. The top of the altar lifts up, and items such as candles, incense, and oil can be stored within. These altars are modest, but give traveling priests a center from which to say their daily prayers, perform minor rituals, or preach to an assembled crowd.</p>\r\n\r\n"
    },
    "tags": [],
    "weight": {
      "value": 40
    },
    "price": 250,
    "equipped": false,
    "changes": [],
    "contextNotes": [],
    "links": {
      "children": []
    },
    "scriptCalls": [],
    "subType": "gear"
  }
}
