{
  "_id": "eazosznfdqmijeea",
  "name": "Bandolier",
  "type": "loot",
  "img": "systems/pf1/icons/items/inventory/dice.jpg",
  "sort": 0,
  "flags": {},
  "system": {
    "description": {
      "value": " \n<p><b>Price</b> 5 sp; <b>Weight</b> -</p> \n<p>This leather belt is worn over one shoulder and runs diagonally across the chest and back. It has small loops or pouches for holding eight objects the size of a flask or small dagger. You can use the &#8220;retrieve a stored item&#8221; action to take an item from a bandolier. You can wear up to two bandoliers at the same time (any more than this and they get in each other's way and restrict your movement).</p> \n"
    },
    "tags": [],
    "price": 0.5,
    "equipped": false,
    "changes": [],
    "contextNotes": [],
    "links": {
      "children": []
    },
    "scriptCalls": [],
    "subType": "gear"
  }
}
