{
  "_id": "zJmuPPbcTHCDKTfj",
  "name": "Ear trumpet",
  "type": "loot",
  "img": "systems/pf1/icons/items/inventory/dice.jpg",
  "sort": 0,
  "flags": {},
  "system": {
    "description": {
      "value": "<p><span id=\"ctl00_MainContent_DataListTypes_ctl00_LabelName\">Source&nbsp;<a href=\"http://paizo.com/products/btpy8tmc?Pathfinder-Roleplaying-Game-Ultimate-Equipment\" target=\"_blank\" rel=\"noopener\">Ultimate Equipment pg. 56</a><br>Price&nbsp;5 gp;&nbsp;Weight&nbsp;2 lbs.<br>Category&nbsp;Adventuring Gear</span></p>\n<h3>Description</h3>\n<p>By holding this specially crafted ear trumpet to your ear and placing the other end against a door or wall, you reduce the DC penalty for listening through a door or wall by 5.</p>"
    },
    "tags": [],
    "weight": {
      "value": 2
    },
    "price": 5,
    "equipped": false,
    "identifiedName": "Ear trumpet",
    "changes": [],
    "contextNotes": [],
    "links": {
      "children": []
    },
    "scriptCalls": [],
    "subType": "gear"
  }
}
