{
  "_id": "FIMH8jUpVdQXyMBj",
  "name": "Headband of Vast Intelligence +4",
  "type": "equipment",
  "img": "systems/pf1/icons/items/equipment/belt-gems.jpg",
  "sort": 0,
  "flags": {},
  "system": {
    "description": {
      "value": "<p>This intricate gold headband is decorated with several small blue and deep purple gemstones.</p>\n<p>The headband grants the wearer an&nbsp;<em>enhancement bonus</em>&nbsp;to&nbsp;<em>Intelligence</em>&nbsp;of +2, +4, or +6. Treat this as a temporary ability bonus for the first 24 hours the headband is worn. A&nbsp;headband of vast intelligence&nbsp;has one skill associated with it per +2 bonus it grants. After being worn for 24 hours, the headband grants a number of skill ranks in those skills equal to the wearer’s total&nbsp;<em>Hit Dice</em>. These ranks do not stack with the ranks a creature already possesses. These skills are chosen when the headband is created. If no skill is listed, the headband is assumed to grant skill ranks in randomly determined&nbsp;<em>Knowledge</em>&nbsp;skills.</p>",
      "unidentified": "<p>This intricate gold headband is decorated with several small blue and deep purple gemstones.</p>"
    },
    "tags": [],
    "weight": {
      "value": 1
    },
    "price": 16000,
    "resizing": true,
    "unidentified": {
      "name": "Headband"
    },
    "identifiedName": "Headband of Vast Intelligence +4",
    "cl": 8,
    "aura": {
      "school": "trs"
    },
    "changes": [
      {
        "_id": "4pjutymj",
        "formula": "4",
        "operator": "add",
        "subTarget": "int",
        "modifier": "enh",
        "priority": 0,
        "value": 0,
        "target": "ability"
      }
    ],
    "contextNotes": [],
    "actions": [],
    "attackNotes": [],
    "effectNotes": [],
    "links": {
      "children": [],
      "charges": []
    },
    "scriptCalls": [],
    "subType": "misc",
    "equipmentSubtype": "wondrous",
    "slot": "headband"
  }
}
