{
  "_id": "gnynrdudvahpbxkz",
  "name": "Hook, Grappling (Common)",
  "type": "loot",
  "img": "systems/pf1/icons/items/inventory/dice.jpg",
  "sort": 0,
  "flags": {},
  "system": {
    "description": {
      "value": "\r\n<table border=\"1\" cellpadding=\"5\">\r\n<thead>\r\n<tr>\r\n<th class=\"text\">Type</th>\r\n<th class=\"text\">Price</th>\r\n<th class=\"text\">Weight</th>\r\n</tr>\r\n</thead>\r\n<tbody>\r\n<tr>\r\n<td class=\"text\">Common</td>\r\n<td class=\"money number\">1 gp</td>\r\n<td class=\"text\">4 lbs.</td>\r\n</tr>\r\n<tr>\r\n<td class=\"text\">Mithral</td>\r\n<td class=\"money number\">2,001 gp</td>\r\n<td class=\"text\">2 lbs.</td>\r\n</tr>\r\n</tbody>\r\n</table>\r\n<p>Throwing a grappling hook requires a ranged attack roll, treating the hook as a thrown weapon with a range increment of 10 feet. Objects with ample places to catch the hook have an AC of 5.</p>\r\n\r\n"
    },
    "tags": [],
    "weight": {
      "value": 4
    },
    "price": 1,
    "equipped": false,
    "identifiedName": "Hook, Grappling (Common)",
    "changes": [],
    "contextNotes": [],
    "links": {
      "children": []
    },
    "scriptCalls": [],
    "subType": "gear"
  }
}
