{
  "_id": "vkyiollkgfehsfer",
  "name": "Incubation Stove",
  "type": "loot",
  "img": "systems/pf1/icons/items/inventory/dice.jpg",
  "sort": 0,
  "flags": {},
  "system": {
    "description": {
      "value": "\r\n<p class=\"source\"><b>Source</b> <em>PCh:DDR</em></p>\r\n<p>Designed by <em>dwarves</em>, this iron pot-bellied stove is about the size of a <em>halfling</em>. It burns wood, coal, dung, or fungus stalks, and has a large moveable compartment on the outside to hold maturing <em>owlbear</em> eggs. The stoves need constant attention to maintain the right temperature, else the eggs get cooked rather than incubated. Some variations have a spring- or crank-turned device that turns the eggs.</p>\r\n\r\n"
    },
    "tags": [],
    "weight": {
      "value": 2
    },
    "price": 2,
    "equipped": false,
    "changes": [],
    "contextNotes": [],
    "links": {
      "children": []
    },
    "scriptCalls": [],
    "subType": "gear"
  }
}
