{
  "_id": "rxjodhzwmcykadls",
  "name": "Kit, Gear Maintenance",
  "type": "loot",
  "img": "systems/pf1/icons/items/inventory/dice.jpg",
  "sort": 0,
  "flags": {},
  "system": {
    "description": {
      "value": "\r\n<p><b>Price</b> 5 gp; <b>Weight</b> 2 lbs.</p>\r\n<p>This kit contains metal polish, a small file, a leather paring knife, conditioning <em>oil</em> for leather, two soft cloths, extra leather straps, a <em>sewing needle</em>, and a few buttons.</p>\r\n\r\n"
    },
    "tags": [],
    "weight": {
      "value": 2
    },
    "price": 5,
    "equipped": false,
    "changes": [],
    "contextNotes": [],
    "links": {
      "children": []
    },
    "scriptCalls": [],
    "subType": "gear"
  }
}
