{
  "_id": "Ueae6c2qqJJGpncA",
  "name": "Kit, Mess",
  "type": "container",
  "img": "icons/containers/chest/chest-simple-box-red.webp",
  "sort": 0,
  "flags": {},
  "system": {
    "description": {
      "value": "<p><span style=\"color: #191813; font-size: 13px;\">This kit includes a plate, bowl, cup, fork, knife, and spoon, made of wood, horn, or tin. Each item has a handle or small hole, and can be tied together using the included leather cord.</span></p>"
    },
    "tags": [],
    "weight": {
      "value": 1
    },
    "price": 0.2,
    "identifiedName": "Kit, Mess",
    "inventoryItems": [
      {
        "name": "Plate",
        "type": "loot",
        "_id": "t95qxxcbkgau4zwa",
        "img": "systems/pf1/icons/items/inventory/dice.jpg",
        "labels": {
          "equipped": "<i class=\"fas fa-times\"></i>",
          "carried": "<i class=\"fas fa-check\"></i>",
          "identified": "<i class=\"fas fa-check\"></i>"
        },
        "hasAttack": false,
        "hasMultiAttack": false,
        "hasDamage": false,
        "hasAction": false,
        "showUnidentifiedData": false,
        "isStack": false,
        "isCharged": false,
        "price": 0,
        "empty": false,
        "totalWeight": 0.4,
        "units": "lbs",
        "system": {
          "subType": "tradeGoods",
          "description": {
            "value": "",
            "chat": "",
            "unidentified": ""
          },
          "tags": [],
          "quantity": 1,
          "weight": {
            "value": 0.4
          },
          "price": 0,
          "identified": true,
          "hp": {
            "max": 10,
            "value": 10
          },
          "hardness": 0,
          "carried": true,
          "unidentified": {
            "price": 0,
            "name": ""
          },
          "identifiedName": "Plate",
          "cl": 0,
          "aura": {
            "custom": false,
            "school": ""
          },
          "links": {
            "children": []
          },
          "typeName": "Trade Good",
          "weightConverted": 0.4,
          "weightUnits": "lbs",
          "priceUnits": "gp",
          "damage": {
            "parts": [],
            "critParts": [],
            "nonCritParts": []
          },
          "attackParts": [],
          "conditionals": [],
          "contextNotes": [],
          "size": "med",
          "equipped": false,
          "range": {
            "maxIncrements": 1
          }
        }
      },
      {
        "name": "Bowl",
        "type": "loot",
        "img": "icons/containers/kitchenware/bowl-clay-brown.webp",
        "labels": {
          "equipped": "<i class=\"fas fa-times\"></i>",
          "carried": "<i class=\"fas fa-check\"></i>",
          "identified": "<i class=\"fas fa-check\"></i>"
        },
        "hasAttack": false,
        "hasMultiAttack": false,
        "hasDamage": false,
        "hasAction": false,
        "showUnidentifiedData": false,
        "isStack": false,
        "isCharged": false,
        "price": 0,
        "empty": false,
        "totalWeight": 0.2,
        "units": "lbs",
        "_id": "q4asw26dyrjavece",
        "system": {
          "subType": "tradeGoods",
          "description": {
            "value": "",
            "chat": "",
            "unidentified": ""
          },
          "tags": [],
          "quantity": 1,
          "weight": {
            "value": 0.2
          },
          "price": 0,
          "identified": true,
          "hp": {
            "max": 10,
            "value": 10
          },
          "hardness": 0,
          "carried": true,
          "unidentified": {
            "price": 0,
            "name": ""
          },
          "identifiedName": "Bowl",
          "cl": 0,
          "aura": {
            "custom": false,
            "school": ""
          },
          "links": {
            "children": []
          },
          "typeName": "Trade Good",
          "weightConverted": 0.2,
          "weightUnits": "lbs",
          "priceUnits": "gp",
          "damage": {
            "parts": [],
            "critParts": [],
            "nonCritParts": []
          },
          "attackParts": [],
          "conditionals": [],
          "contextNotes": [],
          "size": "med",
          "equipped": false,
          "range": {
            "maxIncrements": 1
          }
        }
      },
      {
        "name": "Fork",
        "type": "loot",
        "img": "icons/tools/cooking/fork-steel-tan.webp",
        "labels": {
          "equipped": "<i class=\"fas fa-times\"></i>",
          "carried": "<i class=\"fas fa-check\"></i>",
          "identified": "<i class=\"fas fa-check\"></i>"
        },
        "hasAttack": false,
        "hasMultiAttack": false,
        "hasDamage": false,
        "hasAction": false,
        "showUnidentifiedData": false,
        "isStack": false,
        "isCharged": false,
        "price": 0,
        "empty": false,
        "totalWeight": 0.1,
        "units": "lbs",
        "_id": "e1r0sdabl9awmxid",
        "system": {
          "subType": "tradeGoods",
          "description": {
            "value": "",
            "chat": "",
            "unidentified": ""
          },
          "tags": [],
          "quantity": 1,
          "weight": {
            "value": 0.1
          },
          "price": 0,
          "identified": true,
          "hp": {
            "max": 10,
            "value": 10
          },
          "hardness": 0,
          "carried": true,
          "unidentified": {
            "price": 0,
            "name": ""
          },
          "identifiedName": "Fork",
          "cl": 0,
          "aura": {
            "custom": false,
            "school": ""
          },
          "links": {
            "children": []
          },
          "typeName": "Trade Good",
          "weightConverted": 0.1,
          "weightUnits": "lbs",
          "priceUnits": "gp",
          "damage": {
            "parts": [],
            "critParts": [],
            "nonCritParts": []
          },
          "attackParts": [],
          "conditionals": [],
          "contextNotes": [],
          "size": "med",
          "equipped": false,
          "range": {
            "maxIncrements": 1
          }
        }
      },
      {
        "name": "Knife",
        "type": "loot",
        "img": "icons/tools/cooking/knife-chef-steel-brown.webp",
        "labels": {
          "equipped": "<i class=\"fas fa-times\"></i>",
          "carried": "<i class=\"fas fa-check\"></i>",
          "identified": "<i class=\"fas fa-check\"></i>"
        },
        "hasAttack": false,
        "hasMultiAttack": false,
        "hasDamage": false,
        "hasAction": false,
        "showUnidentifiedData": false,
        "isStack": false,
        "isCharged": false,
        "price": 0,
        "empty": false,
        "totalWeight": 0.1,
        "units": "lbs",
        "_id": "swpiosj6uadvp8xy",
        "system": {
          "subType": "tradeGoods",
          "description": {
            "value": "",
            "chat": "",
            "unidentified": ""
          },
          "tags": [],
          "quantity": 1,
          "weight": {
            "value": 0.1
          },
          "price": 0,
          "identified": true,
          "hp": {
            "max": 10,
            "value": 10
          },
          "hardness": 0,
          "carried": true,
          "unidentified": {
            "price": 0,
            "name": ""
          },
          "identifiedName": "Knife",
          "cl": 0,
          "aura": {
            "custom": false,
            "school": ""
          },
          "links": {
            "children": []
          },
          "typeName": "Trade Good",
          "weightConverted": 0.1,
          "weightUnits": "lbs",
          "priceUnits": "gp",
          "damage": {
            "parts": [],
            "critParts": [],
            "nonCritParts": []
          },
          "attackParts": [],
          "conditionals": [],
          "contextNotes": [],
          "size": "med",
          "equipped": false,
          "range": {
            "maxIncrements": 1
          }
        }
      },
      {
        "name": "Spoon",
        "type": "loot",
        "img": "icons/tools/cooking/soup-ladle.webp",
        "labels": {
          "equipped": "<i class=\"fas fa-times\"></i>",
          "carried": "<i class=\"fas fa-check\"></i>",
          "identified": "<i class=\"fas fa-check\"></i>"
        },
        "hasAttack": false,
        "hasMultiAttack": false,
        "hasDamage": false,
        "hasAction": false,
        "showUnidentifiedData": false,
        "isStack": false,
        "isCharged": false,
        "price": 0,
        "empty": false,
        "totalWeight": 0.1,
        "units": "lbs",
        "_id": "pxs9209y5ybsemki",
        "system": {
          "subType": "tradeGoods",
          "description": {
            "value": "",
            "chat": "",
            "unidentified": ""
          },
          "tags": [],
          "quantity": 1,
          "weight": {
            "value": 0.1
          },
          "price": 0,
          "identified": true,
          "hp": {
            "max": 10,
            "value": 10
          },
          "hardness": 0,
          "carried": true,
          "unidentified": {
            "price": 0,
            "name": ""
          },
          "identifiedName": "Spoon",
          "cl": 0,
          "aura": {
            "custom": false,
            "school": ""
          },
          "links": {
            "children": []
          },
          "typeName": "Trade Good",
          "weightConverted": 0.1,
          "weightUnits": "lbs",
          "priceUnits": "gp",
          "damage": {
            "parts": [],
            "critParts": [],
            "nonCritParts": []
          },
          "attackParts": [],
          "conditionals": [],
          "contextNotes": [],
          "size": "med",
          "equipped": false,
          "range": {
            "maxIncrements": 1
          }
        }
      }
    ],
    "basePrice": 0.2
  }
}
