{
  "_id": "rcfhitbmkesztzzd",
  "name": "Kit, Gambler's",
  "type": "loot",
  "img": "systems/pf1/icons/items/inventory/dice.jpg",
  "sort": 0,
  "flags": {},
  "system": {
    "description": {
      "value": "\r\n<table border=\"1\" cellpadding=\"5\">\r\n<thead>\r\n<tr>\r\n<th class=\"text\">Type</th>\r\n<th class=\"text\">Price</th>\r\n<th class=\"text\">Weight</th>\r\n</tr>\r\n</thead>\r\n<tbody>\r\n<tr>\r\n<td class=\"text\">Common</td>\r\n<td class=\"money number\">75 gp</td>\r\n<td class=\"text\">5 lbs.</td>\r\n</tr>\r\n<tr>\r\n<td class=\"text\">Cheating</td>\r\n<td class=\"money number\">300 gp</td>\r\n<td class=\"text\">5 lbs.</td>\r\n</tr>\r\n</tbody>\r\n</table>\r\n<p>Particularly useful for travelers moving through areas too small or remote to support a full-time place for gambling, this small, tightly packed suitcase holds decks of cards, a betting wheel, numbered cloths, colored wooden chips, and a wide variety of other sorts of specialized equipment necessary for many different games of chance. A cheating gambler's kit is very similar, except its cards are marked and its games are rigged, giving a knowledgeable user a +4 <em>circumstance bonus</em> on <em>Profession</em> (gambler) checks when using these materials. A DC 25 <em>Perception</em> or DC 20 <em>Profession</em> (gambler) check exposes the ruse.</p>\r\n\r\n"
    },
    "tags": [],
    "equipped": false,
    "changes": [],
    "contextNotes": [],
    "links": {
      "children": []
    },
    "scriptCalls": [],
    "subType": "gear"
  }
}
