{
  "_id": "6yfwD4QhSsmXaCUX",
  "name": "Kit, Grooming",
  "type": "container",
  "img": "icons/containers/chest/chest-simple-box-blue.webp",
  "sort": 0,
  "flags": {},
  "system": {
    "tags": [],
    "weight": {
      "value": 2
    },
    "price": 1,
    "identifiedName": "Kit, Grooming",
    "inventoryItems": [
      {
        "name": "Comb",
        "type": "loot",
        "_id": "1fu7miz2loaksjp0",
        "img": "systems/pf1/icons/items/inventory/dice.jpg",
        "labels": {
          "equipped": "<i class=\"fas fa-times\"></i>",
          "carried": "<i class=\"fas fa-check\"></i>",
          "identified": "<i class=\"fas fa-check\"></i>"
        },
        "hasAttack": false,
        "hasMultiAttack": false,
        "hasDamage": false,
        "hasAction": false,
        "showUnidentifiedData": false,
        "isStack": false,
        "isCharged": false,
        "price": 0,
        "empty": false,
        "totalWeight": 0,
        "units": "lbs",
        "system": {
          "subType": "gear",
          "description": {
            "value": "",
            "chat": "",
            "unidentified": ""
          },
          "tags": [],
          "quantity": 1,
          "weight": {
            "value": 0
          },
          "price": 0,
          "identified": true,
          "hp": {
            "max": 10,
            "value": 10
          },
          "hardness": 0,
          "carried": true,
          "unidentified": {
            "price": 0,
            "name": ""
          },
          "identifiedName": "Comb",
          "cl": 0,
          "aura": {
            "custom": false,
            "school": ""
          },
          "links": {
            "children": []
          },
          "typeName": "Gear",
          "weightConverted": 0,
          "weightUnits": "lbs",
          "priceUnits": "gp",
          "damage": {
            "parts": [],
            "critParts": [],
            "nonCritParts": []
          },
          "attackParts": [],
          "conditionals": [],
          "contextNotes": [],
          "size": "med",
          "equipped": false,
          "range": {
            "maxIncrements": 1
          }
        }
      },
      {
        "name": "Scissors",
        "type": "loot",
        "img": "systems/pf1/icons/items/inventory/dice.jpg",
        "labels": {
          "equipped": "<i class=\"fas fa-times\"></i>",
          "carried": "<i class=\"fas fa-check\"></i>",
          "identified": "<i class=\"fas fa-check\"></i>"
        },
        "hasAttack": false,
        "hasMultiAttack": false,
        "hasDamage": false,
        "hasAction": false,
        "showUnidentifiedData": false,
        "isStack": false,
        "isCharged": false,
        "price": 0,
        "empty": false,
        "totalWeight": 0,
        "units": "lbs",
        "_id": "4eqjc394q1ao0exk",
        "system": {
          "subType": "gear",
          "description": {
            "value": "",
            "chat": "",
            "unidentified": ""
          },
          "tags": [],
          "quantity": 1,
          "weight": {
            "value": 0
          },
          "price": 0,
          "identified": true,
          "hp": {
            "max": 10,
            "value": 10
          },
          "hardness": 0,
          "carried": true,
          "unidentified": {
            "price": 0,
            "name": ""
          },
          "identifiedName": "Scissors",
          "cl": 0,
          "aura": {
            "custom": false,
            "school": ""
          },
          "links": {
            "children": []
          },
          "typeName": "Gear",
          "weightConverted": 0,
          "weightUnits": "lbs",
          "priceUnits": "gp",
          "damage": {
            "parts": [],
            "critParts": [],
            "nonCritParts": []
          },
          "attackParts": [],
          "conditionals": [],
          "contextNotes": [],
          "size": "med",
          "equipped": false,
          "range": {
            "maxIncrements": 1
          }
        }
      },
      {
        "name": "Nail File",
        "type": "loot",
        "img": "systems/pf1/icons/items/inventory/dice.jpg",
        "labels": {
          "equipped": "<i class=\"fas fa-times\"></i>",
          "carried": "<i class=\"fas fa-check\"></i>",
          "identified": "<i class=\"fas fa-check\"></i>"
        },
        "hasAttack": false,
        "hasMultiAttack": false,
        "hasDamage": false,
        "hasAction": false,
        "showUnidentifiedData": false,
        "isStack": false,
        "isCharged": false,
        "price": 0,
        "empty": false,
        "totalWeight": 0,
        "units": "lbs",
        "_id": "5oldzffezxbzwml6",
        "system": {
          "subType": "gear",
          "description": {
            "value": "",
            "chat": "",
            "unidentified": ""
          },
          "tags": [],
          "quantity": 1,
          "weight": {
            "value": 0
          },
          "price": 0,
          "identified": true,
          "hp": {
            "max": 10,
            "value": 10
          },
          "hardness": 0,
          "carried": true,
          "unidentified": {
            "price": 0,
            "name": ""
          },
          "identifiedName": "Nail File",
          "cl": 0,
          "aura": {
            "custom": false,
            "school": ""
          },
          "links": {
            "children": []
          },
          "typeName": "Gear",
          "weightConverted": 0,
          "weightUnits": "lbs",
          "priceUnits": "gp",
          "damage": {
            "parts": [],
            "critParts": [],
            "nonCritParts": []
          },
          "attackParts": [],
          "conditionals": [],
          "contextNotes": [],
          "size": "med",
          "equipped": false,
          "range": {
            "maxIncrements": 1
          }
        }
      },
      {
        "name": "Sponge",
        "type": "loot",
        "img": "systems/pf1/icons/items/inventory/dice.jpg",
        "labels": {
          "equipped": "<i class=\"fas fa-times\"></i>",
          "carried": "<i class=\"fas fa-check\"></i>",
          "identified": "<i class=\"fas fa-check\"></i>"
        },
        "hasAttack": false,
        "hasMultiAttack": false,
        "hasDamage": false,
        "hasAction": false,
        "showUnidentifiedData": false,
        "isStack": false,
        "isCharged": false,
        "price": 0,
        "empty": false,
        "totalWeight": 0,
        "units": "lbs",
        "_id": "q14tbk1t2mfifyiu",
        "system": {
          "subType": "gear",
          "description": {
            "value": "",
            "chat": "",
            "unidentified": ""
          },
          "tags": [],
          "quantity": 1,
          "weight": {
            "value": 0
          },
          "price": 0,
          "identified": true,
          "hp": {
            "max": 10,
            "value": 10
          },
          "hardness": 0,
          "carried": true,
          "unidentified": {
            "price": 0,
            "name": ""
          },
          "identifiedName": "Sponge",
          "cl": 0,
          "aura": {
            "custom": false,
            "school": ""
          },
          "links": {
            "children": []
          },
          "typeName": "Gear",
          "weightConverted": 0,
          "weightUnits": "lbs",
          "priceUnits": "gp",
          "damage": {
            "parts": [],
            "critParts": [],
            "nonCritParts": []
          },
          "attackParts": [],
          "conditionals": [],
          "contextNotes": [],
          "size": "med",
          "equipped": false,
          "range": {
            "maxIncrements": 1
          }
        }
      },
      {
        "name": "Hairbrush",
        "type": "loot",
        "img": "systems/pf1/icons/items/inventory/dice.jpg",
        "labels": {
          "equipped": "<i class=\"fas fa-times\"></i>",
          "carried": "<i class=\"fas fa-check\"></i>",
          "identified": "<i class=\"fas fa-check\"></i>"
        },
        "hasAttack": false,
        "hasMultiAttack": false,
        "hasDamage": false,
        "hasAction": false,
        "showUnidentifiedData": false,
        "isStack": false,
        "isCharged": false,
        "price": 0,
        "empty": false,
        "totalWeight": 0,
        "units": "lbs",
        "_id": "jjbl4zuwslnxfkkp",
        "system": {
          "subType": "gear",
          "description": {
            "value": "",
            "chat": "",
            "unidentified": ""
          },
          "tags": [],
          "quantity": 1,
          "weight": {
            "value": 0
          },
          "price": 0,
          "identified": true,
          "hp": {
            "max": 10,
            "value": 10
          },
          "hardness": 0,
          "carried": true,
          "unidentified": {
            "price": 0,
            "name": ""
          },
          "identifiedName": "Hairbrush",
          "cl": 0,
          "aura": {
            "custom": false,
            "school": ""
          },
          "links": {
            "children": []
          },
          "typeName": "Gear",
          "weightConverted": 0,
          "weightUnits": "lbs",
          "priceUnits": "gp",
          "damage": {
            "parts": [],
            "critParts": [],
            "nonCritParts": []
          },
          "attackParts": [],
          "conditionals": [],
          "contextNotes": [],
          "size": "med",
          "equipped": false,
          "range": {
            "maxIncrements": 1
          }
        }
      },
      {
        "_id": "gjtuklwkrbqykmdk",
        "name": "Mirror, Miniature",
        "permission": {
          "default": 0,
          "T9i9xVjdkHeFZC72": 3
        },
        "type": "loot",
        "flags": {
          "core": {
            "sourceId": "Compendium.pf1.items.gjtuklwkrbqykmdk"
          }
        },
        "img": "icons/tools/scribal/lens-grey-brown.webp",
        "effects": [],
        "labels": {
          "equipped": "<i class=\"fas fa-times\"></i>",
          "carried": "<i class=\"fas fa-check\"></i>",
          "identified": "<i class=\"fas fa-check\"></i>"
        },
        "hasAttack": false,
        "hasMultiAttack": false,
        "hasDamage": false,
        "hasAction": false,
        "showUnidentifiedData": false,
        "isStack": false,
        "isCharged": false,
        "price": 10,
        "empty": false,
        "totalWeight": 0.2,
        "units": "lbs",
        "system": {
          "subType": "gear",
          "description": {
            "value": "<p class=\"source\"><strong>Source</strong> <em>PZO1110</em></p>\n<p>A tiny steel mirror.</p>",
            "chat": "",
            "unidentified": ""
          },
          "tags": [],
          "quantity": 1,
          "weight": {
            "value": 0.2
          },
          "price": 0,
          "identified": true,
          "hp": {
            "max": 10,
            "value": 10
          },
          "hardness": 0,
          "carried": true,
          "unidentified": {
            "price": 0,
            "name": ""
          },
          "identifiedName": "Mirror, Miniature",
          "cl": 0,
          "aura": {
            "custom": false,
            "school": ""
          },
          "links": {
            "children": []
          },
          "damage": {
            "parts": [],
            "critParts": [],
            "nonCritParts": []
          },
          "attackParts": [],
          "conditionals": [],
          "contextNotes": [],
          "weightConverted": 0.2,
          "weightUnits": "lbs",
          "priceUnits": "gp",
          "size": "med",
          "equipped": false,
          "range": {
            "maxIncrements": 1
          }
        }
      },
      {
        "_id": "yMoclCylbCRKyaZF",
        "name": "Soap",
        "permission": {
          "default": 0,
          "ZuWclcb9BUy2aZSN": 3
        },
        "type": "consumable",
        "flags": {
          "core": {
            "sourceId": "Item.cDlDlPy1JSnN6KyN"
          }
        },
        "img": "systems/pf1/icons/items/inventory/soap.jpg",
        "effects": [],
        "labels": {
          "equipped": "<i class=\"fas fa-times\"></i>",
          "carried": "<i class=\"fas fa-check\"></i>",
          "identified": "<i class=\"fas fa-check\"></i>",
          "activation": "Special",
          "target": "",
          "range": "",
          "duration": "",
          "damage": "",
          "damageTypes": ""
        },
        "hasAttack": false,
        "hasMultiAttack": false,
        "hasDamage": false,
        "hasEffect": "",
        "hasAction": true,
        "showUnidentifiedData": false,
        "isStack": false,
        "hasUses": false,
        "isCharged": true,
        "price": 0.01,
        "empty": false,
        "totalWeight": 0,
        "units": "lbs",
        "system": {
          "uses": {
            "value": 50,
            "max": 0,
            "maxFormula": "50",
            "per": "charges",
            "autoDeductChargesCost": "1"
          },
          "description": {
            "value": "<p class=\"source\" style=\"box-sizing: border-box; user-select: text; color: #191813; font-size: 13px;\"><strong style=\"box-sizing: border-box; user-select: text;\">Source</strong>&nbsp;<em>PPZO9410</em></p>\n<p style=\"box-sizing: border-box; user-select: text; color: #191813; font-size: 13px;\">You can use this thick block of soap to scrub clothes, pots, linens, or anything else that might be dirty. A bar of soap has approximately 50 uses.</p>",
            "chat": "",
            "unidentified": ""
          },
          "tags": [],
          "quantity": 1,
          "weight": {
            "value": 0
          },
          "price": 0.01,
          "identified": true,
          "hp": {
            "max": 10,
            "value": 10
          },
          "hardness": 0,
          "carried": true,
          "unidentified": {
            "price": 0,
            "name": ""
          },
          "identifiedName": "Soap",
          "cl": 0,
          "aura": {
            "custom": false,
            "school": ""
          },
          "activation": {
            "cost": 1,
            "type": "special"
          },
          "duration": {
            "value": null,
            "units": ""
          },
          "target": {
            "value": ""
          },
          "range": {
            "value": null,
            "units": "",
            "long": null,
            "maxIncrements": 1
          },
          "measureTemplate": {
            "type": "",
            "size": "",
            "overrideColor": false,
            "customColor": "",
            "overrideTexture": false,
            "customTexture": ""
          },
          "actionType": "",
          "attackBonus": "",
          "critConfirmBonus": "",
          "damage": {
            "parts": [],
            "critParts": [],
            "nonCritParts": []
          },
          "attackParts": [],
          "formula": "",
          "ability": {
            "attack": null,
            "damage": null,
            "damageMult": 1,
            "critRange": 20,
            "critMult": 2
          },
          "save": {
            "dc": 0,
            "type": "",
            "description": ""
          },
          "effectNotes": [],
          "attackNotes": [],
          "soundEffect": "",
          "links": {
            "children": [],
            "charges": []
          },
          "attack": {
            "parts": []
          },
          "weightConverted": 0,
          "weightUnits": "lbs",
          "priceUnits": "gp",
          "size": "med",
          "unchainedAction": {
            "activation": {
              "cost": 1,
              "type": "special"
            }
          },
          "actions": [
            {
              "_id": "5jZZsQzBSE6MlfTp",
              "name": "Use",
              "img": "systems/pf1/icons/items/inventory/soap.jpg",
              "description": "",
              "tag": "",
              "activation": {
                "cost": 1,
                "type": "special"
              },
              "unchainedAction": {
                "activation": {
                  "cost": 1,
                  "type": ""
                }
              },
              "duration": {
                "value": null,
                "units": ""
              },
              "target": {
                "value": ""
              },
              "range": {
                "value": null,
                "units": "",
                "maxIncrements": 1,
                "minValue": null,
                "minUnits": "",
                "long": null
              },
              "uses": {
                "autoDeductChargesCost": "",
                "self": {
                  "value": 0,
                  "maxFormula": "",
                  "per": null
                },
                "value": 50,
                "max": 0,
                "maxFormula": "50",
                "per": "charges"
              },
              "measureTemplate": {
                "type": "",
                "size": "",
                "overrideColor": false,
                "customColor": "",
                "overrideTexture": false,
                "customTexture": ""
              },
              "attackName": "",
              "actionType": "",
              "attackBonus": "",
              "critConfirmBonus": "",
              "damage": {
                "parts": [],
                "critParts": [],
                "nonCritParts": []
              },
              "attackParts": [],
              "formulaicAttacks": {
                "count": {
                  "formula": ""
                },
                "bonus": {
                  "formula": ""
                },
                "label": null
              },
              "formula": "",
              "ability": {
                "attack": null,
                "damage": null,
                "damageMult": 1,
                "critRange": 20,
                "critMult": 2
              },
              "save": {
                "dc": 0,
                "type": "",
                "description": ""
              },
              "effectNotes": "",
              "attackNotes": "",
              "soundEffect": "",
              "powerAttack": {
                "multiplier": "",
                "damageBonus": 2,
                "critMultiplier": 1
              },
              "naturalAttack": {
                "primaryAttack": true,
                "secondary": {
                  "attackBonus": "-5",
                  "damageMult": 0.5
                }
              },
              "nonlethal": false,
              "usesAmmo": false,
              "spellEffect": "",
              "spellArea": "",
              "conditionals": [],
              "enh": {
                "value": null
              }
            }
          ],
          "subType": "misc"
        }
      },
      {
        "name": "Chewing Stick",
        "type": "loot",
        "img": "systems/pf1/icons/items/inventory/dice.jpg",
        "labels": {
          "equipped": "<i class=\"fas fa-times\"></i>",
          "carried": "<i class=\"fas fa-check\"></i>",
          "identified": "<i class=\"fas fa-check\"></i>"
        },
        "hasAttack": false,
        "hasMultiAttack": false,
        "hasDamage": false,
        "hasAction": false,
        "showUnidentifiedData": false,
        "isStack": false,
        "isCharged": false,
        "price": 0,
        "empty": false,
        "totalWeight": 0,
        "units": "lbs",
        "_id": "h1ybjn2il4m65dq9",
        "system": {
          "subType": "gear",
          "description": {
            "value": "",
            "chat": "",
            "unidentified": ""
          },
          "tags": [],
          "quantity": 1,
          "weight": {
            "value": 0
          },
          "price": 0,
          "identified": true,
          "hp": {
            "max": 10,
            "value": 10
          },
          "hardness": 0,
          "carried": true,
          "unidentified": {
            "price": 0,
            "name": ""
          },
          "identifiedName": "Chewing Stick",
          "cl": 0,
          "aura": {
            "custom": false,
            "school": ""
          },
          "links": {
            "children": []
          },
          "typeName": "Gear",
          "weightConverted": 0,
          "weightUnits": "lbs",
          "priceUnits": "gp",
          "damage": {
            "parts": [],
            "critParts": [],
            "nonCritParts": []
          },
          "attackParts": [],
          "conditionals": [],
          "contextNotes": [],
          "size": "med",
          "equipped": false,
          "range": {
            "maxIncrements": 1
          }
        }
      },
      {
        "name": "Tooth Powder",
        "type": "loot",
        "img": "systems/pf1/icons/items/inventory/dice.jpg",
        "labels": {
          "equipped": "<i class=\"fas fa-times\"></i>",
          "carried": "<i class=\"fas fa-check\"></i>",
          "identified": "<i class=\"fas fa-check\"></i>"
        },
        "hasAttack": false,
        "hasMultiAttack": false,
        "hasDamage": false,
        "hasAction": false,
        "showUnidentifiedData": false,
        "isStack": false,
        "isCharged": false,
        "price": 0,
        "empty": false,
        "totalWeight": 0,
        "units": "lbs",
        "_id": "zzujednfr2oipkvd",
        "system": {
          "subType": "gear",
          "description": {
            "value": "",
            "chat": "",
            "unidentified": ""
          },
          "tags": [],
          "quantity": 1,
          "weight": {
            "value": 0
          },
          "price": 0,
          "identified": true,
          "hp": {
            "max": 10,
            "value": 10
          },
          "hardness": 0,
          "carried": true,
          "unidentified": {
            "price": 0,
            "name": ""
          },
          "identifiedName": "Tooth Powder",
          "cl": 0,
          "aura": {
            "custom": false,
            "school": ""
          },
          "links": {
            "children": []
          },
          "typeName": "Gear",
          "weightConverted": 0,
          "weightUnits": "lbs",
          "priceUnits": "gp",
          "damage": {
            "parts": [],
            "critParts": [],
            "nonCritParts": []
          },
          "attackParts": [],
          "conditionals": [],
          "contextNotes": [],
          "size": "med",
          "equipped": false,
          "range": {
            "maxIncrements": 1
          }
        }
      }
    ],
    "basePrice": 1
  }
}
