{
  "_id": "ukhmoytyvteruyvw",
  "name": "Kumis",
  "type": "loot",
  "img": "systems/pf1/icons/items/inventory/dice.jpg",
  "sort": 0,
  "flags": {},
  "system": {
    "description": {
      "value": "<h4><span id=\"Kumis\"><a name=\"TOC-Kumis\"></a>Kumis</span></h4>\r\n<p><b>Price</b> 5 sp; <b>Weight</b> 1-1/2 lbs.</p>\r\n<p>This alcoholic beverage, made from fermented horse milk, has approximately the same potency as typical beer. It is served cold.</p>\r\n"
    },
    "tags": [],
    "price": 0.5,
    "equipped": false,
    "changes": [],
    "contextNotes": [],
    "links": {
      "children": []
    },
    "scriptCalls": [],
    "subType": "gear"
  }
}
