{
  "_id": "ravwaxocirysvuxw",
  "name": "Mask",
  "type": "loot",
  "img": "systems/pf1/icons/items/inventory/mask-bone.jpg",
  "sort": 0,
  "flags": {},
  "system": {
    "description": {
      "value": " \n<p class=\"source\"><b>Source</b> <em>PZO9410</em></p> \n<p>Gala events are where one may see the most outlandish and stylish of masks, but simpler masks may be found wherever local customs permit. They range from small bits of fabric that cover only a portion of the face to elaborate constructions that cover the entire face or head.</p> \n"
    },
    "tags": [],
    "weight": {
      "value": 1
    },
    "price": 0.1,
    "equipped": false,
    "identifiedName": "Mask",
    "changes": [],
    "contextNotes": [],
    "links": {
      "children": []
    },
    "scriptCalls": [],
    "subType": "gear"
  }
}
