{
  "_id": "o2QB3nWZWD4wXPU4",
  "name": "Outfit, Noble's",
  "type": "equipment",
  "img": "systems/pf1/icons/items/equipment/bootsfancy.png",
  "sort": 0,
  "flags": {},
  "system": {
    "description": {
      "value": "<p class=\"source\" style=\"box-sizing: border-box; user-select: text; color: #191813; font-size: 13px;\"><strong style=\"box-sizing: border-box; user-select: text;\">Source</strong>&nbsp;<em>PZO1110</em></p>\n<p style=\"box-sizing: border-box; user-select: text; color: #191813; font-size: 13px;\">These clothes are designed specifically to be expensive and gaudy. Precious metals and gems are worked into the clothing. A would-be noble also needs a signet ring and jewelry (worth at least 100 gp) to accessorize this outfit.</p>\n<p style=\"box-sizing: border-box; user-select: text; color: #191813; font-size: 13px;\">As this outfit does not cost 10 gp or less, player characters can not choose this outfit for free when first beginning play.</p>"
    },
    "tags": [],
    "weight": {
      "value": 10
    },
    "price": 75,
    "identifiedName": "Outfit, Noble's",
    "changes": [],
    "contextNotes": [],
    "actions": [],
    "attackNotes": [],
    "effectNotes": [],
    "links": {
      "children": [],
      "charges": []
    },
    "scriptCalls": [],
    "subType": "misc",
    "equipmentSubtype": "clothing",
    "slot": "body"
  }
}
