{
  "_id": "dsbyoedcjwjrogay",
  "name": "Paper",
  "type": "loot",
  "img": "systems/pf1/icons/items/inventory/dice.jpg",
  "sort": 0,
  "flags": {},
  "system": {
    "description": {
      "value": "\r\n<p><b>Price (per sheet)</b> 4 sp; <b>Weight</b> -</p>\r\n<p>A sheet of ordinary paper typically measures 9 inches by 6 inches and is unsuitable for making magical scrolls. It has hardness 0, 1 hit point, and a break DC of 5.</p>\r\n"
    },
    "tags": [],
    "price": 1,
    "equipped": false,
    "changes": [],
    "contextNotes": [],
    "links": {
      "children": []
    },
    "scriptCalls": [],
    "subType": "gear"
  }
}
