{
  "_id": "zdpsbbtgrlavxngj",
  "name": "Plaster, Casting",
  "type": "loot",
  "img": "systems/pf1/icons/items/inventory/dice.jpg",
  "sort": 0,
  "flags": {},
  "system": {
    "description": {
      "value": "\r\n<p><b>Price</b> 5 sp; <b>Weight</b> 5 lbs.</p>\r\n<p>This white, dry powder mixes with water to form a paste, which hardens over the course of an hour to create a solid material. It can be used to make casts of footprints or carvings, fill in gaps or cracks in walls, or (if applied over a cloth wrapping) create a cast for a broken bone. Hardened plaster has hardness 1 and 5 hit points per inch of thickness. A 5-pound clay pot of plaster can cover about 5 square feet of flat space to a depth of 1 inch, five Medium forearm or lower-leg casts, two Medium full-arm or full-leg casts, or twice as many casts for a Small creature.</p>\r\n"
    },
    "tags": [],
    "weight": {
      "value": 5
    },
    "price": 0.5,
    "equipped": false,
    "changes": [],
    "contextNotes": [],
    "links": {
      "children": []
    },
    "scriptCalls": [],
    "subType": "gear"
  }
}
