{
  "_id": "nojjrvuhnaycvoab",
  "name": "Poncho",
  "type": "loot",
  "img": "systems/pf1/icons/items/inventory/dice.jpg",
  "sort": 0,
  "flags": {},
  "system": {
    "description": {
      "value": " \n<p><b>Price</b> 5 sp; <b>Weight</b> 2 lbs.</p> \n<p>This circle of water-resistant fabric (typically wool or leather) has a hooded opening in the center, making it easy to slip it on or off and protecting your entire body from rain or snow.</p> \n"
    },
    "tags": [],
    "weight": {
      "value": 2
    },
    "price": 0.5,
    "equipped": false,
    "changes": [],
    "contextNotes": [],
    "links": {
      "children": []
    },
    "scriptCalls": [],
    "subType": "gear"
  }
}
