{
  "_id": "niubngvuabbkxgxa",
  "name": "Powder, Flash",
  "type": "loot",
  "img": "systems/pf1/icons/items/inventory/dice.jpg",
  "sort": 0,
  "flags": {},
  "system": {
    "description": {
      "value": "\r\n<p class=\"source\"><b>Source</b> <em>PZO1115</em></p>\r\n<p>This coarse gray powder ignites and burns almost instantly if exposed to flame, significant friction, or even a simple force such as throwing it against a floor (a <em>standard action</em>). Creatures within the 10-foot-radius burst are <em>blinded</em> for 1 round (<em>Fortitude</em> DC 13 negates).</p>\r\n<p><b>Create</b>: <em>Craft</em> (alchemy) DC 20</p>\r\n<p class=\"header\">Alchemical Power Component</p>\r\n<p class=\"source\"><b>Source</b> <em>PZO9410</em></p>\r\n<p>Useful as a distraction, flash powder makes light-burst spells more dangerous.</p>\r\n<ul>\r\n<li><em>Flare</em> (M): Increase the saving throw DC of the spell by 2.</li>\r\n<li><em>Pyrotechnics</em> (M): When used to create fireworks, increase the DC by 1 and the blindness duration by 1 round.</li>\r\n</ul>\r\n"
    },
    "tags": [],
    "price": 50,
    "equipped": false,
    "changes": [],
    "contextNotes": [],
    "links": {
      "children": []
    },
    "scriptCalls": [],
    "subType": "gear"
  }
}
