{
  "_id": "trucdntfxjdukrox",
  "name": "Powder, Black",
  "type": "loot",
  "img": "systems/pf1/icons/items/inventory/dice.jpg",
  "sort": 0,
  "flags": {},
  "system": {
    "description": {
      "value": "\r\n<p class=\"source\"><b>Source</b> <em>PZO9445</em></p>\r\n<p><b>Price</b> 10 gp; <b>Weight</b> -</p>\r\n<p>Black powder is a volatile explosive and is the primary component in fireworks and other explosives.</p>\r\n<p class=\"header\">Alchemical Power Component</p>\r\n<p><b>Doses</b> 1 (10 gp); <b>Spells</b> evocation school</p>\r\n<p>Spells of the evocation school deal 1 additional point of the same type of energy damage.</p>\r\n"
    },
    "tags": [],
    "price": 10,
    "equipped": false,
    "changes": [],
    "contextNotes": [],
    "links": {
      "children": []
    },
    "scriptCalls": [],
    "subType": "gear"
  }
}
