{
  "_id": "nmnyrrzzysftbzul",
  "name": "Realgar",
  "type": "loot",
  "img": "systems/pf1/icons/items/inventory/dice.jpg",
  "sort": 0,
  "flags": {},
  "system": {
    "description": {
      "value": "\r\n<p class=\"source\"><b>Source</b> <em>PZO9445</em></p>\r\n<p><b>Price</b> 3 gp; <b>Weight</b> -</p>\r\n<p>Realgar, also called ruby of arsenic, is a red crystal useful in creating poisons and medicines. It is commonly purified into arsenic, a crystalline metal known as the \"king of poisons\" for its popularity among nobles seeking to poison their rivals.</p>\r\n<p class=\"header\">Alchemical Power Component</p>\r\n<p><b>Doses</b> 1 (3 gp); <b>Spells</b> poison descriptor</p>\r\n<p>The DC to identify or neutralize spells with the [poison] descriptor is increased by +2.</p>\r\n"
    },
    "tags": [],
    "price": 3,
    "equipped": false,
    "changes": [],
    "contextNotes": [],
    "links": {
      "children": []
    },
    "scriptCalls": [],
    "subType": "gear"
  }
}
