{
  "_id": "gW1bPqOvVfpmqEqd",
  "name": "Saddlebags",
  "type": "loot",
  "img": "systems/pf1/icons/items/inventory/dice.jpg",
  "sort": 0,
  "flags": {},
  "system": {
    "description": {
      "value": "<p>Source&nbsp;<a href=\"http://paizo.com/products/btpy8tmc?Pathfinder-Roleplaying-Game-Ultimate-Equipment\" target=\"_blank\" rel=\"noopener\">Ultimate Equipment pg. 81</a>,&nbsp;<a href=\"http://paizo.com/pathfinderRPG/v5748btpy88yj\" target=\"_blank\" rel=\"noopener\">PRPG Core Rulebook pg. 159</a><br>Price&nbsp;4 gp;&nbsp;Weight&nbsp;8 lbs.<br>Category&nbsp;Animal Gear</p>\n<h3>Description</h3>\n<p>These sturdy, weatherproof bags are draped over a saddle to add extra carrying capacity. Each side of a saddlebag can typically carry 20 pound of items that can fit in the bags. Saddlebags do not increase the amount of weight a mount can carry; they merely give riders a place to stow their equipment.</p>"
    },
    "tags": [],
    "weight": {
      "value": 8
    },
    "price": 4,
    "equipped": false,
    "identifiedName": "Saddlebags",
    "changes": [],
    "contextNotes": [],
    "links": {
      "children": []
    },
    "scriptCalls": [],
    "subType": "gear"
  }
}
