{
  "_id": "rbstbtaujitvszmd",
  "name": "Sash, Adventurer's",
  "type": "loot",
  "img": "systems/pf1/icons/items/inventory/dice.jpg",
  "sort": 0,
  "flags": {},
  "system": {
    "description": {
      "value": " \n<p class=\"source\"><b>Source</b> <a href=\"http://amzn.to/2eT3m9D\" target=\"_blank\" rel=\"noopener\">PPZO94102</a></p> \n<p><b>Price</b> 20 gp; <b>Weight</b> 3 lbs.</p> \n<p>This <em>bandolier</em> holds six pouches along its length and a satchel at the hip. Each pouch has a stiff leather flap that can be secured against jostling with a clasp (requiring a <em>move action</em> to open or close) or left unfastened for easier access. The pouches and satchel contain loops and ties for securing additional equipment.</p> \n<p>The sash buckles at the shoulder, and in an emergency can be freed with a sharp tug as a <em>move action</em>.</p> \n"
    },
    "tags": [],
    "weight": {
      "value": 3
    },
    "price": 20,
    "equipped": false,
    "changes": [],
    "contextNotes": [],
    "links": {
      "children": []
    },
    "scriptCalls": [],
    "subType": "gear"
  }
}
