{
  "_id": "vkkjrjgxubveplsz",
  "name": "Stillgut",
  "type": "loot",
  "img": "systems/pf1/icons/items/inventory/dice.jpg",
  "sort": 0,
  "flags": {},
  "system": {
    "description": {
      "value": "\r\n<p class=\"source\"><b>Source</b> <em>PZO1121</em></p>\r\n<p>Drinking a vial of this bland, bluish liquid grants you a +5 <em>alchemical bonus</em> on <em>Fortitude</em> saves to avoid nausea or sickness for 1 hour. If you are already <em>nauseated</em>, you can drink stillgut as a <em>move action</em>. Drinking it in this fashion grants you a second saving throw (without the +5 bonus). Goblins often use stillgut so they can choke down meat or other foods in stages of rot or decay.</p>\r\n"
    },
    "tags": [],
    "price": 50,
    "equipped": false,
    "changes": [],
    "contextNotes": [],
    "links": {
      "children": []
    },
    "scriptCalls": [],
    "subType": "gear"
  }
}
