{
  "_id": "PqGYXj1wsBYl0fv2",
  "name": "Anguish Bomb",
  "type": "feat",
  "img": "systems/pf1/icons/items/potions/unique-3.jpg",
  "sort": 0,
  "flags": {},
  "system": {
    "description": {
      "value": "<p>You can throw bombs infused with psychic trauma. This discovery allows other alchemists to duplicate the anguish bombs used by&nbsp;<a href=\"https://aonprd.com/ArchetypeDisplay.aspx?FixedName=Alchemist%20Mnemostiller\">mnemostillers</a>.</p>"
    },
    "tags": [],
    "actions": [],
    "attackNotes": [],
    "effectNotes": [],
    "changes": [],
    "contextNotes": [],
    "links": {
      "children": [],
      "charges": []
    },
    "tag": "classFeat_anguishBomb",
    "useCustomTag": true,
    "armorProf": {
      "value": []
    },
    "weaponProf": {
      "value": []
    },
    "languages": {
      "value": []
    },
    "scriptCalls": [],
    "subType": "classFeat",
    "associations": {
      "classes": [["Alchemist"]]
    }
  }
}
