{
  "_id": "8AJT0T9xGWRxxj5i",
  "name": "Aquatic Adaptation",
  "type": "feat",
  "img": "systems/pf1/icons/skills/emerald_05.jpg",
  "sort": 0,
  "flags": {},
  "system": {
    "description": {
      "value": "<p>At 3rd level, you gain a swim&nbsp;<em>speed</em>&nbsp;of 30 feet. At 9th level, you gain the&nbsp;<em>amphibious</em>&nbsp;special quality and develop a fat layer that grants a +1&nbsp;<em>natural armor bonus</em>&nbsp;and resist cold 5. When immersed in water, you gain&nbsp;<em>blindsense</em>&nbsp;30 feet. At 15th level, you gain a swim&nbsp;<em>speed</em>&nbsp;of 60 feet and&nbsp;<em>blindsense</em>&nbsp;of 60 feet in water.</p>"
    },
    "tags": [],
    "actions": [
      {
        "_id": "jd09r8hevsgy9q0i",
        "name": "Use",
        "img": "systems/pf1/icons/skills/emerald_05.jpg",
        "description": "",
        "tag": "",
        "activation": {
          "cost": 1,
          "type": "passive"
        },
        "unchainedAction": {
          "activation": {
            "cost": 1,
            "type": "passive"
          }
        },
        "duration": {
          "value": null,
          "units": ""
        },
        "target": {
          "value": ""
        },
        "range": {
          "value": null,
          "units": "",
          "maxIncrements": 1,
          "minValue": null,
          "minUnits": ""
        },
        "uses": {
          "autoDeductChargesCost": "",
          "self": {
            "value": 0,
            "maxFormula": "",
            "per": null
          },
          "per": "",
          "value": 0,
          "maxFormula": ""
        },
        "measureTemplate": {
          "type": "",
          "size": "0",
          "overrideColor": false,
          "customColor": "",
          "overrideTexture": false,
          "customTexture": ""
        },
        "attackName": "",
        "actionType": "",
        "attackBonus": "",
        "critConfirmBonus": "",
        "damage": {
          "parts": [],
          "critParts": [],
          "nonCritParts": []
        },
        "attackParts": [],
        "formulaicAttacks": {
          "count": {
            "formula": ""
          },
          "bonus": {
            "formula": ""
          },
          "label": null
        },
        "formula": "",
        "ability": {
          "attack": null,
          "damage": null,
          "damageMult": 1,
          "critRange": 20,
          "critMult": 2
        },
        "save": {
          "dc": 0,
          "type": "",
          "description": ""
        },
        "effectNotes": [],
        "attackNotes": [],
        "soundEffect": "",
        "powerAttack": {
          "multiplier": "",
          "damageBonus": 2,
          "critMultiplier": 1
        },
        "naturalAttack": {
          "primaryAttack": true,
          "secondary": {
            "attackBonus": "-5",
            "damageMult": 0.5
          }
        },
        "nonlethal": false,
        "usesAmmo": false,
        "spellEffect": "",
        "spellArea": "",
        "conditionals": [],
        "enh": {
          "value": null
        }
      }
    ],
    "uses": {
      "per": ""
    },
    "attackNotes": [],
    "effectNotes": [],
    "changes": [
      {
        "_id": "vk3jemkk",
        "formula": "@classes.sorcerer.level >= 15 ? 60 : 30",
        "operator": "add",
        "subTarget": "swimSpeed",
        "modifier": "base",
        "priority": 0,
        "value": 0,
        "target": "speed"
      },
      {
        "_id": "uq8lnaor",
        "formula": "@classes.sorcerer.level >= 9 ? 1 : 0",
        "operator": "add",
        "subTarget": "nac",
        "modifier": "untyped",
        "priority": 0,
        "value": 0,
        "target": "ac"
      }
    ],
    "contextNotes": [],
    "links": {
      "children": [],
      "charges": []
    },
    "tag": "classFeat_aquaticAdaptation",
    "useCustomTag": true,
    "armorProf": {
      "value": []
    },
    "weaponProf": {
      "value": []
    },
    "languages": {
      "value": []
    },
    "scriptCalls": [],
    "subType": "classFeat",
    "associations": {
      "classes": [["Sorcerer"]]
    },
    "abilityType": "ex"
  }
}
