{
  "_id": "CMm74kETONnAlydH",
  "name": "Arcane Bloodrager Bloodline",
  "type": "feat",
  "img": "systems/pf1/icons/skills/red_13.jpg",
  "sort": 0,
  "flags": {},
  "system": {
    "description": {
      "value": "<p><em>While others of your kin may be powerful wizards and sorcerers, the eldritch nature of the blood coursing through your veins transforms you into a spell-breaking terror.</em><br><br><strong>Bonus Feats: </strong></p>\n<ul>\n<li>@Compendium[pf1.feats.h9nHYLxXvIXBTmup]{Combat Reflexes}</li>\n<li>@Compendium[pf1.feats.QaMwiDFQdDwycTUO]{Disruptive}*</li>\n<li>@Compendium[pf1.feats.Uuiu3p982omhMEPj]{Improved Initiative}</li>\n<li>@Compendium[pf1.feats.iAbIGhm7T2OK9Brt]{Iron Will}</li>\n<li>@Compendium[pf1.feats.FUW5mIXHNBBIQ1Sq]{Power Attack}</li>\n<li>@Compendium[pf1.feats.WKIVfdosc5SqYzmP]{Quick Draw}</li>\n<li>@Compendium[pf1.feats.yE3hVOvBq9rx6TAw]{Spellbreaker}*.</li>\n</ul>\n<p>(Your bloodrager levels count as fighter levels for the purposes of qualifying for any feats marked with an asterisk [*].) This stacks with any levels in fighter you have.</p>\n<p><strong>Bonus Spells:&nbsp;</strong></p>\n<ul>\n<li>@Compendium[pf1.spells.49yc9dpr4kvgki2s]{Magic Missile}&nbsp;(7th),</li>\n<li>@Compendium[pf1.spells.oylikodnyku2zewu]{Invisibility} (10th),</li>\n<li>@Compendium[pf1.spells.m84969gni5iu4bdt]{Lightning Bolt}&nbsp;(13th),&nbsp;</li>\n<li>@Compendium[pf1.spells.ojwg1ki98tq8xyh9]{Dimension Door}&nbsp;(16th)</li>\n</ul>"
    },
    "tags": [],
    "actions": [],
    "attackNotes": [],
    "effectNotes": [],
    "changes": [],
    "contextNotes": [],
    "links": {
      "children": [],
      "charges": []
    },
    "tag": "classFeat_arcaneBloodragerBloodline",
    "useCustomTag": true,
    "armorProf": {
      "value": []
    },
    "weaponProf": {
      "value": []
    },
    "languages": {
      "value": []
    },
    "scriptCalls": [],
    "subType": "classFeat",
    "associations": {
      "classes": [["Bloodrager"]]
    }
  }
}
