{
  "_id": "d6zcYlRQmpj9D5oy",
  "name": "Astral Beacon",
  "type": "feat",
  "img": "systems/pf1/icons/skills/emerald_03.jpg",
  "sort": 0,
  "flags": {},
  "system": {
    "description": {
      "value": "<p>At 20th level, a medium is an open connection to the Astral Plane and a shining beacon for spirits. As a free action, he can channel spirits of any of the five legends he did not contact via his seance. This ability lasts for 1 round and grants access to the intermediate, greater, and supreme spirit powers of the chosen spirits.</p>\n<p>Unlike trance of three, astral beacon allows spirits of the chosen legends (for instance, archmage) to gain influence over the medium until 24 hours from when the medium contacted his primary spirit.</p>\n<p>Also unlike trance of three, if the medium would incur influence by using one of the new spirits’ abilities, that influence is added to the medium’s total influence from that spirit rather than from his primary spirit.</p>"
    },
    "tags": [],
    "actions": [],
    "attackNotes": [],
    "effectNotes": [],
    "changes": [],
    "contextNotes": [],
    "links": {
      "children": [],
      "charges": []
    },
    "tag": "classFeat_astralBeacon",
    "useCustomTag": true,
    "armorProf": {
      "value": []
    },
    "weaponProf": {
      "value": []
    },
    "languages": {
      "value": []
    },
    "scriptCalls": [],
    "subType": "classFeat",
    "associations": {
      "classes": [["Medium"]]
    },
    "abilityType": "su"
  }
}
