{
  "_id": "u7r3RkiMNAhv9I2d",
  "name": "Augment",
  "type": "feat",
  "img": "systems/pf1/icons/feats/exhausting-critical.jpg",
  "sort": 0,
  "flags": {},
  "system": {
    "description": {
      "value": "<p>As a&nbsp;<em>standard action</em>, you can touch a creature and grant it either a +2&nbsp;<em>enhancement bonus</em>&nbsp;to a single ability score of your choice or a +1 bonus to&nbsp;<em>natural armor</em>&nbsp;that stacks with any&nbsp;<em>natural armor</em>&nbsp;the creature might possess. At 10th level, the&nbsp;<em>enhancement bonus</em>&nbsp;to one ability score increases to +4. The&nbsp;<em>natural armor bonus</em>&nbsp;increases by +1 for every five wizard levels you possess, to a maximum of +5 at 20th level. This augmentation lasts a number of rounds equal to 1/2 your wizard level (minimum 1 round). You can use this ability a number of times per day equal to 3 + your&nbsp;<em>Intelligence</em>&nbsp;modifier.</p>"
    },
    "tags": [],
    "actions": [
      {
        "_id": "on3q173f0e877bbo",
        "name": "Use",
        "img": "systems/pf1/icons/feats/exhausting-critical.jpg",
        "description": "",
        "tag": "",
        "activation": {
          "cost": 1,
          "type": "standard"
        },
        "unchainedAction": {
          "activation": {
            "cost": 2,
            "type": "action"
          }
        },
        "duration": {
          "value": "@classes.wizard.level < 4 ? 1 : floor(@classes.wizard.level / 2)",
          "units": "round"
        },
        "target": {
          "value": "creature touched"
        },
        "range": {
          "value": null,
          "units": "touch",
          "maxIncrements": 1,
          "minValue": null,
          "minUnits": ""
        },
        "uses": {
          "autoDeductChargesCost": "",
          "self": {
            "value": 0,
            "maxFormula": "",
            "per": null
          },
          "per": "day",
          "value": 0,
          "maxFormula": "3 + @abilities.int.mod"
        },
        "measureTemplate": {
          "type": "",
          "size": "0",
          "overrideColor": false,
          "customColor": "",
          "overrideTexture": false,
          "customTexture": ""
        },
        "attackName": "",
        "actionType": "",
        "attackBonus": "",
        "critConfirmBonus": "",
        "damage": {
          "parts": [],
          "critParts": [],
          "nonCritParts": []
        },
        "attackParts": [],
        "formulaicAttacks": {
          "count": {
            "formula": ""
          },
          "bonus": {
            "formula": ""
          },
          "label": null
        },
        "formula": "",
        "ability": {
          "attack": null,
          "damage": null,
          "damageMult": 1,
          "critRange": 20,
          "critMult": 2
        },
        "save": {
          "dc": 0,
          "type": "",
          "description": ""
        },
        "effectNotes": [],
        "attackNotes": [],
        "soundEffect": "",
        "powerAttack": {
          "multiplier": "",
          "damageBonus": 2,
          "critMultiplier": 1
        },
        "naturalAttack": {
          "primaryAttack": true,
          "secondary": {
            "attackBonus": "-5",
            "damageMult": 0.5
          }
        },
        "nonlethal": false,
        "usesAmmo": false,
        "spellEffect": "",
        "spellArea": "",
        "conditionals": [],
        "enh": {
          "value": null
        }
      }
    ],
    "uses": {
      "per": "day",
      "maxFormula": "3 + @abilities.int.mod"
    },
    "attackNotes": [],
    "effectNotes": [],
    "changes": [],
    "contextNotes": [],
    "links": {
      "children": [],
      "charges": []
    },
    "tag": "classFeat_augment",
    "useCustomTag": true,
    "armorProf": {
      "value": []
    },
    "weaponProf": {
      "value": []
    },
    "languages": {
      "value": []
    },
    "scriptCalls": [],
    "subType": "classFeat",
    "associations": {
      "classes": [["Wizard"]]
    },
    "abilityType": "sp"
  }
}
