{
  "_id": "lJNsUQjIH3OxKP2Q",
  "name": "Bardic Pretender",
  "type": "feat",
  "img": "systems/pf1/icons/items/weapons/dagger.PNG",
  "sort": 0,
  "flags": {},
  "system": {
    "description": {
      "value": "<p>The rogue knows enough about music and performance to survive in a bardic college and can fake what she doesn’t know. The rogue qualifies as having the&nbsp;<a href=\"https://aonprd.com/ClassDisplay.aspx?ItemName=Bard\">inspire competence bardic performance class feature</a>&nbsp;for the purpose of meeting prestige class requirements, although this talent doesn’t grant her the bardic performance ability.</p>"
    },
    "tags": [],
    "actions": [],
    "attackNotes": [],
    "effectNotes": [],
    "changes": [],
    "contextNotes": [],
    "links": {
      "children": [],
      "charges": []
    },
    "tag": "classFeat_bardicPretender",
    "useCustomTag": true,
    "armorProf": {
      "value": []
    },
    "weaponProf": {
      "value": []
    },
    "languages": {
      "value": []
    },
    "scriptCalls": [],
    "subType": "classFeat",
    "associations": {
      "classes": [["Rogue"]]
    },
    "abilityType": "ex"
  }
}
