{
  "_id": "8iI3UFH57ltTRGLH",
  "name": "Beast Friend",
  "type": "feat",
  "img": "systems/pf1/icons/feats/persuasive.jpg",
  "sort": 0,
  "flags": {},
  "system": {
    "description": {
      "value": "<p>The vigilante can cast @Compendium[pf1.spells.pg7dbmuuaksxhp3v]{Charm Animal}&nbsp;once per day as a spell-like ability, with a caster level equal to his level.</p>\n<p>The vigilante must have the songbird talent to select this talent.</p>"
    },
    "tags": [],
    "actions": [],
    "attackNotes": [],
    "effectNotes": [],
    "changes": [],
    "contextNotes": [],
    "links": {
      "children": [],
      "charges": []
    },
    "tag": "classFeat_beastFriend",
    "useCustomTag": true,
    "armorProf": {
      "value": []
    },
    "weaponProf": {
      "value": []
    },
    "languages": {
      "value": []
    },
    "scriptCalls": [],
    "subType": "classFeat",
    "associations": {
      "classes": [["Vigilante"]]
    },
    "abilityType": "su"
  }
}
