{
  "_id": "veyAa4qdI9lqSx6m",
  "name": "Channel Negative Energy",
  "type": "feat",
  "img": "systems/pf1/icons/skills/violet_17.jpg",
  "sort": 0,
  "flags": {},
  "system": {
    "description": {
      "value": "<p>When an antipaladin reaches 4th level, he gains the supernatural ability to channel negative energy like a&nbsp;<a href=\"https://www.aonprd.com/ClassDisplay.aspx?ItemName=Cleric\">cleric</a>. Using this ability consumes two uses of his touch of corruption ability. An antipaladin uses his level as his effective cleric level when channeling negative energy. This is a Charisma-based ability.</p>"
    },
    "tags": [],
    "actions": [
      {
        "_id": "88fpcie6kdn01ln5",
        "name": "Use",
        "img": "systems/pf1/icons/skills/violet_17.jpg",
        "description": "",
        "tag": "",
        "activation": {
          "cost": 1,
          "type": "standard"
        },
        "unchainedAction": {
          "activation": {
            "cost": 2,
            "type": "action"
          }
        },
        "duration": {
          "value": null,
          "units": "inst"
        },
        "target": {
          "value": "self; affects living OR undead"
        },
        "range": {
          "value": "30",
          "units": "ft",
          "maxIncrements": "1",
          "minValue": null,
          "minUnits": ""
        },
        "uses": {
          "autoDeductChargesCost": "2",
          "self": {
            "value": 0,
            "maxFormula": "",
            "per": null
          },
          "per": "charges",
          "value": 0,
          "maxFormula": ""
        },
        "measureTemplate": {
          "type": "circle",
          "size": "30",
          "overrideColor": true,
          "customColor": "",
          "overrideTexture": false,
          "customTexture": ""
        },
        "attackName": "",
        "actionType": "save",
        "attackBonus": "",
        "critConfirmBonus": "",
        "damage": {
          "parts": [
            [
              "(ceil(@classes.antipaladin.level / 2))d6",
              {
                "values": ["negative"],
                "custom": ""
              }
            ]
          ],
          "critParts": [],
          "nonCritParts": []
        },
        "attackParts": [],
        "formulaicAttacks": {
          "count": {
            "formula": ""
          },
          "bonus": {
            "formula": ""
          },
          "label": null
        },
        "formula": "",
        "ability": {
          "attack": null,
          "damage": "",
          "damageMult": 1,
          "critRange": 20,
          "critMult": 2
        },
        "save": {
          "dc": "10 + floor(@classes.antipaladin.level / 2) + @abilities.cha.mod",
          "type": "will",
          "description": "Will halves damage"
        },
        "effectNotes": [],
        "attackNotes": [],
        "soundEffect": "",
        "powerAttack": {
          "multiplier": "",
          "damageBonus": 2,
          "critMultiplier": 1
        },
        "naturalAttack": {
          "primaryAttack": true,
          "secondary": {
            "attackBonus": "-5",
            "damageMult": 0.5
          }
        },
        "nonlethal": false,
        "usesAmmo": false,
        "spellEffect": "",
        "spellArea": "",
        "conditionals": [],
        "enh": {
          "value": null
        }
      }
    ],
    "uses": {
      "per": "charges"
    },
    "attackNotes": [],
    "effectNotes": [],
    "changes": [],
    "contextNotes": [],
    "links": {
      "children": [],
      "charges": []
    },
    "tag": "classFeat_channelNegativeEnergy",
    "useCustomTag": true,
    "armorProf": {
      "value": []
    },
    "weaponProf": {
      "value": []
    },
    "languages": {
      "value": []
    },
    "scriptCalls": [],
    "subType": "classFeat",
    "associations": {
      "classes": [["Antipaladin"]]
    },
    "abilityType": "su"
  }
}
