{
  "_id": "kmA5EX7k3Ol2rfPu",
  "name": "Cooperation Subdomain",
  "type": "feat",
  "img": "systems/pf1/icons/skills/blue_23.jpg",
  "sort": 0,
  "flags": {},
  "system": {
    "description": {
      "value": "<p><strong>Replacement Domain Spells:</strong></p>\n<ul>\n<li>1st—@Compendium[pf1.spells.mmc8z9bzozgeg4dm]{Borrow Skill}</li>\n<li>2nd—@Compendium[pf1.spells.etskn140auk6cjj2]{Share Language}</li>\n<li>3rd—@Compendium[pf1.spells.lisojmynoblunlex]{Coordinated Effort}</li>\n</ul>"
    },
    "tags": [],
    "actions": [],
    "attackNotes": [],
    "effectNotes": [],
    "changes": [],
    "contextNotes": [],
    "links": {
      "children": [],
      "charges": []
    },
    "tag": "classFeat_cooperationSubdomain",
    "useCustomTag": true,
    "armorProf": {
      "value": []
    },
    "weaponProf": {
      "value": []
    },
    "languages": {
      "value": []
    },
    "scriptCalls": [],
    "subType": "classFeat",
    "associations": {
      "classes": [["Cleric"]]
    }
  }
}
