{
  "_id": "yuphbIf5D3nkjeXC",
  "name": "Cursed Bomb",
  "type": "feat",
  "img": "systems/pf1/icons/items/potions/unique-3.jpg",
  "sort": 0,
  "flags": {},
  "system": {
    "description": {
      "value": "<p>When an alchemist creates a bomb, he can choose to have it deliver a debilitating curse. A creature that takes a direct hit from a cursed bomb must succeed at a Will save or be affected by @Compendium[pf1.spells.lsboosfk26m0ycqv]{Bestow Curse}.</p>\n<p>An alchemist must be at least 12th level to select this discovery.</p>"
    },
    "tags": [],
    "actions": [],
    "attackNotes": [],
    "effectNotes": [],
    "changes": [],
    "contextNotes": [],
    "links": {
      "children": [],
      "charges": []
    },
    "tag": "classFeat_cursedBomb",
    "useCustomTag": true,
    "armorProf": {
      "value": []
    },
    "weaponProf": {
      "value": []
    },
    "languages": {
      "value": []
    },
    "scriptCalls": [],
    "subType": "classFeat",
    "associations": {
      "classes": [["Alchemist"]]
    }
  }
}
