{
  "_id": "XUzdB3wSzV63RQHZ",
  "name": "Destined Bloodrager Bloodline",
  "type": "feat",
  "img": "systems/pf1/icons/skills/red_13.jpg",
  "sort": 0,
  "flags": {},
  "system": {
    "description": {
      "value": "<p><em>Your bloodline is destined for great things. When you bloodrage, you exude a greatness that makes all but the most legendary creatures seem lesser.</em><br><br><strong>Bonus Feats:</strong></p>\n<ul>\n<li>@Compendium[pf1.feats.O0e0UCim27GPKFuW]{Diehard}</li>\n<li>@Compendium[pf1.feats.ehqx8txNRGMaNOPt]{Endurance}</li>\n<li>@Compendium[pf1.feats.Uuiu3p982omhMEPj]{Improved Initiative}</li>\n<li>@Compendium[pf1.feats.O0jbkTJcIji9BNiF]{Intimidating Prowess}</li>\n<li>@Compendium[pf1.feats.R3a1OV18RwDJftvq]{Leadership}</li>\n<li>@Compendium[pf1.feats.0bZf3SDkvVOe2ujH]{Lightning Reflexes}</li>\n<li>@Compendium[pf1.feats.n250dFlbykAIAg5Z]{Weapon Focus}</li>\n</ul>\n<p><strong>Bonus Spells:&nbsp;</strong></p>\n<ul>\n<li>@Compendium[pf1.spells.sz7j540uypmqqvti]{Shield}&nbsp;(7th),&nbsp;</li>\n<li>@Compendium[pf1.spells.18kryvj2dfuymk9d]{Blur}&nbsp;(10th),&nbsp;</li>\n<li>@Compendium[pf1.spells.1vh2ewwvzvxunoxk]{Protection from Energy}&nbsp;(13th),&nbsp;</li>\n<li>@Compendium[pf1.spells.lvzq2mwkqmozolpl]{Freedom of Movement}&nbsp;(16th)</li>\n</ul>"
    },
    "tags": [],
    "actions": [],
    "attackNotes": [],
    "effectNotes": [],
    "changes": [],
    "contextNotes": [],
    "links": {
      "children": [],
      "charges": []
    },
    "tag": "classFeat_destinedBloodragerBloodline",
    "useCustomTag": true,
    "armorProf": {
      "value": []
    },
    "weaponProf": {
      "value": []
    },
    "languages": {
      "value": []
    },
    "scriptCalls": [],
    "subType": "classFeat",
    "associations": {
      "classes": [["Bloodrager"]]
    }
  }
}
