{
  "_id": "OfPvY3k8YAD9yJA0",
  "name": "Dispelling Attack (UC)",
  "type": "feat",
  "img": "systems/pf1/icons/items/weapons/razor-drow.PNG",
  "sort": 0,
  "flags": {},
  "system": {
    "description": {
      "value": "<p>An opponent that is dealt sneak attack damage by a rogue with this ability is affected by a targeted&nbsp;dispel magic&nbsp;affecting the lowest-level spell effect active on the target. The caster level for this ability is equal to the rogue’s level.</p>\n<p>A rogue must have the major magic rogue talent to select this advanced talent.</p>"
    },
    "tags": [],
    "actions": [],
    "attackNotes": [],
    "effectNotes": [],
    "changes": [],
    "contextNotes": [],
    "links": {
      "children": [],
      "charges": []
    },
    "tag": "classFeat_dispellingAttackUc",
    "useCustomTag": true,
    "armorProf": {
      "value": []
    },
    "weaponProf": {
      "value": []
    },
    "languages": {
      "value": []
    },
    "scriptCalls": [],
    "subType": "classFeat",
    "associations": {
      "classes": [["Rogue (Unchained)"]]
    },
    "abilityType": "su"
  }
}
