{
  "_id": "c3X9MY1kBwdlbMP6",
  "name": "Dispelling Strikes",
  "type": "feat",
  "img": "systems/pf1/icons/skills/red_05.jpg",
  "sort": 0,
  "flags": {},
  "system": {
    "description": {
      "value": "<p>At 1st level, when you confirm a critical hit against a target, you can also attempt to dispel the target as if you had cast @Compendium[pf1.spells.gmgwyjfpeuuc4t4o]{Dispel Magic}&nbsp;as a bloodrager spell and used the targeted dispel function. You can dispel only a single magical effect per use of this ability, and you can use this ability against a particular creature only once per day.</p>\n<p>At 8th level, you gain a +2 bonus on your dispel check when using this ability.</p>\n<p>At 20th level, you can attempt to dispel all magical effects on your target when using this ability.</p>"
    },
    "tags": [],
    "actions": [],
    "attackNotes": [],
    "effectNotes": [],
    "changes": [],
    "contextNotes": [],
    "links": {
      "children": [],
      "charges": []
    },
    "tag": "classFeat_dispellingStrikes",
    "useCustomTag": true,
    "armorProf": {
      "value": []
    },
    "weaponProf": {
      "value": []
    },
    "languages": {
      "value": []
    },
    "scriptCalls": [],
    "subType": "classFeat",
    "associations": {
      "classes": [["Bloodrager"]]
    },
    "abilityType": "su"
  }
}
