{
  "_id": "qolr4xYig9tY8rcQ",
  "name": "Dragon Wings",
  "type": "feat",
  "img": "systems/pf1/icons/skills/red_05.jpg",
  "sort": 0,
  "flags": {},
  "system": {
    "description": {
      "value": "<p>At 12th level, when entering a bloodrage, you can choose to have leathery wings grow from your back, giving you a fly speed of 60 feet with average maneuverability.</p>\n<p>At 16th level, your fly speed increases to 80 feet with good maneuverability.</p>"
    },
    "tags": [],
    "actions": [],
    "attackNotes": [],
    "effectNotes": [],
    "changes": [
      {
        "_id": "ib7i7j1s",
        "formula": "@classes.bloodrager.level >= 16 ? 80 : 60",
        "operator": "add",
        "subTarget": "flySpeed",
        "modifier": "base",
        "priority": 0,
        "value": 0,
        "target": "speed"
      }
    ],
    "contextNotes": [],
    "links": {
      "children": [],
      "charges": []
    },
    "tag": "classFeat_dragonWings",
    "useCustomTag": true,
    "armorProf": {
      "value": []
    },
    "weaponProf": {
      "value": []
    },
    "languages": {
      "value": []
    },
    "scriptCalls": [],
    "subType": "classFeat",
    "associations": {
      "classes": [["Bloodrager"]]
    },
    "abilityType": "su"
  }
}
