{
  "_id": "fOrSCrSzq2R79Xne",
  "name": "Duels Subdomain",
  "type": "feat",
  "img": "systems/pf1/icons/skills/weapon_21.jpg",
  "sort": 0,
  "flags": {},
  "system": {
    "description": {
      "value": "<p><strong>Replacement Domain Spells:</strong></p>\n<ul>\n<li>2nd—@Compendium[pf1.spells.uk340huvgyg1z8yh]{Warding Weapon}</li>\n<li>5th—@Compendium[pf1.spells.mkn0jklea8knq1lz]{Dance of a Hundred Cuts}</li>\n<li>8th—@Compendium[pf1.spells.ai9o7xqyftbf9ses]{Dance of a Thousand Cuts}</li>\n</ul>"
    },
    "tags": [],
    "actions": [],
    "attackNotes": [],
    "effectNotes": [],
    "changes": [],
    "contextNotes": [],
    "links": {
      "children": [],
      "charges": []
    },
    "tag": "classFeat_duelsSubdomain",
    "useCustomTag": true,
    "armorProf": {
      "value": []
    },
    "weaponProf": {
      "value": []
    },
    "languages": {
      "value": []
    },
    "scriptCalls": [],
    "subType": "classFeat",
    "associations": {
      "classes": [["Cleric"]]
    }
  }
}
