{
  "_id": "DtpcqOC89tTG3QkO",
  "name": "Enchantment School",
  "type": "feat",
  "img": "systems/pf1/icons/spells/light-blue-1.jpg",
  "sort": 0,
  "flags": {},
  "system": {
    "description": {
      "value": "<p>The enchanter uses magic to control and manipulate the minds of his victims.</p>"
    },
    "tags": [],
    "actions": [],
    "attackNotes": [],
    "effectNotes": [],
    "changes": [],
    "contextNotes": [],
    "links": {
      "children": [],
      "charges": []
    },
    "tag": "classFeat_enchantmentSchool",
    "useCustomTag": true,
    "armorProf": {
      "value": []
    },
    "weaponProf": {
      "value": []
    },
    "languages": {
      "value": []
    },
    "scriptCalls": [],
    "subType": "classFeat",
    "associations": {
      "classes": [["Wizard"]]
    }
  }
}
