{
  "_id": "acpzCCqbc3ATGl6i",
  "name": "Explore the Seas",
  "type": "feat",
  "img": "systems/pf1/icons/items/inventory/banner-red.jpg",
  "sort": 0,
  "flags": {},
  "system": {
    "description": {
      "value": "<p>At 15th level, the cavalier gains&nbsp;<a href=\"https://aonprd.com/FeatDisplay.aspx?ItemName=Pressure%20Adept\">Pressure Adept</a>&nbsp;as a bonus feat and adds two oceanic zones to his native range instead of one. When exploring a new location underwater, he gains a +2 morale bonus on initiative checks and Perception checks, and can always act in the surprise round.</p>"
    },
    "tags": [],
    "actions": [],
    "attackNotes": [],
    "effectNotes": [],
    "changes": [],
    "contextNotes": [],
    "links": {
      "children": [],
      "charges": []
    },
    "tag": "classFeat_exploreTheSeas",
    "useCustomTag": true,
    "armorProf": {
      "value": []
    },
    "weaponProf": {
      "value": []
    },
    "languages": {
      "value": []
    },
    "scriptCalls": [],
    "subType": "classFeat",
    "associations": {
      "classes": [["Cavalier"]]
    },
    "abilityType": "ex"
  }
}
