{
  "_id": "lKn0LknWPWHpvCyy",
  "name": "False Face",
  "type": "feat",
  "img": "systems/pf1/icons/items/weapons/kunai.png",
  "sort": 0,
  "flags": {},
  "system": {
    "description": {
      "value": "<p>Like&nbsp;<a href=\"https://www.aonprd.com/MonsterFamilies.aspx?ItemName=Oni\">oni</a>&nbsp;who take mortal shapes to infiltrate society, some ninjas can mold their flesh to pass unsuspected. A ninja with this trick gains the&nbsp;<a href=\"https://www.aonprd.com/UMR.aspx?ItemName=Change%20Shape\">change shape</a>&nbsp;(any Small or Medium humanoid, @Compendium[pf1.spells.kouqz0pm1xl8xilm]{Alter Self}) universal monster rule as long as she has at least 1 ki point.</p>"
    },
    "tags": [],
    "actions": [],
    "attackNotes": [],
    "effectNotes": [],
    "changes": [],
    "contextNotes": [],
    "links": {
      "children": [],
      "charges": []
    },
    "tag": "classFeat_falseFace",
    "useCustomTag": true,
    "armorProf": {
      "value": []
    },
    "weaponProf": {
      "value": []
    },
    "languages": {
      "value": []
    },
    "scriptCalls": [],
    "subType": "classFeat",
    "associations": {
      "classes": [["Ninja"]]
    },
    "abilityType": "su"
  }
}
