{
  "_id": "dW6qph9SRl5Ua203",
  "name": "Fey Enchantments",
  "type": "feat",
  "img": "systems/pf1/icons/items/inventory/banner-red.jpg",
  "sort": 0,
  "flags": {},
  "system": {
    "description": {
      "value": "<p>At 8th level, an order of the blossom cavalier learns to use the following spell-like abilities: @Compendium[pf1.spells.0324zq42g3fu4kko]{Animal Messenger}, @Compendium[pf1.spells.v3d3lnjj7ks0ztii]{Enthrall}, @Compendium[pf1.spells.5nr9o7o0it6ewf17]{Hideous Laughter}, and @Compendium[pf1.spells.zqj5qzyl46af27v0]{Suggestion}, with a caster level equal to his cavalier level. He can use these spell-like abilities a total of three times per day, in any combination (such as by casting @Compendium[pf1.spells.v3d3lnjj7ks0ztii]{Enthrall}&nbsp;three times, or @Compendium[pf1.spells.0324zq42g3fu4kko]{Animal Messenger}&nbsp;once and @Compendium[pf1.spells.zqj5qzyl46af27v0]{Suggestion}&nbsp;twice). The saving throw DC for these spell-like abilities is 10 + half the cavalier’s level + his Charisma modifier. At 16th level, the cavalier can use his spell-like abilities seven times per day, and he adds @Compendium[pf1.spells.smbkd2yobhshbpqf]{Charm Monster}&nbsp;and @Compendium[pf1.spells.9avh63v2izqxldze]{Terrible Remorse}&nbsp;to the list.</p>"
    },
    "tags": [],
    "actions": [
      {
        "_id": "y2dtdglwnlwmp15h",
        "name": "Use",
        "img": "systems/pf1/icons/items/inventory/banner-red.jpg",
        "description": "",
        "tag": "",
        "activation": {
          "cost": 1,
          "type": "standard"
        },
        "unchainedAction": {
          "activation": {
            "cost": 2,
            "type": "action"
          }
        },
        "duration": {
          "value": null,
          "units": ""
        },
        "target": {
          "value": ""
        },
        "range": {
          "value": null,
          "units": "",
          "maxIncrements": 1,
          "minValue": null,
          "minUnits": ""
        },
        "uses": {
          "autoDeductChargesCost": "",
          "self": {
            "value": 0,
            "maxFormula": "",
            "per": null
          },
          "per": "day",
          "value": 0,
          "maxFormula": "@classes.cavalier.level >= 16 ? 7 : 3"
        },
        "measureTemplate": {
          "type": "",
          "size": "0",
          "overrideColor": false,
          "customColor": "",
          "overrideTexture": false,
          "customTexture": ""
        },
        "attackName": "",
        "actionType": "",
        "attackBonus": "",
        "critConfirmBonus": "",
        "damage": {
          "parts": [],
          "critParts": [],
          "nonCritParts": []
        },
        "attackParts": [],
        "formulaicAttacks": {
          "count": {
            "formula": ""
          },
          "bonus": {
            "formula": ""
          },
          "label": null
        },
        "formula": "",
        "ability": {
          "attack": null,
          "damage": null,
          "damageMult": 1,
          "critRange": 20,
          "critMult": 2
        },
        "save": {
          "dc": 0,
          "type": "",
          "description": ""
        },
        "effectNotes": [],
        "attackNotes": [],
        "soundEffect": "",
        "powerAttack": {
          "multiplier": "",
          "damageBonus": 2,
          "critMultiplier": 1
        },
        "naturalAttack": {
          "primaryAttack": true,
          "secondary": {
            "attackBonus": "-5",
            "damageMult": 0.5
          }
        },
        "nonlethal": false,
        "usesAmmo": false,
        "spellEffect": "",
        "spellArea": "",
        "conditionals": [],
        "enh": {
          "value": null
        }
      }
    ],
    "uses": {
      "per": "day",
      "maxFormula": "@classes.cavalier.level >= 16 ? 7 : 3"
    },
    "attackNotes": [],
    "effectNotes": [],
    "changes": [],
    "contextNotes": [],
    "links": {
      "children": [],
      "charges": []
    },
    "tag": "classFeat_feyEnchantments",
    "useCustomTag": true,
    "armorProf": {
      "value": []
    },
    "weaponProf": {
      "value": []
    },
    "languages": {
      "value": []
    },
    "scriptCalls": [],
    "subType": "classFeat",
    "associations": {
      "classes": [["Cavalier"]]
    },
    "abilityType": "sp"
  }
}
