{
  "_id": "vEoPg08w2QIYnMua",
  "name": "Ghoulish Claws",
  "type": "feat",
  "img": "systems/pf1/icons/skills/affliction_15.jpg",
  "sort": 0,
  "flags": {},
  "system": {
    "description": {
      "value": "<p>Starting at 1st level, you can grow claws as a&nbsp;<em>free action</em>. These claws are treated as&nbsp;<em>natural weapons</em>, allowing you to make two claw attacks as a full attack using your full&nbsp;<em>base attack bonus</em>. Each of these attacks deals 1d4 points of damage + your&nbsp;<em>Strength</em>&nbsp;modifier (1d3 if you are Small). At 5th level, creatures damaged with your claw attack are&nbsp;<em>paralyzed</em>&nbsp;for 1 round, as the&nbsp;<em>ghoul</em>&nbsp;ability (<em>Fort</em>&nbsp;negates). At 7th level, the duration of the&nbsp;<em>paralysis</em>&nbsp;increases to 1d4+1 rounds, and the claws are considered magic weapons for the purpose of overcoming&nbsp;<em>DR</em>. You can use your claws for a number of rounds per day equal to 3 + your&nbsp;<em>Charisma</em>&nbsp;modifier. These rounds do not need to be consecutive. If you’re a&nbsp;<em>ghoul</em>&nbsp;with this&nbsp;<em>bloodline</em>, instead of gaining this ability, your levels in&nbsp;<em>sorcerer</em>&nbsp;stack with your racial&nbsp;<em>Hit Dice</em>&nbsp;when determining the DC of your&nbsp;<em>paralysis</em>&nbsp;and&nbsp;<em>disease</em>&nbsp;special abilities.</p>"
    },
    "tags": [],
    "actions": [
      {
        "_id": "fhm2yiytk8eufpbg",
        "name": "Use",
        "img": "systems/pf1/icons/skills/affliction_15.jpg",
        "description": "",
        "tag": "",
        "activation": {
          "cost": 1,
          "type": "free"
        },
        "unchainedAction": {
          "activation": {
            "cost": 1,
            "type": "free"
          }
        },
        "duration": {
          "value": "1",
          "units": "round"
        },
        "target": {
          "value": "self"
        },
        "range": {
          "value": null,
          "units": "personal",
          "maxIncrements": 1,
          "minValue": null,
          "minUnits": ""
        },
        "uses": {
          "autoDeductChargesCost": "",
          "self": {
            "value": 0,
            "maxFormula": "",
            "per": null
          },
          "per": "day",
          "value": 0,
          "maxFormula": "3 + @abilities.cha.mod"
        },
        "measureTemplate": {
          "type": "",
          "size": "0",
          "overrideColor": false,
          "customColor": "",
          "overrideTexture": false,
          "customTexture": ""
        },
        "attackName": "",
        "actionType": "",
        "attackBonus": "",
        "critConfirmBonus": "",
        "damage": {
          "parts": [],
          "critParts": [],
          "nonCritParts": []
        },
        "attackParts": [],
        "formulaicAttacks": {
          "count": {
            "formula": ""
          },
          "bonus": {
            "formula": ""
          },
          "label": null
        },
        "formula": "",
        "ability": {
          "attack": null,
          "damage": null,
          "damageMult": 1,
          "critRange": 20,
          "critMult": 2
        },
        "save": {
          "dc": 0,
          "type": "",
          "description": ""
        },
        "effectNotes": [],
        "attackNotes": [],
        "soundEffect": "",
        "powerAttack": {
          "multiplier": "",
          "damageBonus": 2,
          "critMultiplier": 1
        },
        "naturalAttack": {
          "primaryAttack": true,
          "secondary": {
            "attackBonus": "-5",
            "damageMult": 0.5
          }
        },
        "nonlethal": false,
        "usesAmmo": false,
        "spellEffect": "",
        "spellArea": "",
        "conditionals": [],
        "enh": {
          "value": null
        }
      }
    ],
    "uses": {
      "per": "day",
      "maxFormula": "3 + @abilities.cha.mod"
    },
    "attackNotes": [],
    "effectNotes": [],
    "changes": [],
    "contextNotes": [],
    "links": {
      "children": [],
      "charges": []
    },
    "tag": "classFeat_ghoulishClaws",
    "useCustomTag": true,
    "armorProf": {
      "value": []
    },
    "weaponProf": {
      "value": []
    },
    "languages": {
      "value": []
    },
    "scriptCalls": [],
    "subType": "classFeat",
    "associations": {
      "classes": [["Sorcerer"]]
    },
    "abilityType": "su"
  }
}
