{
  "_id": "SQXP7EIAIH22DM39",
  "name": "Knockout",
  "type": "feat",
  "img": "systems/pf1/icons/feats/extra-rage.jpg",
  "sort": 0,
  "flags": {},
  "system": {
    "description": {
      "value": "<p>At 4th level, once per day a brawler can unleash a devastating attack that can instantly knock a target unconscious. She must announce this intent before making her attack roll. If the brawler hits and the target takes damage from the blow, the target must succeed at a Fortitude saving throw (DC = 10 + 1/2 the brawler’s level + the higher of the brawler’s Strength or Dexterity modifier) or fall unconscious for 1d6 rounds. Each round on its turn, the unconscious target may attempt a new saving throw to end the effect as a fullround action that does not provoke attacks of opportunity. Creatures immune to critical hits or nonlethal damage are immune to this ability.</p>\n<p>At 10th level, the brawler may use this ability twice per day; at 16th level, she may use it three times per day.</p>"
    },
    "tags": [],
    "actions": [
      {
        "_id": "bxv7gj0jlxl4mzsv",
        "name": "Use",
        "img": "systems/pf1/icons/feats/extra-rage.jpg",
        "description": "",
        "tag": "",
        "activation": {
          "cost": 1,
          "type": "attack"
        },
        "unchainedAction": {
          "activation": {
            "cost": 1,
            "type": "action"
          }
        },
        "duration": {
          "value": "1d6",
          "units": "round"
        },
        "target": {
          "value": "one creature"
        },
        "range": {
          "value": null,
          "units": "touch",
          "maxIncrements": 1,
          "minValue": null,
          "minUnits": ""
        },
        "uses": {
          "autoDeductChargesCost": "",
          "self": {
            "value": 0,
            "maxFormula": "",
            "per": null
          },
          "per": "day",
          "value": 0,
          "maxFormula": "@classes.brawler.level >= 16 ? 3 : ((@classes.brawler.level >= 10 && @classes.brawler.level < 16) ? 2 : 1)"
        },
        "measureTemplate": {
          "type": "",
          "size": "",
          "overrideColor": false,
          "customColor": "",
          "overrideTexture": false,
          "customTexture": ""
        },
        "attackName": "",
        "actionType": "save",
        "attackBonus": "",
        "critConfirmBonus": "",
        "damage": {
          "parts": [],
          "critParts": [],
          "nonCritParts": []
        },
        "attackParts": [],
        "formulaicAttacks": {
          "count": {
            "formula": ""
          },
          "bonus": {
            "formula": ""
          },
          "label": null
        },
        "formula": "",
        "ability": {
          "attack": null,
          "damage": "",
          "damageMult": 1,
          "critRange": 20,
          "critMult": 2
        },
        "save": {
          "dc": "0",
          "type": "fort",
          "description": "Fortitude negates unconscious"
        },
        "effectNotes": [],
        "attackNotes": [],
        "soundEffect": "",
        "powerAttack": {
          "multiplier": "",
          "damageBonus": 2,
          "critMultiplier": 1
        },
        "naturalAttack": {
          "primaryAttack": true,
          "secondary": {
            "attackBonus": "-5",
            "damageMult": 0.5
          }
        },
        "nonlethal": false,
        "usesAmmo": false,
        "spellEffect": "",
        "spellArea": "",
        "conditionals": [],
        "enh": {
          "value": null
        }
      }
    ],
    "uses": {
      "per": "day",
      "maxFormula": "@classes.brawler.level >= 16 ? 3 : ((@classes.brawler.level >= 10 && @classes.brawler.level < 16) ? 2 : 1)"
    },
    "attackNotes": [],
    "effectNotes": [],
    "changes": [],
    "contextNotes": [],
    "links": {
      "children": [],
      "charges": []
    },
    "tag": "classFeat_knockout",
    "useCustomTag": true,
    "armorProf": {
      "value": []
    },
    "weaponProf": {
      "value": []
    },
    "languages": {
      "value": []
    },
    "scriptCalls": [],
    "subType": "classFeat",
    "associations": {
      "classes": [["Brawler"]]
    },
    "abilityType": "ex"
  }
}
