{
  "_id": "xYuyemfGIFp0a97P",
  "name": "Life Link",
  "type": "feat",
  "img": "systems/pf1/icons/spells/link-blue-3.jpg",
  "sort": 0,
  "flags": {},
  "system": {
    "description": {
      "value": "<p>Starting at 1st level, a summoner forms a close bond with his eidolon. Whenever the eidolon takes enough damage to send it back to its home plane, the summoner can, as a free action, sacrifice any number of hit points. Each hit point sacrificed in this way prevents 1 point of damage done to the eidolon. This can prevent the eidolon from being sent back to its home plane.<br><br>In addition, the eidolon and the summoner must remain within 100 feet of one another for the eidolon to remain at full strength. If the eidolon is beyond 100 feet but closer than 1,000 feet, its current and maximum hit point totals are reduced by 50%. If the eidolon is more than 1,000 feet away but closer than 10,000 feet, its current and maximum hit point totals are reduced by 75%. If the eidolon is more than 10,000 feet away, it is immediately returned to its home plane. Current hit points lost in this way are not restored when the eidolon gets closer to its summoner, but its maximum hit point total does return to normal.</p>"
    },
    "tags": [],
    "actions": [
      {
        "_id": "7r254jyle2e0237j",
        "name": "Use",
        "img": "systems/pf1/icons/spells/link-blue-3.jpg",
        "description": "",
        "tag": "",
        "activation": {
          "cost": 1,
          "type": "free"
        },
        "unchainedAction": {
          "activation": {
            "cost": 1,
            "type": "free"
          }
        },
        "duration": {
          "value": null,
          "units": ""
        },
        "target": {
          "value": ""
        },
        "range": {
          "value": null,
          "units": "",
          "maxIncrements": 1,
          "minValue": null,
          "minUnits": ""
        },
        "uses": {
          "autoDeductChargesCost": "",
          "self": {
            "value": 0,
            "maxFormula": "",
            "per": null
          },
          "per": "",
          "value": 0,
          "maxFormula": ""
        },
        "measureTemplate": {
          "type": "",
          "size": "0",
          "overrideColor": false,
          "customColor": "",
          "overrideTexture": false,
          "customTexture": ""
        },
        "attackName": "",
        "actionType": "",
        "attackBonus": "",
        "critConfirmBonus": "",
        "damage": {
          "parts": [],
          "critParts": [],
          "nonCritParts": []
        },
        "attackParts": [],
        "formulaicAttacks": {
          "count": {
            "formula": ""
          },
          "bonus": {
            "formula": ""
          },
          "label": null
        },
        "formula": "",
        "ability": {
          "attack": null,
          "damage": null,
          "damageMult": 1,
          "critRange": 20,
          "critMult": 2
        },
        "save": {
          "dc": 0,
          "type": "",
          "description": ""
        },
        "effectNotes": [],
        "attackNotes": [],
        "soundEffect": "",
        "powerAttack": {
          "multiplier": "",
          "damageBonus": 2,
          "critMultiplier": 1
        },
        "naturalAttack": {
          "primaryAttack": true,
          "secondary": {
            "attackBonus": "-5",
            "damageMult": 0.5
          }
        },
        "nonlethal": false,
        "usesAmmo": false,
        "spellEffect": "",
        "spellArea": "",
        "conditionals": [],
        "enh": {
          "value": null
        }
      }
    ],
    "uses": {
      "per": ""
    },
    "attackNotes": [],
    "effectNotes": [],
    "changes": [],
    "contextNotes": [],
    "links": {
      "children": [],
      "charges": []
    },
    "tag": "classFeat_lifeLink",
    "useCustomTag": true,
    "armorProf": {
      "value": []
    },
    "weaponProf": {
      "value": []
    },
    "languages": {
      "value": []
    },
    "scriptCalls": [],
    "subType": "classFeat",
    "associations": {
      "classes": [["Summoner"]]
    },
    "abilityType": "su"
  }
}
