{
  "_id": "0K8W2ltmbiO71iXY",
  "name": "Lightning Subdomain",
  "type": "feat",
  "img": "systems/pf1/icons/spells/lighting-acid-3.jpg",
  "sort": 0,
  "flags": {},
  "system": {
    "description": {
      "value": "<p><strong>Replacement Domain Spells:</strong></p>\n<ul>\n<li>1st— @Compendium[pf1.spells.33pe0bge7b7aq3io]{Shocking Grasp}</li>\n<li>2nd—@Compendium[pf1.spells.dqj6m4atpnp7dd9k]{Flame Blade} (deals electricity damage and gains the electricity descriptor instead of fire)</li>\n<li>3rd— @Compendium[pf1.spells.m84969gni5iu4bdt]{Lightning Bolt}</li>\n</ul>"
    },
    "tags": [],
    "actions": [],
    "attackNotes": [],
    "effectNotes": [],
    "changes": [],
    "contextNotes": [],
    "links": {
      "children": [],
      "charges": []
    },
    "tag": "classFeat_lightningSubdomain",
    "useCustomTag": true,
    "armorProf": {
      "value": []
    },
    "weaponProf": {
      "value": []
    },
    "languages": {
      "value": []
    },
    "scriptCalls": [],
    "subType": "classFeat",
    "associations": {
      "classes": [["Cleric"]]
    }
  }
}
