{
  "_id": "1ug6E7PQxGk7icLW",
  "name": "Melancholy Bomb",
  "type": "feat",
  "img": "systems/pf1/icons/items/potions/unique-3.jpg",
  "sort": 0,
  "flags": {},
  "system": {
    "description": {
      "value": "<p>Your anguish bombs are filled with memories of sadness and regret. Creatures who take damage from your anguish bombs are also affected as per @Compendium[pf1.spells.zt7cje76dck9hwp9]{Crushing Despair}&nbsp;for 1 round per alchemist level, or a single round if the target succeeds at a Will saving throw. An alchemist must be 10th level and have the anguish bomb class feature or the anguish bomb discovery before selecting this discovery.</p>"
    },
    "tags": [],
    "actions": [],
    "attackNotes": [],
    "effectNotes": [],
    "changes": [],
    "contextNotes": [],
    "links": {
      "children": [],
      "charges": []
    },
    "tag": "classFeat_melancholyBomb",
    "useCustomTag": true,
    "armorProf": {
      "value": []
    },
    "weaponProf": {
      "value": []
    },
    "languages": {
      "value": []
    },
    "scriptCalls": [],
    "subType": "classFeat",
    "associations": {
      "classes": [["Alchemist"]]
    }
  }
}
