{
  "_id": "CIiflPnMFK7cifb8",
  "name": "Mindtech Discipline",
  "type": "feat",
  "img": "systems/pf1/icons/spells/slice-spirit-3.jpg",
  "sort": 0,
  "flags": {},
  "system": {
    "description": {
      "value": "<p>You are innately tied to and can communicate with electronic machinery and similar technological objects, through which you can funnel your psychic power like flowing water. You can amplify and focus your psychic energies using the technology that surrounds you— even certain kinds of technology that might not be obvious to others.<br><br><strong>Phrenic Pool Ability:</strong> Wisdom<br><br><strong>Bonus Spells:</strong>&nbsp;</p>\n<ul>\n<li>@Compendium[pf1.spells.iag7mp0kgnmql2mz]{Technomancy} (1st),&nbsp;</li>\n<li>@Compendium[pf1.spells.lygujduijp64f0wj]{Protection From Technology} (4th),&nbsp;</li>\n<li>@Compendium[pf1.spells.vhnguobyolslgepm]{Irradiate} (6th),&nbsp;</li>\n<li>@Compendium[pf1.spells.1yt3bidqyhkdf6a1]{Malfunction} (8th),&nbsp;</li>\n<li>@Compendium[pf1.spells.wp6qm9gnjxoqww4h]{Lightning Arc} (10th),</li>\n<li>@Compendium[pf1.spells.wph6xwqvqekl7ph9]{Destroy Robot} (12th),&nbsp;</li>\n<li>@Compendium[pf1.spells.snrnhiwqet5dmas0]{Memory Of Function} (14th),&nbsp;</li>\n<li>@Compendium[pf1.spells.ijwcwnt3oatnfghq]{Prismatic Wall}&nbsp;(16th),&nbsp;</li>\n<li>@Compendium[pf1.spells.7mstq5c76h3e6zzx]{Time Stop} (18th).</li>\n</ul>"
    },
    "tags": [],
    "actions": [],
    "attackNotes": [],
    "effectNotes": [],
    "changes": [],
    "contextNotes": [],
    "links": {
      "children": [],
      "charges": []
    },
    "tag": "classFeat_mindtechDiscipline",
    "useCustomTag": true,
    "armorProf": {
      "value": []
    },
    "weaponProf": {
      "value": []
    },
    "languages": {
      "value": []
    },
    "scriptCalls": [],
    "subType": "classFeat",
    "associations": {
      "classes": [["Psychic"]]
    }
  }
}
