{
  "_id": "SmIef3R3IAxckeWZ",
  "name": "Mind Barrier",
  "type": "feat",
  "img": "systems/pf1/icons/items/armor/shield-heavy-metal.png",
  "sort": 0,
  "flags": {},
  "system": {
    "description": {
      "value": "<p>As a swift action, you can expend 1 point of mental focus to create a shield of mental energy around you that protects you from harm. The shield prevents a total of 2 points of damage per occultist level you possess. It lasts until the start of your next turn or until exhausted. For example, if you are 5th level, the mind barrier protects you from 10 points of damage; if you are hit by an attack that would deal 12 points of damage, the mind barrier is exhausted and you take 2 points of damage.</p>\n<p>You can activate this ability as an immediate action, but doing so costs 2 points of mental focus instead of 1.</p>"
    },
    "tags": [],
    "actions": [
      {
        "_id": "rw0ekt6uk8l3c31d",
        "name": "Use",
        "img": "systems/pf1/icons/items/armor/shield-heavy-metal.png",
        "description": "",
        "tag": "",
        "activation": {
          "cost": 1,
          "type": "swift"
        },
        "unchainedAction": {
          "activation": {
            "cost": 1,
            "type": "action"
          }
        },
        "duration": {
          "value": "1",
          "units": "round"
        },
        "target": {
          "value": "self"
        },
        "range": {
          "value": null,
          "units": "personal",
          "maxIncrements": 1,
          "minValue": null,
          "minUnits": ""
        },
        "uses": {
          "autoDeductChargesCost": "",
          "self": {
            "value": 0,
            "maxFormula": "",
            "per": null
          },
          "per": "",
          "value": 0,
          "maxFormula": ""
        },
        "measureTemplate": {
          "type": "",
          "size": "",
          "overrideColor": false,
          "customColor": "",
          "overrideTexture": false,
          "customTexture": ""
        },
        "attackName": "",
        "actionType": "",
        "attackBonus": "",
        "critConfirmBonus": "",
        "damage": {
          "parts": [],
          "critParts": [],
          "nonCritParts": []
        },
        "attackParts": [],
        "formulaicAttacks": {
          "count": {
            "formula": ""
          },
          "bonus": {
            "formula": ""
          },
          "label": null
        },
        "formula": "",
        "ability": {
          "attack": null,
          "damage": null,
          "damageMult": 1,
          "critRange": 20,
          "critMult": 2
        },
        "save": {
          "dc": 0,
          "type": "",
          "description": ""
        },
        "effectNotes": [],
        "attackNotes": [],
        "soundEffect": "",
        "powerAttack": {
          "multiplier": "",
          "damageBonus": 2,
          "critMultiplier": 1
        },
        "naturalAttack": {
          "primaryAttack": true,
          "secondary": {
            "attackBonus": "-5",
            "damageMult": 0.5
          }
        },
        "nonlethal": false,
        "usesAmmo": false,
        "spellEffect": "",
        "spellArea": "",
        "conditionals": [],
        "enh": {
          "value": null
        }
      }
    ],
    "uses": {
      "per": ""
    },
    "attackNotes": [],
    "effectNotes": [],
    "changes": [],
    "contextNotes": [],
    "links": {
      "children": [],
      "charges": []
    },
    "tag": "classFeat_mindBarrier",
    "useCustomTag": true,
    "armorProf": {
      "value": []
    },
    "weaponProf": {
      "value": []
    },
    "languages": {
      "value": []
    },
    "scriptCalls": [],
    "subType": "classFeat",
    "associations": {
      "classes": [["Occultist"]]
    },
    "abilityType": "sp"
  }
}
