{
  "_id": "WhnUAmET7QDfShEt",
  "name": "Moon Totem, Greater",
  "type": "feat",
  "img": "systems/pf1/icons/feats/deafening-critical.jpg",
  "sort": 0,
  "flags": {},
  "system": {
    "description": {
      "value": "<p>While raging, the barbarian ignores the miss chance for concealment and treats total concealment as concealment.</p>\n<p>She must have the moon totem rage power and be at least 10th level to select this rage power.</p>"
    },
    "tags": [],
    "actions": [],
    "attackNotes": [],
    "effectNotes": [],
    "changes": [],
    "contextNotes": [],
    "links": {
      "children": [],
      "charges": []
    },
    "tag": "classFeat_moonTotemGreater",
    "useCustomTag": true,
    "armorProf": {
      "value": []
    },
    "weaponProf": {
      "value": []
    },
    "languages": {
      "value": []
    },
    "scriptCalls": [],
    "subType": "classFeat",
    "associations": {
      "classes": [["Barbarian"], ["Skald"]]
    },
    "abilityType": "su"
  }
}
