{
  "_id": "Fnj8r8WpjmuZFgcs",
  "name": "Nightmares Patron",
  "type": "feat",
  "img": "systems/pf1/icons/feats/improved-familiar.jpg",
  "sort": 0,
  "flags": {},
  "system": {
    "description": {
      "value": "<ul>\n<li>2nd — @Compendium[pf1.spells.3plb67e51webutdz]{Sleep}</li>\n<li>4th — @Compendium[pf1.spells.xllxylvvqr82o2d5]{Detect Thoughts}</li>\n<li>6th — @Compendium[pf1.spells.j7mhkhixnvd0amye]{Oneiric Horror}</li>\n<li>8th — @Compendium[pf1.spells.6efjgs1qvmj6yxqv]{Phantasmal Killer}</li>\n<li>10th — @Compendium[pf1.spells.siv3ub7hbmcklf8c]{Nightmare}</li>\n<li>12th — @Compendium[pf1.spells.laz5zb1cdfb9jzit]{Dream Travel}</li>\n<li>14th — @Compendium[pf1.spells.ylewzn5nlzy7ugdm]{Symbol Of Weakness}</li>\n<li>16th — @Compendium[pf1.spells.21r9ptvsjo99o3yw]{Demand}</li>\n<li>18th — @Compendium[pf1.spells.0mt9mso6wdhfafpo]{Polar Midnight}</li>\n</ul>"
    },
    "tags": [],
    "actions": [],
    "attackNotes": [],
    "effectNotes": [],
    "changes": [],
    "contextNotes": [],
    "links": {
      "children": [],
      "charges": []
    },
    "tag": "classFeat_nightmaresPatron",
    "useCustomTag": true,
    "armorProf": {
      "value": []
    },
    "weaponProf": {
      "value": []
    },
    "languages": {
      "value": []
    },
    "scriptCalls": [],
    "subType": "classFeat",
    "associations": {
      "classes": [["Witch"]]
    }
  }
}
