{
  "_id": "r1aVwoYDDjJ8eQVp",
  "name": "Plagued Curse",
  "type": "feat",
  "img": "systems/pf1/icons/spells/horror-eerie-1.jpg",
  "sort": 0,
  "flags": {},
  "system": {
    "description": {
      "value": "<p>You suffer from minor ailments and sicknesses. While you struggle to resist new diseases, you have grown accustomed to the many inconveniences of sickness. You take a –1 penalty on all saving throws against disease or infestation effects, but you are immune to the sickened condition.</p>\n<p>At 5th level, add @Compendium[pf1.spells.y7aqxf7alib6ld6t]{Pox Pustules} to your list of 2nd-level oracle spells known.</p>\n<p>At 10th level, increase the save DC of any disease effect you create by +2, and you raise the number of saves required to recover naturally from these diseases by 1.</p>\n<p>At 15th level, you are immune to the effects of disease and infestations, but you can still function as a carrier for sickness.</p>"
    },
    "tags": [],
    "actions": [],
    "attackNotes": [],
    "effectNotes": [],
    "changes": [],
    "contextNotes": [],
    "links": {
      "children": [],
      "charges": []
    },
    "tag": "classFeat_plaguedCurse",
    "useCustomTag": true,
    "armorProf": {
      "value": []
    },
    "weaponProf": {
      "value": []
    },
    "languages": {
      "value": []
    },
    "scriptCalls": [],
    "subType": "classFeat",
    "associations": {
      "classes": [["Oracle"]]
    }
  }
}
