{
  "_id": "dzAbx3olXdrHIcOE",
  "name": "Prophecy Subschool",
  "type": "feat",
  "img": "systems/pf1/icons/spells/air-burst-magenta-3.jpg",
  "sort": 0,
  "flags": {},
  "system": {
    "description": {
      "value": "<p><strong>Associated School</strong>:&nbsp;<em>Divination</em>.</p>\n<p><strong>Replacement Powers:</strong> This subschool replaces the forewarned and scrying adept powers of the&nbsp;<em>divination school</em>.</p>"
    },
    "tags": [],
    "actions": [],
    "attackNotes": [],
    "effectNotes": [],
    "changes": [],
    "contextNotes": [],
    "links": {
      "children": [],
      "charges": []
    },
    "tag": "classFeat_prophecySubschool",
    "useCustomTag": true,
    "armorProf": {
      "value": []
    },
    "weaponProf": {
      "value": []
    },
    "languages": {
      "value": []
    },
    "scriptCalls": [],
    "subType": "classFeat",
    "associations": {
      "classes": [["Wizard"]]
    }
  }
}
