{
  "_id": "twQX5fG4iyTlaqfW",
  "name": "Reach (1 pt)",
  "type": "feat",
  "img": "systems/pf1/icons/skills/blue_26.jpg",
  "sort": 0,
  "flags": {},
  "system": {
    "description": {
      "value": "<p>One of an eidolon's attacks is capable of striking at foes at a distance. Pick one attack. The eidolon's reach with that attack increases by 5 feet.</p>"
    },
    "tags": [],
    "actions": [],
    "attackNotes": [],
    "effectNotes": [],
    "changes": [],
    "contextNotes": [],
    "links": {
      "children": [],
      "charges": []
    },
    "tag": "classFeat_reach1Pt",
    "useCustomTag": true,
    "armorProf": {
      "value": []
    },
    "weaponProf": {
      "value": []
    },
    "languages": {
      "value": []
    },
    "scriptCalls": [],
    "subType": "classFeat",
    "associations": {
      "classes": [["Eidolon"]]
    },
    "abilityType": "ex"
  }
}
