{
  "_id": "MT4AzxhNBwUsNQC0",
  "name": "Relentless",
  "type": "feat",
  "img": "systems/pf1/icons/skills/blue_32.jpg",
  "sort": 0,
  "flags": {},
  "system": {
    "description": {
      "value": "<p>At 2nd level, a vampire hunter can travel for an extended period of time without rest. The vampire hunter (and his mount, if he has one) can walk 16 hours in a day of travel without it being considered a forced march, but at the end of that day, he must attempt a DC 15&nbsp;<em>Fortitude</em>&nbsp;saving throw. If he fails, he can travel for 8 hours the following day, and he (as well as his mount, if he has one) is&nbsp;<em>fatigued</em>&nbsp;for the following 24 hours. If he succeeds at the saving throw, he can use this ability again the following day. The DC of the&nbsp;<em>Fortitude</em>&nbsp;saving throw increases by 2 for every additional day the vampire hunter has been traveling for more than 8 hours. The vampire hunter does not need to attempt a separate saving throw for his mount. After the vampire hunter rests for 24 hours, the saving throw DC resets to 15.</p>"
    },
    "tags": [],
    "actions": [
      {
        "_id": "1h3rz85rl0ty99hy",
        "name": "Use",
        "img": "systems/pf1/icons/skills/blue_32.jpg",
        "description": "",
        "tag": "",
        "activation": {
          "cost": 1,
          "type": "passive"
        },
        "unchainedAction": {
          "activation": {
            "cost": 1,
            "type": "passive"
          }
        },
        "duration": {
          "value": null,
          "units": ""
        },
        "target": {
          "value": ""
        },
        "range": {
          "value": null,
          "units": "",
          "maxIncrements": 1,
          "minValue": null,
          "minUnits": ""
        },
        "uses": {
          "autoDeductChargesCost": "",
          "self": {
            "value": 0,
            "maxFormula": "",
            "per": null
          },
          "per": "",
          "value": 0,
          "maxFormula": ""
        },
        "measureTemplate": {
          "type": "",
          "size": "0",
          "overrideColor": false,
          "customColor": "",
          "overrideTexture": false,
          "customTexture": ""
        },
        "attackName": "",
        "actionType": "",
        "attackBonus": "",
        "critConfirmBonus": "",
        "damage": {
          "parts": [],
          "critParts": [],
          "nonCritParts": []
        },
        "attackParts": [],
        "formulaicAttacks": {
          "count": {
            "formula": ""
          },
          "bonus": {
            "formula": ""
          },
          "label": null
        },
        "formula": "",
        "ability": {
          "attack": null,
          "damage": null,
          "damageMult": 1,
          "critRange": 20,
          "critMult": 2
        },
        "save": {
          "dc": 0,
          "type": "",
          "description": ""
        },
        "effectNotes": [],
        "attackNotes": [],
        "soundEffect": "",
        "powerAttack": {
          "multiplier": "",
          "damageBonus": 2,
          "critMultiplier": 1
        },
        "naturalAttack": {
          "primaryAttack": true,
          "secondary": {
            "attackBonus": "-5",
            "damageMult": 0.5
          }
        },
        "nonlethal": false,
        "usesAmmo": false,
        "spellEffect": "",
        "spellArea": "",
        "conditionals": [],
        "enh": {
          "value": null
        }
      }
    ],
    "uses": {
      "per": ""
    },
    "attackNotes": [],
    "effectNotes": [],
    "changes": [],
    "contextNotes": [],
    "links": {
      "children": [],
      "charges": []
    },
    "tag": "classFeat_relentless",
    "useCustomTag": true,
    "armorProf": {
      "value": []
    },
    "weaponProf": {
      "value": []
    },
    "languages": {
      "value": []
    },
    "scriptCalls": [],
    "subType": "classFeat",
    "associations": {
      "classes": [["Vampire Hunter"]]
    },
    "abilityType": "ex"
  }
}
