{
  "_id": "LdTgQd53LA9JUQaj",
  "name": "Revelry Subdomain",
  "type": "feat",
  "img": "systems/pf1/icons/spells/explosion-magenta-3.jpg",
  "sort": 0,
  "flags": {},
  "system": {
    "description": {
      "value": "<p><strong>Replacement Domain Spells:</strong></p>\n<ul>\n<li>2nd—@Compendium[pf1.spells.5nr9o7o0it6ewf17]{Hideous Laughter}</li>\n<li>3rd—@Compendium[pf1.spells.rgd5v3llwoptwcdb]{Good Hope}</li>\n<li>6th—@Compendium[pf1.spells.op40qjf9oohlx5nu]{Heroes' Feast}</li>\n<li>8th—@Compendium[pf1.spells.oq3mqv5vovjkoa2p]{Irresistible Dance}</li>\n</ul>"
    },
    "tags": [],
    "actions": [],
    "attackNotes": [],
    "effectNotes": [],
    "changes": [],
    "contextNotes": [],
    "links": {
      "children": [],
      "charges": []
    },
    "tag": "classFeat_revelrySubdomain",
    "useCustomTag": true,
    "armorProf": {
      "value": []
    },
    "weaponProf": {
      "value": []
    },
    "languages": {
      "value": []
    },
    "scriptCalls": [],
    "subType": "classFeat",
    "associations": {
      "classes": [["Cleric"]]
    }
  }
}
