{
  "_id": "iyYyc3rKW0cBZ1cs",
  "name": "Rogue's Edge (UC)",
  "type": "feat",
  "img": "systems/pf1/icons/feats/exotic-weapon-proficiency.jpg",
  "sort": 0,
  "flags": {},
  "system": {
    "description": {
      "value": "<p>At 5th level, a rogue has mastered a single skill beyond that skill’s normal boundaries, gaining results that others can only dream about. She gains the skill unlock powers for that skill as appropriate for her number of ranks in that skill.</p>\n<p>At 10th, 15th, and 20th levels, she chooses an additional skill and gains skill unlock powers for that skill as well.</p>"
    },
    "tags": [],
    "actions": [],
    "attackNotes": [],
    "effectNotes": [],
    "changes": [],
    "contextNotes": [],
    "links": {
      "children": [],
      "charges": []
    },
    "tag": "classFeat_roguesEdgeUc",
    "useCustomTag": true,
    "armorProf": {
      "value": []
    },
    "weaponProf": {
      "value": []
    },
    "languages": {
      "value": []
    },
    "scriptCalls": [],
    "subType": "classFeat",
    "associations": {
      "classes": [["Rogue (Unchained)"]]
    },
    "abilityType": "ex"
  }
}
