{
  "_id": "0mXAs4PZgXIKUbl4",
  "name": "Sahkil Subdomain",
  "type": "feat",
  "img": "systems/pf1/icons/skills/affliction_05.jpg",
  "sort": 0,
  "flags": {},
  "system": {
    "description": {
      "value": "<p><strong>Replacement Domain Spells:</strong></p>\n<ul>\n<li>2nd— @Compendium[pf1.spells.y71mqkh49c6lfgec]{Haunting Mists}</li>\n<li>4th—@Compendium[pf1.spells.gi6x0mazwt8y08cx]{They Know}</li>\n<li>6th— @Compendium[pf1.spells.aq152bwi65cfz8fo]{Phobia}</li>\n</ul>"
    },
    "tags": [],
    "actions": [],
    "attackNotes": [],
    "effectNotes": [],
    "changes": [],
    "contextNotes": [],
    "links": {
      "children": [],
      "charges": []
    },
    "tag": "classFeat_sahkilSubdomain",
    "useCustomTag": true,
    "armorProf": {
      "value": []
    },
    "weaponProf": {
      "value": []
    },
    "languages": {
      "value": []
    },
    "scriptCalls": [],
    "subType": "classFeat",
    "associations": {
      "classes": [["Cleric"]]
    }
  }
}
