{
  "_id": "oJZ9juRAaqmjfeNf",
  "name": "Scalykind Blessing; Serpent Fang",
  "type": "feat",
  "img": "systems/pf1/icons/races/vishkanya.png",
  "sort": 0,
  "flags": {},
  "system": {
    "description": {
      "value": "<p>At 10th level, as a standard action you can manifest venomous fangs for 1 minute. These fangs grant a bite attack that deals 1d4 points of damage (for a Medium warpriest, 1d3 if Small). A successful bite also afflicts the opponent with a debilitating venom. The poison’s save DC is equal to 10 + 1/2 your warpriest level + your Constitution modifier.<br><br><strong>Serpent Venom (Ex)</strong>: <em>Bite</em>—injury;&nbsp;save&nbsp;Fort negates;<em>&nbsp;frequency</em>&nbsp;1/round for 4 rounds;&nbsp;<em>effect</em>&nbsp;1d2 Con;&nbsp;<em>cure</em>&nbsp;1 save.</p>"
    },
    "tags": [],
    "actions": [
      {
        "_id": "hv2y800ji84z95me",
        "name": "Use",
        "img": "systems/pf1/icons/races/vishkanya.png",
        "description": "",
        "tag": "",
        "activation": {
          "cost": 1,
          "type": "standard"
        },
        "unchainedAction": {
          "activation": {
            "cost": 2,
            "type": "action"
          }
        },
        "duration": {
          "value": "1",
          "units": "minute"
        },
        "target": {
          "value": "self"
        },
        "range": {
          "value": null,
          "units": "personal",
          "maxIncrements": 1,
          "minValue": null,
          "minUnits": ""
        },
        "uses": {
          "autoDeductChargesCost": "",
          "self": {
            "value": 0,
            "maxFormula": "",
            "per": null
          },
          "per": "",
          "value": 0,
          "maxFormula": ""
        },
        "measureTemplate": {
          "type": "",
          "size": "",
          "overrideColor": false,
          "customColor": "",
          "overrideTexture": false,
          "customTexture": ""
        },
        "attackName": "",
        "actionType": "",
        "attackBonus": "",
        "critConfirmBonus": "",
        "damage": {
          "parts": [],
          "critParts": [],
          "nonCritParts": []
        },
        "attackParts": [],
        "formulaicAttacks": {
          "count": {
            "formula": ""
          },
          "bonus": {
            "formula": ""
          },
          "label": null
        },
        "formula": "",
        "ability": {
          "attack": null,
          "damage": null,
          "damageMult": 1,
          "critRange": 20,
          "critMult": 2
        },
        "save": {
          "dc": 0,
          "type": "",
          "description": ""
        },
        "effectNotes": [],
        "attackNotes": [],
        "soundEffect": "",
        "powerAttack": {
          "multiplier": "",
          "damageBonus": 2,
          "critMultiplier": 1
        },
        "naturalAttack": {
          "primaryAttack": true,
          "secondary": {
            "attackBonus": "-5",
            "damageMult": 0.5
          }
        },
        "nonlethal": false,
        "usesAmmo": false,
        "spellEffect": "",
        "spellArea": "",
        "conditionals": [],
        "enh": {
          "value": null
        }
      }
    ],
    "uses": {
      "per": ""
    },
    "attackNotes": [],
    "effectNotes": [],
    "changes": [],
    "contextNotes": [],
    "links": {
      "children": [],
      "charges": []
    },
    "tag": "classFeat_scalykindBlessingSerpentFang",
    "useCustomTag": true,
    "armorProf": {
      "value": []
    },
    "weaponProf": {
      "value": []
    },
    "languages": {
      "value": []
    },
    "scriptCalls": [],
    "subType": "classFeat",
    "associations": {
      "classes": [["Warpriest"]]
    }
  }
}
