{
  "_id": "7sfwID27M8Gg22E7",
  "name": "Self-Control",
  "type": "feat",
  "img": "systems/pf1/icons/items/inventory/badge-cross.jpg",
  "sort": 0,
  "flags": {},
  "system": {
    "description": {
      "value": "<p>You possess remarkable control over your own body, and gain a +2 competence bonus on saving throws made against enchantment spells of the charm or compulsion subschool.</p>"
    },
    "tags": [],
    "actions": [],
    "attackNotes": [],
    "effectNotes": [],
    "changes": [],
    "contextNotes": [],
    "links": {
      "children": [],
      "charges": []
    },
    "tag": "classFeat_selfcontrol",
    "useCustomTag": true,
    "armorProf": {
      "value": []
    },
    "weaponProf": {
      "value": []
    },
    "languages": {
      "value": []
    },
    "scriptCalls": [],
    "subType": "classFeat",
    "associations": {
      "classes": [["Inquisitor"]]
    },
    "abilityType": "ex"
  }
}
