{
  "_id": "5Ik16phjUyeiVqq0",
  "name": "Shaitan Bloodline",
  "type": "feat",
  "img": "systems/pf1/icons/skills/yellow_13.jpg",
  "sort": 0,
  "flags": {},
  "system": {
    "description": {
      "value": "<p><em>You were born with the power of earth genies, and the magic of the shaitans is strong in you.</em></p>\n<p><strong>Class Skill:</strong>&nbsp;<em>Knowledge</em>&nbsp;(planes).</p>\n<p><strong>Bonus Spells:</strong></p>\n<ul>\n<li>@Compendium[pf1.spells.xco22162bwgxn7pj]{True Strike}&nbsp;(3rd),</li>\n<li>@Compendium[pf1.spells.ec2zmvdzi4m3puh4]{Glitterdust}&nbsp;(5th),</li>\n<li>@Compendium[pf1.spells.zq7xi7l5vgpqu7rt]{Magic Weapon, Greater}&nbsp;(7th),</li>\n<li>@Compendium[pf1.spells.knyako6zopc1chrv]{Stoneskin}&nbsp;(9th),</li>\n<li>@Compendium[pf1.spells.l83djt5019ujasjh]{Wall Of Stone}&nbsp;(11th),</li>\n<li>@Compendium[pf1.spells.fnxgq54y02f6ri82]{Wall of Iron}&nbsp;(13th),</li>\n<li>@Compendium[pf1.spells.q3st18udsalnyz5v]{Plane Shift}&nbsp;(15th),</li>\n<li>@Compendium[pf1.spells.mkrjbrp57yfdqrx0]{Iron Body}&nbsp;(17th),</li>\n<li>@Compendium[pf1.spells.nnj51dwfkwd15ngj]{Wish}&nbsp;(19th).</li>\n</ul>\n<p><strong>Bonus Feats:</strong></p>\n<ul>\n<li>@Compendium[pf1.feats.JreaiTHdyWFNj3Tb]{Dodge},</li>\n<li>@Compendium[pf1.feats.77gXSucrxfrE9yWk]{Empower Spell},</li>\n<li>@Compendium[pf1.feats.fVRnBIHR4Jq6btvm]{Great Fortitude},</li>\n<li>@Compendium[pf1.feats.Uuiu3p982omhMEPj]{Improved Initiative},</li>\n<li>@Compendium[pf1.feats.0bZf3SDkvVOe2ujH]{Lightning Reflexes},</li>\n<li>@Compendium[pf1.feats.FUW5mIXHNBBIQ1Sq]{Power Attack},</li>\n<li>@Compendium[pf1.feats.7zJTztNW7hdaqjKc]{Skill Focus}&nbsp;(<em>Knowledge</em>&nbsp;[planes]),</li>\n<li>@Compendium[pf1.feats.vWiTqHC4Y3Xn1Pme]{Weapon Finesse}.</li>\n</ul>\n<p><strong>Bloodline Arcana:</strong> Whenever you cast a spell that deals energy damage, you can change the type of damage to acid. This effect also changes the spell’s descriptors to match this energy type.</p>"
    },
    "tags": [],
    "actions": [],
    "attackNotes": [],
    "effectNotes": [],
    "changes": [],
    "contextNotes": [],
    "links": {
      "children": [],
      "charges": []
    },
    "tag": "classFeat_shaitanBloodline",
    "useCustomTag": true,
    "armorProf": {
      "value": []
    },
    "weaponProf": {
      "value": []
    },
    "languages": {
      "value": []
    },
    "scriptCalls": [],
    "subType": "classFeat",
    "associations": {
      "classes": [["Sorcerer"]]
    }
  }
}
