{
  "_id": "LBrnB5Ncpcb5oryt",
  "name": "Shroud of Vermin",
  "type": "feat",
  "img": "systems/pf1/icons/skills/green_23.jpg",
  "sort": 0,
  "flags": {},
  "system": {
    "description": {
      "value": "<p>At 9th level,&nbsp;<em>swarms</em>&nbsp;no longer see you as prey. You can walk among&nbsp;<em>swarms</em>&nbsp;without&nbsp;<em>fear</em>&nbsp;of being harmed by them at all, and by taking a&nbsp;<em>standard action</em>&nbsp;to mentally&nbsp;<em>command</em>&nbsp;a&nbsp;<em>swarm</em>&nbsp;in which you stand, you can direct that&nbsp;<em>swarm’s</em>&nbsp;attacks and movements as long as you have more&nbsp;<em>Hit Dice</em>&nbsp;than the&nbsp;<em>swarm</em>. Even when you aren’t standing amid a&nbsp;<em>swarm</em>, your body crawls with&nbsp;<em>vermin</em>, and their chitinous bodies increase your&nbsp;<em>natural armor bonus</em>&nbsp;by +1. At 11th level, this bonus increases to +2, and at 17th level it increases to +3.</p>"
    },
    "tags": [],
    "actions": [
      {
        "_id": "p0ehaqjq24twhgb0",
        "name": "Use",
        "img": "systems/pf1/icons/skills/green_23.jpg",
        "description": "",
        "tag": "",
        "activation": {
          "cost": 1,
          "type": "passive"
        },
        "unchainedAction": {
          "activation": {
            "cost": 1,
            "type": "passive"
          }
        },
        "duration": {
          "value": null,
          "units": ""
        },
        "target": {
          "value": ""
        },
        "range": {
          "value": null,
          "units": "",
          "maxIncrements": 1,
          "minValue": null,
          "minUnits": ""
        },
        "uses": {
          "autoDeductChargesCost": "",
          "self": {
            "value": 0,
            "maxFormula": "",
            "per": null
          },
          "per": "",
          "value": 0,
          "maxFormula": ""
        },
        "measureTemplate": {
          "type": "",
          "size": "0",
          "overrideColor": false,
          "customColor": "",
          "overrideTexture": false,
          "customTexture": ""
        },
        "attackName": "",
        "actionType": "",
        "attackBonus": "",
        "critConfirmBonus": "",
        "damage": {
          "parts": [],
          "critParts": [],
          "nonCritParts": []
        },
        "attackParts": [],
        "formulaicAttacks": {
          "count": {
            "formula": ""
          },
          "bonus": {
            "formula": ""
          },
          "label": null
        },
        "formula": "",
        "ability": {
          "attack": null,
          "damage": null,
          "damageMult": 1,
          "critRange": 20,
          "critMult": 2
        },
        "save": {
          "dc": 0,
          "type": "",
          "description": ""
        },
        "effectNotes": [],
        "attackNotes": [],
        "soundEffect": "",
        "powerAttack": {
          "multiplier": "",
          "damageBonus": 2,
          "critMultiplier": 1
        },
        "naturalAttack": {
          "primaryAttack": true,
          "secondary": {
            "attackBonus": "-5",
            "damageMult": 0.5
          }
        },
        "nonlethal": false,
        "usesAmmo": false,
        "spellEffect": "",
        "spellArea": "",
        "conditionals": [],
        "enh": {
          "value": null
        }
      }
    ],
    "uses": {
      "per": ""
    },
    "attackNotes": [],
    "effectNotes": [],
    "changes": [
      {
        "_id": "rp0h8aqw",
        "formula": "@classes.sorcerer.level >= 17 ? 3 : ((@classes.sorcerer.level > 10 && @classes.sorcerer.level < 17) ? 2 : 1)",
        "operator": "add",
        "subTarget": "nac",
        "modifier": "untyped",
        "priority": 0,
        "value": 0,
        "target": "ac"
      }
    ],
    "contextNotes": [],
    "links": {
      "children": [],
      "charges": []
    },
    "tag": "classFeat_shroudOfVermin",
    "useCustomTag": true,
    "armorProf": {
      "value": []
    },
    "weaponProf": {
      "value": []
    },
    "languages": {
      "value": []
    },
    "scriptCalls": [],
    "subType": "classFeat",
    "associations": {
      "classes": [["Sorcerer"]]
    },
    "abilityType": "su"
  }
}
