{
  "_id": "DbC7QZBYYIClw1m6",
  "name": "Smite Good",
  "type": "feat",
  "img": "systems/pf1/icons/skills/red_16.jpg",
  "sort": 0,
  "flags": {},
  "system": {
    "description": {
      "value": "<p>Once per day, an antipaladin can call out to the dark powers to crush the forces of good. As a swift action, the antipaladin chooses one target within sight to smite. If this target is good, the antipaladin adds his Charisma bonus (if any) on his attack rolls and adds his antipaladin level on all damage rolls made against the target of his smite. If the target of smite good is an outsider with the good subtype, a good-aligned dragon, or a good creature with levels of cleric or paladin, the bonus to damage on the first successful attack increases to 2 points of damage per level the antipaladin possesses. Regardless of the target, smite good attacks automatically bypass any DR the creature might possess.<br><br>In addition, while smite good is in effect, the antipaladin gains a deflection bonus equal to his Charisma modifier (if any) to his AC against attacks made by the target of the smite. If the antipaladin targets a creature that is not good, the smite is wasted with no effect.<br><br>The smite good effect remains until the target of the smite is dead or the next time the antipaladin rests and regains his uses of this ability.</p>\n<p>At 4th level, and at every three levels thereafter, the antipaladin may smite good one additional time per day, as indicated on Table 2–13, to a maximum of seven times per day at 19th level.</p>"
    },
    "tags": [],
    "actions": [
      {
        "_id": "ocsrti4qxjjta8cp",
        "name": "Use",
        "img": "systems/pf1/icons/skills/red_16.jpg",
        "description": "",
        "tag": "",
        "activation": {
          "cost": 1,
          "type": "swift"
        },
        "unchainedAction": {
          "activation": {
            "cost": 1,
            "type": "action"
          }
        },
        "duration": {
          "value": null,
          "units": "seeText"
        },
        "target": {
          "value": "one creature"
        },
        "range": {
          "value": null,
          "units": "seeText",
          "maxIncrements": 1,
          "minValue": null,
          "minUnits": ""
        },
        "uses": {
          "autoDeductChargesCost": "",
          "self": {
            "value": 0,
            "maxFormula": "",
            "per": null
          },
          "per": "day",
          "value": 0,
          "maxFormula": "1 + floor((@classes.antipaladin.level - 1) / 3)"
        },
        "measureTemplate": {
          "type": "",
          "size": "",
          "overrideColor": false,
          "customColor": "",
          "overrideTexture": false,
          "customTexture": ""
        },
        "attackName": "",
        "actionType": "",
        "attackBonus": "",
        "critConfirmBonus": "",
        "damage": {
          "parts": [],
          "critParts": [],
          "nonCritParts": []
        },
        "attackParts": [],
        "formulaicAttacks": {
          "count": {
            "formula": ""
          },
          "bonus": {
            "formula": ""
          },
          "label": null
        },
        "formula": "",
        "ability": {
          "attack": null,
          "damage": null,
          "damageMult": 1,
          "critRange": 20,
          "critMult": 2
        },
        "save": {
          "dc": 0,
          "type": "",
          "description": ""
        },
        "effectNotes": [],
        "attackNotes": [],
        "soundEffect": "",
        "powerAttack": {
          "multiplier": "",
          "damageBonus": 2,
          "critMultiplier": 1
        },
        "naturalAttack": {
          "primaryAttack": true,
          "secondary": {
            "attackBonus": "-5",
            "damageMult": 0.5
          }
        },
        "nonlethal": false,
        "usesAmmo": false,
        "spellEffect": "",
        "spellArea": "",
        "conditionals": [],
        "enh": {
          "value": null
        }
      }
    ],
    "uses": {
      "per": "day",
      "maxFormula": "1 + floor((@classes.antipaladin.level - 1) / 3)"
    },
    "attackNotes": [],
    "effectNotes": [],
    "changes": [],
    "contextNotes": [],
    "links": {
      "children": [],
      "charges": []
    },
    "tag": "classFeat_smiteGood",
    "useCustomTag": true,
    "armorProf": {
      "value": []
    },
    "weaponProf": {
      "value": []
    },
    "languages": {
      "value": []
    },
    "scriptCalls": [],
    "subType": "classFeat",
    "associations": {
      "classes": [["Antipaladin"]]
    },
    "abilityType": "su"
  }
}
