{
  "_id": "ZEjDTuTGaSUXZ1RP",
  "name": "Spark of Life",
  "type": "feat",
  "img": "systems/pf1/icons/spells/runes-blue-1.jpg",
  "sort": 0,
  "flags": {},
  "system": {
    "description": {
      "value": "<p><strong>Element&nbsp;</strong>universal;&nbsp;<strong>Type&nbsp;</strong>utility (Sp);&nbsp;<strong>Level&nbsp;</strong>5;&nbsp;<strong>Burn&nbsp;</strong>0</p>\n<p>You breathe a semblance of life into elemental matter, which takes the form of a Medium elemental of any of your elements as if summoned by @Compendium[pf1.spells.aqri3zf6mzgd4di6]{Summon Monster IV} with a caster level equal to your kineticist level, except the elemental gains the mindless trait. Each round on your turn, you must take a move action to guide the elemental or it collapses back into its component element.</p>\n<p>By accepting 1 point of burn, you can pour a bit of your own sentience into the elemental, removing the mindless quality and allowing it to persist for 1 round per kineticist level without requiring any further actions.</p>\n<p>At 12th level, you can choose to form a Large elemental as if by @Compendium[pf1.spells.hd7ukybisvv7j5r6]{Summon Monster V}.</p>\n<p>at 14th level, you can choose to form a Huge elemental as if by @Compendium[pf1.spells.mf6k8tg8xu0wedoz]{Summon Monster VI}.</p>\n<p>at 16th level, you can choose to form a greater elemental as if by @Compendium[pf1.spells.et3440o24hcgrfwl]{Summon Monster VII}.</p>\n<p>at 18th level, you can choose to form an elder elemental as if by @Compendium[pf1.spells.j91n23p4tfjixp3s]{Summon Monster VIII}.</p>"
    },
    "tags": [],
    "actions": [],
    "attackNotes": [],
    "effectNotes": [],
    "changes": [],
    "contextNotes": [],
    "links": {
      "children": [],
      "charges": []
    },
    "tag": "classFeat_sparkOfLife",
    "useCustomTag": true,
    "armorProf": {
      "value": []
    },
    "weaponProf": {
      "value": []
    },
    "languages": {
      "value": []
    },
    "scriptCalls": [],
    "subType": "classFeat",
    "associations": {
      "classes": [["Kineticist"]]
    },
    "abilityType": "sp"
  }
}
