{
  "_id": "aUqHCnEdkjWK9aSu",
  "name": "Speak with Animals (ORA)",
  "type": "feat",
  "img": "systems/pf1/icons/spells/light-royal-1.jpg",
  "system": {
    "description": {
      "value": "<p>Choose a specific kind of animal (eagle, fox, dog, and so on). You gain the ability to converse with that type of animal as if you were under the effects of @Compendium[pf1.spells.ct9fhh8uawn8e4md]{speak with animal}. You gain the ability to communicate with an additional kind of animal for every 3 oracle levels you have attained.</p>"
    },
    "tags": [],
    "actions": [],
    "attackNotes": [],
    "effectNotes": [],
    "changes": [],
    "contextNotes": [],
    "links": {
      "children": [],
      "charges": []
    },
    "tag": "classFeat_speakWithAnimalsOra",
    "useCustomTag": true,
    "armorProf": {
      "value": []
    },
    "weaponProf": {
      "value": []
    },
    "languages": {
      "value": []
    },
    "scriptCalls": [],
    "subType": "classFeat",
    "associations": {
      "classes": [["Oracle"]]
    },
    "abilityType": "ex"
  },
  "sort": 0,
  "flags": {}
}
