{
  "_id": "DnQK1UZ09ufe1Jmn",
  "name": "Speak with Master",
  "type": "feat",
  "img": "systems/pf1/icons/spells/wild-orange-1.jpg",
  "sort": 0,
  "flags": {},
  "system": {
    "description": {
      "value": "<p>At 11th level, a hunter and her animal companion can communicate verbally, as if they were using a common language. Other creatures cannot understand the communication without magical aid.</p>"
    },
    "tags": [],
    "actions": [],
    "attackNotes": [],
    "effectNotes": [],
    "changes": [],
    "contextNotes": [],
    "links": {
      "children": [],
      "charges": []
    },
    "tag": "classFeat_speakWithMaster",
    "useCustomTag": true,
    "armorProf": {
      "value": []
    },
    "weaponProf": {
      "value": []
    },
    "languages": {
      "value": []
    },
    "scriptCalls": [],
    "subType": "classFeat",
    "associations": {
      "classes": [["Hunter"]]
    },
    "abilityType": "ex"
  }
}
