{
  "_id": "FSCREL7v6iMkIbAZ",
  "name": "Spirit Surge",
  "type": "feat",
  "img": "systems/pf1/icons/skills/blue_22.jpg",
  "sort": 0,
  "flags": {},
  "system": {
    "description": {
      "value": "<p>After failing a d20 roll that was modified by his spirit bonus, a medium can allow his spirit to gain 1 additional point of influence over him in order to add 1d6 to the check’s result without taking an action. This can cause the check to succeed instead of fail. The medium must be conscious and aware to use this ability, and he can use this ability at most once per round.</p>\n<p>At 10th level, the medium’s spirit surge die increases to 1d8, and at 20th level it increases to 1d10.</p>"
    },
    "tags": [],
    "actions": [],
    "attackNotes": [],
    "effectNotes": [],
    "changes": [],
    "contextNotes": [],
    "links": {
      "children": [],
      "charges": []
    },
    "tag": "classFeat_spiritSurge",
    "useCustomTag": true,
    "armorProf": {
      "value": []
    },
    "weaponProf": {
      "value": []
    },
    "languages": {
      "value": []
    },
    "scriptCalls": [],
    "subType": "classFeat",
    "associations": {
      "classes": [["Medium"]]
    },
    "abilityType": "su"
  }
}
