{
  "_id": "m0T3SqjRbPgxRNBZ",
  "name": "Spiritual Defense",
  "type": "feat",
  "img": "systems/pf1/icons/spells/light-royal-1.jpg",
  "sort": 0,
  "flags": {},
  "system": {
    "description": {
      "value": "<p>Your chanting grants protection against your enemies. As a move action, you can begin chanting to gain the benefit of a protection spell (such as @Compendium[pf1.spells.skgjjub1hng29nwo]{Protection From Evil}) using your oracle level as your caster level. This protection lasts until you stop chanting or for the spell’s normal duration, whichever comes first. Chanting after the initial round of the effect is a free action, and you can incorporate verbal components and communication into the chant; magical silence ends a chant and its protection effect.</p>\n<p>At 6th level, you can chant aloud to create a magic circle effect (such as @Compendium[pf1.spells.1i8b1v3dngkxj6jp]{Magic Circle against Evil}).</p>\n<p>You can use this ability a number of times per day equal to 3 + your Charisma modifier.</p>"
    },
    "tags": [],
    "actions": [
      {
        "_id": "mweiz0p98ioqqm68",
        "name": "Use",
        "img": "systems/pf1/icons/spells/light-royal-1.jpg",
        "description": "",
        "tag": "",
        "activation": {
          "cost": 1,
          "type": "move"
        },
        "unchainedAction": {
          "activation": {
            "cost": 1,
            "type": ""
          }
        },
        "duration": {
          "value": null,
          "units": "seeText"
        },
        "target": {
          "value": "self"
        },
        "range": {
          "value": null,
          "units": "personal",
          "maxIncrements": 1,
          "minValue": null,
          "minUnits": ""
        },
        "uses": {
          "autoDeductChargesCost": "",
          "self": {
            "value": 0,
            "maxFormula": "",
            "per": null
          },
          "per": "day",
          "value": 0,
          "maxFormula": "3 + @abilities.cha.mod"
        },
        "measureTemplate": {
          "type": "",
          "size": "",
          "overrideColor": false,
          "customColor": "",
          "overrideTexture": false,
          "customTexture": ""
        },
        "attackName": "",
        "actionType": "",
        "attackBonus": "",
        "critConfirmBonus": "",
        "damage": {
          "parts": [],
          "critParts": [],
          "nonCritParts": []
        },
        "attackParts": [],
        "formulaicAttacks": {
          "count": {
            "formula": ""
          },
          "bonus": {
            "formula": ""
          },
          "label": null
        },
        "formula": "",
        "ability": {
          "attack": null,
          "damage": null,
          "damageMult": 1,
          "critRange": 20,
          "critMult": 2
        },
        "save": {
          "dc": 0,
          "type": "",
          "description": ""
        },
        "effectNotes": [],
        "attackNotes": [],
        "soundEffect": "",
        "powerAttack": {
          "multiplier": "",
          "damageBonus": 2,
          "critMultiplier": 1
        },
        "naturalAttack": {
          "primaryAttack": true,
          "secondary": {
            "attackBonus": "-5",
            "damageMult": 0.5
          }
        },
        "nonlethal": false,
        "usesAmmo": false,
        "spellEffect": "",
        "spellArea": "",
        "conditionals": [],
        "enh": {
          "value": null
        }
      }
    ],
    "uses": {
      "per": "day",
      "maxFormula": "3 + @abilities.cha.mod"
    },
    "attackNotes": [],
    "effectNotes": [],
    "changes": [],
    "contextNotes": [],
    "links": {
      "children": [],
      "charges": []
    },
    "tag": "classFeat_spiritualDefense",
    "useCustomTag": true,
    "armorProf": {
      "value": []
    },
    "weaponProf": {
      "value": []
    },
    "languages": {
      "value": []
    },
    "scriptCalls": [],
    "subType": "classFeat",
    "associations": {
      "classes": [["Oracle"]]
    },
    "abilityType": "sp"
  }
}
