{
  "_id": "eh28SXC7btVQSkv6",
  "name": "Staggering Strike",
  "type": "feat",
  "img": "systems/pf1/icons/skills/red_05.jpg",
  "sort": 0,
  "flags": {},
  "system": {
    "description": {
      "value": "<p>At 1st level, when you confirm a critical hit the target must succeed at a Fortitude saving throw or be staggered for 1 round. The DC of this save is equal to 10 + 1/2 your bloodrager level + your Constitution modifier.</p>\n<p>These effects stack with the @Compendium[pf1.feats.nVNkWyzh4EVyxouV]{Staggering Critical} feat; the target must save against each effect individually.</p>"
    },
    "tags": [],
    "actions": [],
    "attackNotes": [],
    "effectNotes": [],
    "changes": [],
    "contextNotes": [],
    "links": {
      "children": [],
      "charges": []
    },
    "tag": "classFeat_staggeringStrike",
    "useCustomTag": true,
    "armorProf": {
      "value": []
    },
    "weaponProf": {
      "value": []
    },
    "languages": {
      "value": []
    },
    "scriptCalls": [],
    "subType": "classFeat",
    "associations": {
      "classes": [["Bloodrager"]]
    },
    "abilityType": "su"
  }
}
