{
  "_id": "GIiIT7awOvjgvqXz",
  "name": "Streets Final Revelation",
  "type": "feat",
  "img": "systems/pf1/icons/spells/light-royal-1.jpg",
  "sort": 0,
  "flags": {},
  "system": {
    "description": {
      "value": "<p>Upon reaching 20th level, you become an avatar of the city. When you speak the name of a creature and a city out loud, you know whether that creature is in that city. You can also learn about any settlement you are in at will; this functions as&nbsp;commune with nature, operating only in towns and settlements rather than natural terrain.</p>"
    },
    "tags": [],
    "actions": [],
    "attackNotes": [],
    "effectNotes": [],
    "changes": [],
    "contextNotes": [],
    "links": {
      "children": [],
      "charges": []
    },
    "tag": "classFeat_streetsFinalRevelation",
    "useCustomTag": true,
    "armorProf": {
      "value": []
    },
    "weaponProf": {
      "value": []
    },
    "languages": {
      "value": []
    },
    "scriptCalls": [],
    "subType": "classFeat",
    "associations": {
      "classes": [["Oracle"]]
    }
  }
}
