{
  "_id": "RSJhzPnoAHgxExrD",
  "name": "Subjective Truth",
  "type": "feat",
  "img": "systems/pf1/icons/skills/light_07.jpg",
  "sort": 0,
  "flags": {},
  "system": {
    "description": {
      "value": "<p>The vigilante’s disparate identities allow him to defeat magic that detects lies. As long as what he says is true from the point of view of his current identity, it detects as true to effects such as&nbsp;discern lies, and he can say it in effects such as&nbsp;zone of truth&nbsp;that force him to speak the truth.</p>\n<p>A vigilante must be at least 9th level and have the feign innocence social talent to select this talent.</p>"
    },
    "tags": [],
    "actions": [],
    "attackNotes": [],
    "effectNotes": [],
    "changes": [],
    "contextNotes": [],
    "links": {
      "children": [],
      "charges": []
    },
    "tag": "classFeat_subjectiveTruth",
    "useCustomTag": true,
    "armorProf": {
      "value": []
    },
    "weaponProf": {
      "value": []
    },
    "languages": {
      "value": []
    },
    "scriptCalls": [],
    "subType": "classFeat",
    "associations": {
      "classes": [["Vigilante"]]
    },
    "abilityType": "ex"
  }
}
