{
  "_id": "pZaZcT8gMPQGX9Ur",
  "name": "Supreme Charge",
  "type": "feat",
  "img": "systems/pf1/icons/feats/spirited-charge.jpg",
  "sort": 0,
  "flags": {},
  "system": {
    "description": {
      "value": "<p>At 20th level, whenever the cavalier makes a&nbsp;<em>charge</em>&nbsp;attack while mounted, he deals double the normal amount of&nbsp;<em>damage</em>&nbsp;(or triple if using a lance). In addition, if the cavalier confirms a critical hit on a&nbsp;<em>charge</em>&nbsp;attack while mounted, the target is&nbsp;<em>stunned</em>&nbsp;for 1d4 rounds. A&nbsp;<em>Will</em>&nbsp;save reduces this to&nbsp;<em>staggered</em>&nbsp;for 1d4 rounds. The DC is equal to 10 + the cavalier’s base&nbsp;<em>attack bonus</em>.</p>"
    },
    "tags": [],
    "actions": [],
    "attackNotes": [],
    "effectNotes": [],
    "changes": [],
    "contextNotes": [],
    "links": {
      "children": [],
      "charges": []
    },
    "tag": "classFeat_supremeCharge",
    "useCustomTag": true,
    "armorProf": {
      "value": []
    },
    "weaponProf": {
      "value": []
    },
    "languages": {
      "value": []
    },
    "scriptCalls": [],
    "subType": "classFeat",
    "associations": {
      "classes": [["Cavalier"]]
    },
    "abilityType": "ex"
  }
}
