{
  "_id": "9EKIxM15YR9QKsxp",
  "name": "Tanglefoot Bomb",
  "type": "feat",
  "img": "systems/pf1/icons/items/potions/unique-3.jpg",
  "sort": 0,
  "flags": {},
  "system": {
    "description": {
      "value": "<p>A creature that takes a direct hit from a tanglefoot bomb must save against the bomb’s DC or be entangled and glued to the floor as if it had failed its save against a&nbsp;<a href=\"https://aonprd.com/EquipmentMiscDisplay.aspx?ItemName=Tanglefoot%20bag\">tanglefoot bag</a>. Creatures in the splash area that fail their saves are entangled but not glued to the floor; those who make this save are not entangled at all.</p>"
    },
    "tags": [],
    "actions": [],
    "attackNotes": [],
    "effectNotes": [],
    "changes": [],
    "contextNotes": [],
    "links": {
      "children": [],
      "charges": []
    },
    "tag": "classFeat_tanglefootBomb",
    "useCustomTag": true,
    "armorProf": {
      "value": []
    },
    "weaponProf": {
      "value": []
    },
    "languages": {
      "value": []
    },
    "scriptCalls": [],
    "subType": "classFeat",
    "associations": {
      "classes": [["Alchemist"]]
    },
    "abilityType": "su"
  }
}
