{
  "_id": "MX9xw4IH1KTVmYcM",
  "name": "Telekinetic Maneuvers",
  "type": "feat",
  "img": "systems/pf1/icons/spells/link-blue-2.jpg",
  "sort": 0,
  "flags": {},
  "system": {
    "description": {
      "value": "<p><strong>Element&nbsp;</strong>aether;&nbsp;<strong>Type&nbsp;</strong>utility (Sp);&nbsp;<strong>Level&nbsp;</strong>4;&nbsp;<strong>Burn&nbsp;</strong>0<br><strong>Saving Throw&nbsp;</strong>none;&nbsp;<strong>SR&nbsp;</strong>yes</p>\n<p>You can perform combat maneuvers as&nbsp;telekinesis, but you use your Constitution modifier to determine your Combat Maneuver Bonus rather than your Intelligence or Charisma modifier. If you possess the telekinetic finesse wild talent, add dirty trick and steal combat maneuvers to the list of combat maneuvers you can perform; when performing these maneuvers, determine your Combat Maneuver Bonus using your Dexterity modifier instead of your Constitution modifier.</p>"
    },
    "tags": [],
    "actions": [],
    "attackNotes": [],
    "effectNotes": [],
    "changes": [],
    "contextNotes": [],
    "links": {
      "children": [],
      "charges": []
    },
    "tag": "classFeat_telekineticManeuvers",
    "useCustomTag": true,
    "armorProf": {
      "value": []
    },
    "weaponProf": {
      "value": []
    },
    "languages": {
      "value": []
    },
    "scriptCalls": [],
    "subType": "classFeat",
    "associations": {
      "classes": [["Kineticist"]]
    },
    "abilityType": "sp"
  }
}
