{
  "_id": "udTioz806rUWOf5q",
  "name": "Trickery Patron",
  "type": "feat",
  "img": "systems/pf1/icons/feats/improved-familiar.jpg",
  "sort": 0,
  "flags": {},
  "system": {
    "description": {
      "value": "<ul>\n<li>2nd — @Compendium[pf1.spells.7k5ypftnzy9r7mzz]{Animate Rope}</li>\n<li>4th — @Compendium[pf1.spells.4jsss37x0pplib8f]{Mirror Image}</li>\n<li>6th — @Compendium[pf1.spells.7rx66m98dwo18fy8]{Major Image}</li>\n<li>8th — @Compendium[pf1.spells.a2y1yf0a4jy3610w]{Hallucinatory Terrain}</li>\n<li>10th — @Compendium[pf1.spells.82vi1xife3nlu8a0]{Mirage Arcana}</li>\n<li>12th — @Compendium[pf1.spells.446vcsetq4ny904e]{Mislead}</li>\n<li>14th — @Compendium[pf1.spells.3bdfw5f15hwcxlth]{Reverse Gravity}</li>\n<li>16th — @Compendium[pf1.spells.dsondqy4ngf1yzf3]{Screen}</li>\n<li>18th — @Compendium[pf1.spells.7mstq5c76h3e6zzx]{Time Stop}</li>\n</ul>"
    },
    "tags": [],
    "actions": [],
    "attackNotes": [],
    "effectNotes": [],
    "changes": [],
    "contextNotes": [],
    "links": {
      "children": [],
      "charges": []
    },
    "tag": "classFeat_trickeryPatron",
    "useCustomTag": true,
    "armorProf": {
      "value": []
    },
    "weaponProf": {
      "value": []
    },
    "languages": {
      "value": []
    },
    "scriptCalls": [],
    "subType": "classFeat",
    "associations": {
      "classes": [["Witch"]]
    }
  }
}
