{
  "_id": "WgnN4RsZOddfufJ4",
  "name": "Volcano Mystery",
  "type": "feat",
  "img": "systems/pf1/icons/spells/light-magenta-2.jpg",
  "sort": 0,
  "flags": {},
  "system": {
    "description": {
      "value": "<p><strong>Class Skills:</strong> An oracle with the volcano mystery adds Climb, Intimidate, Knowledge (geography), and Survival to her list of class skills.<br><br><strong>Bonus Spells:</strong>&nbsp;</p>\n<ul>\n<li>@Compendium[pf1.spells.lndeaqm2j2nvgm6p]{Burning Hands} (2nd),&nbsp;</li>\n<li>@Compendium[pf1.spells.3b1x69kfhnsa2d54]{Heat Metal} (4th),&nbsp;</li>\n<li>@Compendium[pf1.spells.1vh2ewwvzvxunoxk]{Protection from Energy} (6th),&nbsp;</li>\n<li>@Compendium[pf1.spells.8qligfr61kotnlwx]{Volcanic Storm} (8th),&nbsp;</li>\n<li>@Compendium[pf1.spells.nll8ip8348eti0ff]{Geyser} (10th),&nbsp;</li>\n<li>@Compendium[pf1.spells.0cbreqkr1vp7meyi]{Contagious Flame} (12th),&nbsp;</li>\n<li>@Compendium[pf1.spells.9wl8ijy6argdvz5f]{Fire Storm} (14th),&nbsp;</li>\n<li>@Compendium[pf1.spells.h17ad4lpmphnospf]{Wall of Lava} (16th),&nbsp;</li>\n<li>@Compendium[pf1.spells.xhzme0v6tjq95fg6]{Meteor Swarm} (18th).</li>\n</ul>"
    },
    "tags": [],
    "actions": [],
    "attackNotes": [],
    "effectNotes": [],
    "changes": [],
    "contextNotes": [],
    "links": {
      "children": [],
      "charges": []
    },
    "tag": "classFeat_volcanoMystery",
    "useCustomTag": true,
    "armorProf": {
      "value": []
    },
    "weaponProf": {
      "value": []
    },
    "languages": {
      "value": []
    },
    "scriptCalls": [],
    "subType": "classFeat",
    "associations": {
      "classes": [["Oracle"]]
    }
  }
}
