{
  "_id": "DKVgDiC355LipXWw",
  "name": "Warpriest Aura",
  "type": "feat",
  "img": "systems/pf1/icons/spells/haste-royal-1.jpg",
  "sort": 0,
  "flags": {},
  "system": {
    "description": {
      "value": "<p>A warpriest of a chaotic, evil, good, or lawful deity has a particularly powerful aura (as a cleric) corresponding to the deity’s alignment (see&nbsp;detect evil&nbsp;on page 266 of the&nbsp;Core Rulebook&nbsp;for details).</p>"
    },
    "tags": [],
    "actions": [],
    "attackNotes": [],
    "effectNotes": [],
    "changes": [],
    "contextNotes": [],
    "links": {
      "children": [],
      "charges": []
    },
    "tag": "classFeat_warpriestAura",
    "useCustomTag": true,
    "armorProf": {
      "value": []
    },
    "weaponProf": {
      "value": []
    },
    "languages": {
      "value": []
    },
    "scriptCalls": [],
    "subType": "classFeat",
    "associations": {
      "classes": [["Warpriest"]]
    },
    "abilityType": "ex"
  }
}
