{
  "_id": "QYVZS8MfOKzjpCm1",
  "name": "Bless",
  "type": "buff",
  "img": "systems/pf1/icons/skills/light_04.jpg",
  "sort": 100001,
  "flags": {},
  "system": {
    "description": {
      "value": "<p>You have a +1 morale bonus to attack rolls and saves against fear effects.</p>"
    },
    "tags": [],
    "changes": [
      {
        "_id": "e9subqu1",
        "formula": "1",
        "operator": "add",
        "subTarget": "attack",
        "modifier": "morale",
        "priority": 0,
        "value": 0,
        "target": "attack"
      }
    ],
    "contextNotes": [
      {
        "formula": "",
        "operator": "add",
        "target": "savingThrows",
        "subTarget": "allSavingThrows",
        "modifier": "",
        "priority": 0,
        "value": 0,
        "text": "+[[1]] Morale vs Fear effects"
      }
    ],
    "links": {
      "children": []
    },
    "scriptCalls": [],
    "level": "1",
    "duration": {
      "value": "@item.level",
      "units": "minute"
    }
  }
}
