{
  "_id": "DvcRWaWndZ1s2tB4",
  "name": "Total Defense",
  "type": "buff",
  "img": "icons/svg/combat.svg",
  "sort": 0,
  "flags": {},
  "system": {
    "tags": [],
    "changes": [
      {
        "_id": "bhjbvsog",
        "formula": "@skills.acr.rank>=3?6:4",
        "operator": "add",
        "subTarget": "ac",
        "modifier": "dodge",
        "priority": 0,
        "value": 0,
        "target": "ac"
      }
    ],
    "contextNotes": [],
    "links": {
      "children": []
    },
    "tag": "totalDefense",
    "scriptCalls": [],
    "level": "",
    "duration": {
      "value": "1",
      "units": "round"
    }
  }
}
