{
  "_id": "2dtcvrqh1z9k05dq",
  "name": "Animal Aspect, Greater",
  "type": "spell",
  "img": "systems/pf1/icons/misc/magic-swirl.png",
  "sort": 0,
  "flags": {},
  "system": {
    "tags": [],
    "actions": [
      {
        "_id": "fbk87qr4w2dwb3y7",
        "name": "Use",
        "img": "systems/pf1/icons/misc/magic-swirl.png",
        "description": "",
        "tag": "",
        "activation": {
          "cost": 1,
          "type": "standard"
        },
        "unchainedAction": {
          "activation": {
            "cost": 2,
            "type": "action"
          }
        },
        "duration": {
          "value": "1 minute/level (D)",
          "units": ""
        },
        "target": {
          "value": "you"
        },
        "range": {
          "value": null,
          "units": "personal",
          "maxIncrements": 1,
          "minValue": null,
          "minUnits": ""
        },
        "uses": {
          "autoDeductChargesCost": "",
          "self": {
            "value": 0,
            "maxFormula": "",
            "per": null
          },
          "per": "",
          "value": 0,
          "maxFormula": ""
        },
        "measureTemplate": {
          "type": "",
          "size": "0",
          "overrideColor": false,
          "customColor": "",
          "overrideTexture": false,
          "customTexture": ""
        },
        "attackName": "",
        "actionType": "",
        "attackBonus": "",
        "critConfirmBonus": "",
        "damage": {
          "parts": [],
          "critParts": [],
          "nonCritParts": []
        },
        "attackParts": [],
        "formulaicAttacks": {
          "count": {
            "formula": ""
          },
          "bonus": {
            "formula": ""
          },
          "label": null
        },
        "formula": "",
        "ability": {
          "attack": "",
          "damage": "",
          "damageMult": 1,
          "critRange": 20,
          "critMult": 2
        },
        "save": {
          "dc": "0",
          "type": "",
          "description": ""
        },
        "effectNotes": [],
        "attackNotes": [],
        "soundEffect": "",
        "powerAttack": {
          "multiplier": "",
          "damageBonus": 2,
          "critMultiplier": 1
        },
        "naturalAttack": {
          "primaryAttack": true,
          "secondary": {
            "attackBonus": "-5",
            "damageMult": 0.5
          }
        },
        "nonlethal": false,
        "usesAmmo": false,
        "spellEffect": "",
        "spellArea": "",
        "conditionals": [],
        "enh": {
          "value": null
        }
      }
    ],
    "uses": {
      "per": ""
    },
    "attackNotes": [],
    "effectNotes": [],
    "links": {
      "children": []
    },
    "scriptCalls": [],
    "learnedAt": {
      "class": [
        ["sorcerer/wizard", 4],
        ["druid", 3],
        ["ranger", 3],
        ["alchemist", 3],
        ["magus", 3],
        ["bloodrager", 3],
        ["psychic", 4],
        ["hunter", 3]
      ],
      "domain": [],
      "subDomain": [["Competition", 3]],
      "elementalSchool": [],
      "bloodline": []
    },
    "level": 4,
    "school": "trs",
    "subschool": "polymorph",
    "components": {
      "verbal": true,
      "somatic": true,
      "material": true,
      "divineFocus": 2
    },
    "materials": {
      "value": "a part of the animal"
    },
    "spellbook": "",
    "shortDescription": "<p>This spell functions like @Compendium[pf1.spells.w6bdfme0t8frk73p]{animal aspect}, except you can either gain two aspects at once or one aspect that adds effects to the aspects that <em>animal aspect</em> grants, as described below. <br /><em>Frog</em>: You gain a Swim speed equal to half your normal speed, and all the benefits of having a swim speed. <br /><em>Gorilla</em>: You gain a +2 competence bonus on @Compendium[pf1.skills.YYmmxDgp0g3ltSUG]{Perception} checks, and a +1 competence bonus on Fortitude saves. <br /><em>Monkey</em>: You gain a +4 competence bonus on @Compendium[pf1.skills.HPsdXjjRtKNGFGRc]{Acrobatics} checks. <br /><em>Otter</em>: Your swim speed increases to your full normal speed, and you need not make concentration checks to cast spells underwater. <br /><em>Raccoon</em>: Your competence bonuses on @Compendium[pf1.skills.CCy1fajKKU3K02iQ]{Disable Device}, @Compendium[pf1.skills.zK0CbvpYLZhTN5Wn]{Sleight of Hand}, and @Compendium[pf1.skills.T6nefKotIb5vKE9h]{Stealth} checks increase to +4. <br /><em>Raptor</em>: Your enhancement bonus to speed increases to +30 feet, and you gain the benefit of the @Compendium[pf1.feats.bXeW4kLCErPBFpNB]{Run} feat. <br /><em>Tree Lizard</em>: You gain a +4 competence bonus on @Compendium[pf1.skills.T6nefKotIb5vKE9h]{Stealth} checks.</p>"
  }
}
