{
  "_id": "n5abipvquwsexpr3",
  "name": "Aroden's Spellsword",
  "type": "spell",
  "img": "systems/pf1/icons/misc/magic-swirl.png",
  "sort": 0,
  "flags": {},
  "system": {
    "tags": [],
    "actions": [
      {
        "_id": "v5ogdwhl4w81loyl",
        "name": "Use",
        "img": "systems/pf1/icons/misc/magic-swirl.png",
        "description": "",
        "tag": "",
        "activation": {
          "cost": 1,
          "type": "round"
        },
        "unchainedAction": {
          "activation": {
            "cost": 3,
            "type": "action"
          }
        },
        "duration": {
          "value": "10 minutes/level",
          "units": ""
        },
        "target": {
          "value": ""
        },
        "range": {
          "value": null,
          "units": "touch",
          "maxIncrements": 1,
          "minValue": null,
          "minUnits": ""
        },
        "uses": {
          "autoDeductChargesCost": "",
          "self": {
            "value": 0,
            "maxFormula": "",
            "per": null
          },
          "per": "",
          "value": 0,
          "maxFormula": ""
        },
        "measureTemplate": {
          "type": "",
          "size": "0",
          "overrideColor": false,
          "customColor": "",
          "overrideTexture": false,
          "customTexture": ""
        },
        "attackName": "",
        "actionType": "spellsave",
        "attackBonus": "",
        "critConfirmBonus": "",
        "damage": {
          "parts": [],
          "critParts": [],
          "nonCritParts": []
        },
        "attackParts": [],
        "formulaicAttacks": {
          "count": {
            "formula": ""
          },
          "bonus": {
            "formula": ""
          },
          "label": null
        },
        "formula": "",
        "ability": {
          "attack": "",
          "damage": "",
          "damageMult": 1,
          "critRange": 20,
          "critMult": 2
        },
        "save": {
          "dc": "0",
          "type": "will",
          "description": "Will negates (harmless, object)"
        },
        "effectNotes": [],
        "attackNotes": [],
        "soundEffect": "",
        "powerAttack": {
          "multiplier": "",
          "damageBonus": 2,
          "critMultiplier": 1
        },
        "naturalAttack": {
          "primaryAttack": true,
          "secondary": {
            "attackBonus": "-5",
            "damageMult": 0.5
          }
        },
        "nonlethal": false,
        "usesAmmo": false,
        "spellEffect": "one melee weapon sized appropriately for you",
        "spellArea": "",
        "conditionals": [],
        "enh": {
          "value": null
        }
      }
    ],
    "uses": {
      "per": ""
    },
    "attackNotes": [],
    "effectNotes": [],
    "links": {
      "children": []
    },
    "scriptCalls": [],
    "learnedAt": {
      "class": [
        ["sorcerer/wizard", 3],
        ["bard", 4],
        ["witch", 4],
        ["magus", 3],
        ["bloodrager", 4],
        ["occultist", 4]
      ],
      "domain": [],
      "subDomain": [],
      "elementalSchool": [],
      "bloodline": []
    },
    "level": 3,
    "school": "trs",
    "components": {
      "verbal": true,
      "somatic": true,
      "focus": true
    },
    "materials": {
      "focus": "a magic rod or staff"
    },
    "shortDescription": "<p>When you cast this spell on a weapon, you cause an extradimensional space to open within the weapon. As part of the casting, you can insert a single magic rod or magic staff into the weapon's extradimensional space, after which the space closes. For the spell's duration, a character wielding the transmuted weapon is also considered to be wielding the rod or staff as well. If the rod or staff can be used to make attacks, you can attack normally with the weapon or use the weapon as if it were the merged rod or staff. If the effect created by the rod or staff requires an attack roll to successfully strike a foe, you can make the attack roll as if you were making an attack with the weapon at its highest bonus (including any bonuses the weapon would normally receive) rather than just a normal attack with the rod or staff-doing so does not allow you to add the weapon's damage to the attack, but instead allows you to use your skill with the weapon to boost your chance of hitting with the rod or staff's attack, spell, or effect.  At the end of the spell's duration, the merged rod or staff is ejected from the weapon. If you have a free hand, you can catch the rod or staff as a free action; otherwise, it drops to the ground.  If the merged weapon is broken or destroyed during the duration of Aroden's spellsword, the merged rod or staff is similarly broken or destroyed.</p>"
  }
}
