{
  "_id": "2p6fzj5t03oivndd",
  "name": "Command",
  "type": "spell",
  "img": "systems/pf1/icons/misc/magic-swirl.png",
  "sort": 0,
  "flags": {},
  "system": {
    "tags": [],
    "actions": [
      {
        "_id": "7wq7o3eac6ooz8gf",
        "name": "Use",
        "img": "systems/pf1/icons/misc/magic-swirl.png",
        "description": "",
        "tag": "",
        "activation": {
          "cost": 1,
          "type": "standard"
        },
        "unchainedAction": {
          "activation": {
            "cost": 2,
            "type": "action"
          }
        },
        "duration": {
          "value": "1 round",
          "units": ""
        },
        "target": {
          "value": "one living creature"
        },
        "range": {
          "value": null,
          "units": "close",
          "maxIncrements": 1,
          "minValue": null,
          "minUnits": ""
        },
        "uses": {
          "autoDeductChargesCost": "",
          "self": {
            "value": 0,
            "maxFormula": "",
            "per": null
          },
          "per": "",
          "value": 0,
          "maxFormula": ""
        },
        "measureTemplate": {
          "type": "",
          "size": "0",
          "overrideColor": false,
          "customColor": "",
          "overrideTexture": false,
          "customTexture": ""
        },
        "attackName": "",
        "actionType": "spellsave",
        "attackBonus": "",
        "critConfirmBonus": "",
        "damage": {
          "parts": [],
          "critParts": [],
          "nonCritParts": []
        },
        "attackParts": [],
        "formulaicAttacks": {
          "count": {
            "formula": ""
          },
          "bonus": {
            "formula": ""
          },
          "label": null
        },
        "formula": "",
        "ability": {
          "attack": "",
          "damage": "",
          "damageMult": 1,
          "critRange": 20,
          "critMult": 2
        },
        "save": {
          "dc": "0",
          "type": "will",
          "description": "Will negates"
        },
        "effectNotes": [],
        "attackNotes": [],
        "soundEffect": "",
        "powerAttack": {
          "multiplier": "",
          "damageBonus": 2,
          "critMultiplier": 1
        },
        "naturalAttack": {
          "primaryAttack": true,
          "secondary": {
            "attackBonus": "-5",
            "damageMult": 0.5
          }
        },
        "nonlethal": false,
        "usesAmmo": false,
        "spellEffect": "",
        "spellArea": "",
        "conditionals": [],
        "enh": {
          "value": null
        }
      }
    ],
    "uses": {
      "per": ""
    },
    "attackNotes": [],
    "effectNotes": [],
    "links": {
      "children": []
    },
    "scriptCalls": [],
    "learnedAt": {
      "class": [
        ["cleric/oracle", 1],
        ["witch", 1],
        ["inquisitor", 1],
        ["antipaladin", 1],
        ["adept", 1],
        ["psychic", 1],
        ["medium", 1],
        ["mesmerist", 1],
        ["occultist", 1]
      ],
      "domain": [],
      "subDomain": [
        ["Devil", 1],
        ["Toil", 1],
        ["Tyranny", 1]
      ],
      "elementalSchool": [],
      "bloodline": []
    },
    "school": "enc",
    "subschool": "compulsion",
    "types": "language-dependent, mind-affecting",
    "components": {
      "verbal": true
    },
    "shortDescription": "<p>You give the subject a single command, which it obeys to the best of its ability at its earliest opportunity. You may select from the following options.</p><p><i>Approach</i>: On its turn, the subject moves toward you as quickly and directly as possible for 1 round. The creature may do nothing but move during its turn, and it provokes attacks of opportunity for this movement as normal.</p><p><i>Drop</i>: On its turn, the subject drops whatever it is holding. It can't pick up any dropped item until its next turn.</p><p><i>Fall</i>: On its turn, the subject falls to the ground and remains prone for 1 round. It may act normally while prone but takes any appropriate penalties.</p><p><i>Flee</i>: On its turn, the subject moves away from you as quickly as possible for 1 round. It may do nothing but move during its turn, and it provokes attacks of opportunity for this movement as normal.</p><p><i>Halt</i>: The subject stands in place for 1 round. It may not take any actions but is not considered helpless.</p><p>If the subject can't carry out your command on its next turn, the spell automatically fails.</p>"
  }
}
