{
  "_id": "p68lfzn3r57xxs9u",
  "name": "Conjure Deadfall",
  "type": "spell",
  "img": "systems/pf1/icons/misc/magic-swirl.png",
  "sort": 0,
  "flags": {},
  "system": {
    "tags": [],
    "actions": [
      {
        "_id": "8ksfbg47gi4aw83q",
        "name": "Use",
        "img": "systems/pf1/icons/misc/magic-swirl.png",
        "description": "",
        "tag": "",
        "activation": {
          "cost": 1,
          "type": "standard"
        },
        "unchainedAction": {
          "activation": {
            "cost": 2,
            "type": "action"
          }
        },
        "duration": {
          "value": "instantaneous",
          "units": ""
        },
        "target": {
          "value": ""
        },
        "range": {
          "value": null,
          "units": "medium",
          "maxIncrements": 1,
          "minValue": null,
          "minUnits": ""
        },
        "uses": {
          "autoDeductChargesCost": "",
          "self": {
            "value": 0,
            "maxFormula": "",
            "per": null
          },
          "per": "",
          "value": 0,
          "maxFormula": ""
        },
        "measureTemplate": {
          "type": "",
          "size": "0",
          "overrideColor": false,
          "customColor": "",
          "overrideTexture": false,
          "customTexture": ""
        },
        "attackName": "",
        "actionType": "spellsave",
        "attackBonus": "",
        "critConfirmBonus": "",
        "damage": {
          "parts": [],
          "critParts": [],
          "nonCritParts": []
        },
        "attackParts": [],
        "formulaicAttacks": {
          "count": {
            "formula": ""
          },
          "bonus": {
            "formula": ""
          },
          "label": null
        },
        "formula": "",
        "ability": {
          "attack": "",
          "damage": "",
          "damageMult": 1,
          "critRange": 20,
          "critMult": 2
        },
        "save": {
          "dc": "0",
          "type": "ref",
          "description": "Reflex negates (see text)"
        },
        "effectNotes": [],
        "attackNotes": [],
        "soundEffect": "",
        "powerAttack": {
          "multiplier": "",
          "damageBonus": 2,
          "critMultiplier": 1
        },
        "naturalAttack": {
          "primaryAttack": true,
          "secondary": {
            "attackBonus": "-5",
            "damageMult": 0.5
          }
        },
        "nonlethal": false,
        "usesAmmo": false,
        "spellEffect": "one spiked, falling block",
        "spellArea": "see text",
        "conditionals": [],
        "enh": {
          "value": null
        }
      }
    ],
    "uses": {
      "per": ""
    },
    "attackNotes": [],
    "effectNotes": [],
    "links": {
      "children": []
    },
    "scriptCalls": [],
    "learnedAt": {
      "class": [
        ["sorcerer/wizard", 4],
        ["magus", 5]
      ],
      "domain": [],
      "subDomain": [],
      "elementalSchool": [],
      "bloodline": []
    },
    "level": 4,
    "school": "con",
    "subschool": "creation",
    "components": {
      "verbal": true,
      "somatic": true,
      "material": true
    },
    "materials": {
      "value": "fistful of mithral tacks"
    },
    "shortDescription": "<p>You conjure a large metal cube covered in sharp spikes. If you conjure the block so that it appears in midair, it immediately plummets downward onto all creatures below it. When you cast this spell, you select the size of the square area you wish it to affect. If you choose to create a deadfall over a single 5-foot square, the block deals 1d6 points of bludgeoning damage per caster level (maximum 15d6) to each creature in the area. A deadfall over a 10-foot square deals 1d6 points of bludgeoning damage per 2 caster levels (maximum 7d6), a deadfall over a 15- foot square deals 1d6 points of bludgeoning damage per 3 caster levels (maximum 5d6), and so on, to a maximum size of a 25- foot square. Only creatures that are on the outer edge of the area affected by a <i>conjure deadfall</i> spell can attempt Reflex saves to avoid the effect; creatures whose space does not touch the edge of the deadfall do not receive a save.  In order to deal damage, the conjured deadfall must start at least 10 feet above the tallest creature in the area to be affected. A conjured deadfall is as tall as it is wide, and the spell fails if you attempt to conjure a deadfall in an area already occupied by a creature or object (including the ceiling). Regardless, a deadfall conjured by this spell disappears as soon as it deals damage or strikes the ground.</p>"
  }
}
