{
  "_id": "qj15nnuiu6ntrkg2",
  "name": "Creeping Ice",
  "type": "spell",
  "img": "systems/pf1/icons/misc/magic-swirl.png",
  "sort": 0,
  "flags": {},
  "system": {
    "tags": [],
    "actions": [
      {
        "_id": "riwfnstyy4faw6g1",
        "name": "Use",
        "img": "systems/pf1/icons/misc/magic-swirl.png",
        "description": "",
        "tag": "",
        "activation": {
          "cost": 1,
          "type": "standard"
        },
        "unchainedAction": {
          "activation": {
            "cost": 2,
            "type": "action"
          }
        },
        "duration": {
          "value": "10 minutes/level",
          "units": ""
        },
        "target": {
          "value": ""
        },
        "range": {
          "value": null,
          "units": "medium",
          "maxIncrements": 1,
          "minValue": null,
          "minUnits": ""
        },
        "uses": {
          "autoDeductChargesCost": "",
          "self": {
            "value": 0,
            "maxFormula": "",
            "per": null
          },
          "per": "",
          "value": 0,
          "maxFormula": ""
        },
        "measureTemplate": {
          "type": "",
          "size": "0",
          "overrideColor": false,
          "customColor": "",
          "overrideTexture": false,
          "customTexture": ""
        },
        "attackName": "",
        "actionType": "spellsave",
        "attackBonus": "",
        "critConfirmBonus": "",
        "damage": {
          "parts": [],
          "critParts": [],
          "nonCritParts": []
        },
        "attackParts": [],
        "formulaicAttacks": {
          "count": {
            "formula": ""
          },
          "bonus": {
            "formula": ""
          },
          "label": null
        },
        "formula": "",
        "ability": {
          "attack": "",
          "damage": "",
          "damageMult": 1,
          "critRange": 20,
          "critMult": 2
        },
        "save": {
          "dc": "0",
          "type": "ref",
          "description": "Reflex negates (see text)"
        },
        "effectNotes": [],
        "attackNotes": [],
        "soundEffect": "",
        "powerAttack": {
          "multiplier": "",
          "damageBonus": 2,
          "critMultiplier": 1
        },
        "naturalAttack": {
          "primaryAttack": true,
          "secondary": {
            "attackBonus": "-5",
            "damageMult": 0.5
          }
        },
        "nonlethal": false,
        "usesAmmo": false,
        "spellEffect": "anchored plane of ice, up to one 10-ft. square/level",
        "spellArea": "",
        "conditionals": [],
        "enh": {
          "value": null
        }
      }
    ],
    "uses": {
      "per": ""
    },
    "attackNotes": [],
    "effectNotes": [],
    "links": {
      "children": []
    },
    "scriptCalls": [],
    "learnedAt": {
      "class": [
        ["sorcerer/wizard", 4],
        ["druid", 4],
        ["summoner", 3],
        ["hunter", 4],
        ["unchained Summoner", 4]
      ],
      "domain": [],
      "subDomain": [],
      "elementalSchool": [],
      "bloodline": []
    },
    "level": 4,
    "school": "evo",
    "types": "cold",
    "components": {
      "verbal": true,
      "somatic": true
    },
    "shortDescription": "<p>This spell covers the floor, the ground, or some other calm horizontal surface (such as a placid lake or a gentle river) with a sheet of slowly growing ice. The initial sheet of ice cannot form in an area occupied by physical objects or creatures. Its surface must be smooth and unbroken when created. The ice is hard, strong, and opaque, and is 1 inch thick per caster level. The ice is strong enough to support the weight of a typical horse, making it possible for creatures to cross a body of water.</p><p>Each 10-foot square of ice has 3 hit points per inch of thickness. Creatures can hit the ice automatically. A section of ice whose hit points drop to 0 is destroyed, leaving an area of ice chunks, slush, and snow that counts as difficult terrain. If a creature tries to break through the ice with a single attack, the DC for the Strength check is 15 + your caster level.</p><p>Each round on your turn, the sheet of ice grows 1 foot in all directions except toward you. This growth is slow enough that any creature in the area has time to move out of the way or step onto the ice. If the growing ice completely covers a creature's square, the creature must choose whether it moves onto the sheet of ice, is knocked prone on the sheet of ice, or is bull rushed into an adjacent square.</p>"
  }
}
