{
  "_id": "g0akb0o9nkn217tg",
  "name": "Dream Council",
  "type": "spell",
  "img": "systems/pf1/icons/misc/magic-swirl.png",
  "sort": 0,
  "flags": {},
  "system": {
    "tags": [],
    "actions": [
      {
        "_id": "mb9spo5yyzne64p3",
        "name": "Use",
        "img": "systems/pf1/icons/misc/magic-swirl.png",
        "description": "",
        "tag": "",
        "activation": {
          "cost": 1,
          "type": "standard"
        },
        "unchainedAction": {
          "activation": {
            "cost": 2,
            "type": "action"
          }
        },
        "duration": {
          "value": "see text",
          "units": ""
        },
        "target": {
          "value": "one or more living creatures"
        },
        "range": {
          "value": null,
          "units": "",
          "maxIncrements": 1,
          "minValue": null,
          "minUnits": ""
        },
        "uses": {
          "autoDeductChargesCost": "",
          "self": {
            "value": 0,
            "maxFormula": "",
            "per": null
          },
          "per": "",
          "value": 0,
          "maxFormula": ""
        },
        "measureTemplate": {
          "type": "",
          "size": "0",
          "overrideColor": false,
          "customColor": "",
          "overrideTexture": false,
          "customTexture": ""
        },
        "attackName": "",
        "actionType": "spellsave",
        "attackBonus": "",
        "critConfirmBonus": "",
        "damage": {
          "parts": [],
          "critParts": [],
          "nonCritParts": []
        },
        "attackParts": [],
        "formulaicAttacks": {
          "count": {
            "formula": ""
          },
          "bonus": {
            "formula": ""
          },
          "label": null
        },
        "formula": "",
        "ability": {
          "attack": "",
          "damage": "",
          "damageMult": 1,
          "critRange": 20,
          "critMult": 2
        },
        "save": {
          "dc": "0",
          "type": "will",
          "description": "Will negates"
        },
        "effectNotes": [],
        "attackNotes": [],
        "soundEffect": "",
        "powerAttack": {
          "multiplier": "",
          "damageBonus": 2,
          "critMultiplier": 1
        },
        "naturalAttack": {
          "primaryAttack": true,
          "secondary": {
            "attackBonus": "-5",
            "damageMult": 0.5
          }
        },
        "nonlethal": false,
        "usesAmmo": false,
        "spellEffect": "",
        "spellArea": "",
        "conditionals": [],
        "enh": {
          "value": null
        }
      }
    ],
    "uses": {
      "per": ""
    },
    "attackNotes": [],
    "effectNotes": [],
    "links": {
      "children": []
    },
    "scriptCalls": [],
    "learnedAt": {
      "class": [
        ["sorcerer/wizard", 7],
        ["bard", 6],
        ["psychic", 6],
        ["medium", 4],
        ["mesmerist", 5]
      ],
      "domain": [],
      "subDomain": [],
      "elementalSchool": [],
      "bloodline": []
    },
    "level": 7,
    "school": "ill",
    "subschool": "phantasm",
    "types": "mind-affecting",
    "components": {
      "verbal": true,
      "somatic": true
    },
    "shortDescription": "<p>This spell functions as <i>dream</i>, but you and the target of your <i>dream</i> can converse in a limited fashion as long as the recipient is also asleep. You can send or receive a number of <i>dream</i> messages equal to your caster level. Each message can be up to 25 words long or a single vague image that can't convey fine details such as words. You can send and receive these <i>dream</i> messages with a single target or multiple targets, but each message you send or receive counts against the total number of messages allowed. Sending a message takes 1 round. The spell ends and you wake up when you run out of messages.  If you use <i>dream</i> council to send a message to a sleeping creature that has <i>dream</i> or <i>dream</i> council prepared (or is able to cast it spontaneously or as a spell-like ability), the recipient can expend one of your allotted messages to cast that spell while remaining asleep. This uses up that creature's prepared spell, spell per day, or spell-like ability use as normal. Instead of replying to your message, that character is able to enter your <i>dream</i>scape. If the sleeping recipient has the Lucid Dreamer feat, it can enter your <i>dream</i>scape without casting either of those spells. While in the original caster's <i>dream</i>scape, those involved in the council can interact with one another and that <i>dream</i>scape for 10 minutes for each message remaining. When that time elapses, the spell ends.</p>"
  }
}
