{
  "_id": "050f388y9iuy4pwl",
  "name": "Obscured Script",
  "type": "spell",
  "img": "systems/pf1/icons/misc/magic-swirl.png",
  "sort": 0,
  "flags": {},
  "system": {
    "tags": [],
    "actions": [
      {
        "_id": "h9hkdwcaji728si4",
        "name": "Use",
        "img": "systems/pf1/icons/misc/magic-swirl.png",
        "description": "",
        "tag": "",
        "activation": {
          "cost": 1,
          "type": "standard"
        },
        "unchainedAction": {
          "activation": {
            "cost": 2,
            "type": "action"
          }
        },
        "duration": {
          "value": "24 hours (D)",
          "units": ""
        },
        "target": {
          "value": "one touched page, scroll, inscription, book, or other document no more than 3 feet in any dimension"
        },
        "range": {
          "value": null,
          "units": "touch",
          "maxIncrements": 1,
          "minValue": null,
          "minUnits": ""
        },
        "uses": {
          "autoDeductChargesCost": "",
          "self": {
            "value": 0,
            "maxFormula": "",
            "per": null
          },
          "per": "",
          "value": 0,
          "maxFormula": ""
        },
        "measureTemplate": {
          "type": "",
          "size": "0",
          "overrideColor": false,
          "customColor": "",
          "overrideTexture": false,
          "customTexture": ""
        },
        "attackName": "",
        "actionType": "spellsave",
        "attackBonus": "",
        "critConfirmBonus": "",
        "damage": {
          "parts": [],
          "critParts": [],
          "nonCritParts": []
        },
        "attackParts": [],
        "formulaicAttacks": {
          "count": {
            "formula": ""
          },
          "bonus": {
            "formula": ""
          },
          "label": null
        },
        "formula": "",
        "ability": {
          "attack": "",
          "damage": "",
          "damageMult": 1,
          "critRange": 20,
          "critMult": 2
        },
        "save": {
          "dc": "0",
          "type": "",
          "description": "none; see text"
        },
        "effectNotes": [],
        "attackNotes": [],
        "soundEffect": "",
        "powerAttack": {
          "multiplier": "",
          "damageBonus": 2,
          "critMultiplier": 1
        },
        "naturalAttack": {
          "primaryAttack": true,
          "secondary": {
            "attackBonus": "-5",
            "damageMult": 0.5
          }
        },
        "nonlethal": false,
        "usesAmmo": false,
        "spellEffect": "",
        "spellArea": "",
        "conditionals": [],
        "enh": {
          "value": null
        }
      }
    ],
    "uses": {
      "per": ""
    },
    "attackNotes": [],
    "effectNotes": [],
    "links": {
      "children": []
    },
    "scriptCalls": [],
    "learnedAt": {
      "class": [
        ["sorcerer/wizard", 2],
        ["bard", 2],
        ["psychic", 2],
        ["mesmerist", 2],
        ["occultist", 2]
      ],
      "domain": [],
      "subDomain": [],
      "elementalSchool": [],
      "bloodline": []
    },
    "level": 2,
    "school": "ill",
    "subschool": "phantasm",
    "components": {
      "verbal": true,
      "somatic": true,
      "material": true
    },
    "materials": {
      "value": "a scrap of paper bearing a simple sentence written in at least five languages"
    },
    "sr": false,
    "shortDescription": "<p>You create a latent illusion that clouds the judgment and reading ability of any creature that examines a targeted text. While casting the spell, you can designate up to one creature other than yourself per level to be immune to the effects. All other creatures that read the text must succeed at a Will save or find it difficult to properly parse and decipher the contents. This increases the DC of Linguistics checks to decipher the text by an amount equal to your caster level (maximum +10), and it increases the DC of the Wisdom check to avoid drawing a false conclusion by an equal amount. Unaffected creatures gain a circumstance bonus equal to your caster level (maximum +10) on Bluff checks to deceive affected creatures about the text's contents. The spell obscures any magical glyphs, runes, or symbols within the text, increasing the Perception DC to find such traps by an amount equal to half your caster level (maximum +5). <i>Obscured script</i> can be made permanent with a <i>permanency</i> spell by a caster of 10th level or higher for the cost of 5,000 gp.</p>"
  }
}
