{
  "_id": "atml1a51o9w777w7",
  "name": "Undead Anatomy I",
  "type": "spell",
  "img": "systems/pf1/icons/misc/magic-swirl.png",
  "sort": 0,
  "flags": {},
  "system": {
    "tags": [],
    "actions": [
      {
        "_id": "8htt8wppa35gter3",
        "name": "Use",
        "img": "systems/pf1/icons/misc/magic-swirl.png",
        "description": "",
        "tag": "",
        "activation": {
          "cost": 1,
          "type": "standard"
        },
        "unchainedAction": {
          "activation": {
            "cost": 2,
            "type": "action"
          }
        },
        "duration": {
          "value": "1 minute/level (D)",
          "units": ""
        },
        "target": {
          "value": "you"
        },
        "range": {
          "value": null,
          "units": "personal",
          "maxIncrements": 1,
          "minValue": null,
          "minUnits": ""
        },
        "uses": {
          "autoDeductChargesCost": "",
          "self": {
            "value": 0,
            "maxFormula": "",
            "per": null
          },
          "per": "",
          "value": 0,
          "maxFormula": ""
        },
        "measureTemplate": {
          "type": "",
          "size": "0",
          "overrideColor": false,
          "customColor": "",
          "overrideTexture": false,
          "customTexture": ""
        },
        "attackName": "",
        "actionType": "",
        "attackBonus": "",
        "critConfirmBonus": "",
        "damage": {
          "parts": [],
          "critParts": [],
          "nonCritParts": []
        },
        "attackParts": [],
        "formulaicAttacks": {
          "count": {
            "formula": ""
          },
          "bonus": {
            "formula": ""
          },
          "label": null
        },
        "formula": "",
        "ability": {
          "attack": "",
          "damage": "",
          "damageMult": 1,
          "critRange": 20,
          "critMult": 2
        },
        "save": {
          "dc": "0",
          "type": "",
          "description": ""
        },
        "effectNotes": [],
        "attackNotes": [],
        "soundEffect": "",
        "powerAttack": {
          "multiplier": "",
          "damageBonus": 2,
          "critMultiplier": 1
        },
        "naturalAttack": {
          "primaryAttack": true,
          "secondary": {
            "attackBonus": "-5",
            "damageMult": 0.5
          }
        },
        "nonlethal": false,
        "usesAmmo": false,
        "spellEffect": "",
        "spellArea": "",
        "conditionals": [],
        "enh": {
          "value": null
        }
      }
    ],
    "uses": {
      "per": ""
    },
    "attackNotes": [],
    "effectNotes": [],
    "links": {
      "children": []
    },
    "scriptCalls": [],
    "learnedAt": {
      "class": [
        ["sorcerer/wizard", 3],
        ["alchemist", 3],
        ["magus", 3],
        ["bloodrager", 3],
        ["spiritualist", 3]
      ],
      "domain": [],
      "subDomain": [],
      "elementalSchool": [],
      "bloodline": []
    },
    "level": 3,
    "school": "trs",
    "subschool": "polymorph",
    "components": {
      "verbal": true,
      "somatic": true,
      "material": true
    },
    "materials": {
      "value": "a piece of the creature whose form you plan to assume"
    },
    "sr": false,
    "shortDescription": "<p>When you cast this spell, you can assume the form of any <i>Small</i> or <i>Medium</i> corporeal creature of the undead type, which must be vaguely humanoid-shaped (like a ghoul, skeleton, or zombie). You gain a bite attack (1d6 for <i>Medium</i> forms, 1d4 for <i>Small</i> forms), two claw or slam attacks (1d6 for <i>Medium</i> forms, 1d4 for <i>Small</i> forms), and darkvision 60 feet. If the form you assume has any of the following abilities, you gain the listed ability: climb 30 feet, fly 30 feet (average maneuverability), swim 30 feet, low-light vision, and scent.</p><p>In this form, you detect as an undead creature (such as with <i>detect undead</i>, but not with magic that reveals your <i>true</i> form, such as <i>true</i> seeing) and are treated as undead for the purposes of channeled energy, <i>cure</i> spells, and <i>inflict</i> spells, but not for other effects that specifically target or react differently to undead (such as <i>searing</i> light).</p><p><i>Small</i> undead: If the form you take is that of a <i>Small</i> undead, you gain a +2 size bonus to your Dexterity and a +1 natural armor bonus.</p><p><i>Medium</i> undead: If the form you take is that of a <i>Medium</i> undead, you gain a +2 size bonus to your Strength and a +2 natural armor bonus.</p>"
  }
}
