{
  "_id": "efbldvsr22awyatl",
  "name": "Village Veil",
  "type": "spell",
  "img": "systems/pf1/icons/misc/magic-swirl.png",
  "sort": 0,
  "flags": {},
  "system": {
    "tags": [],
    "actions": [
      {
        "_id": "3zxuaw8cps8z3c9k",
        "name": "Use",
        "img": "systems/pf1/icons/misc/magic-swirl.png",
        "description": "",
        "tag": "",
        "activation": {
          "cost": 1,
          "type": "standard"
        },
        "unchainedAction": {
          "activation": {
            "cost": 2,
            "type": "action"
          }
        },
        "duration": {
          "value": "1 day/level",
          "units": ""
        },
        "target": {
          "value": ""
        },
        "range": {
          "value": null,
          "units": "long",
          "maxIncrements": 1,
          "minValue": null,
          "minUnits": ""
        },
        "uses": {
          "autoDeductChargesCost": "",
          "self": {
            "value": 0,
            "maxFormula": "",
            "per": null
          },
          "per": "",
          "value": 0,
          "maxFormula": ""
        },
        "measureTemplate": {
          "type": "",
          "size": "0",
          "overrideColor": false,
          "customColor": "",
          "overrideTexture": false,
          "customTexture": ""
        },
        "attackName": "",
        "actionType": "spellsave",
        "attackBonus": "",
        "critConfirmBonus": "",
        "damage": {
          "parts": [],
          "critParts": [],
          "nonCritParts": []
        },
        "attackParts": [],
        "formulaicAttacks": {
          "count": {
            "formula": ""
          },
          "bonus": {
            "formula": ""
          },
          "label": null
        },
        "formula": "",
        "ability": {
          "attack": "",
          "damage": "",
          "damageMult": 1,
          "critRange": 20,
          "critMult": 2
        },
        "save": {
          "dc": "0",
          "type": "will",
          "description": "Will disbelief"
        },
        "effectNotes": [],
        "attackNotes": [],
        "soundEffect": "",
        "powerAttack": {
          "multiplier": "",
          "damageBonus": 2,
          "critMultiplier": 1
        },
        "naturalAttack": {
          "primaryAttack": true,
          "secondary": {
            "attackBonus": "-5",
            "damageMult": 0.5
          }
        },
        "nonlethal": false,
        "usesAmmo": false,
        "spellEffect": "",
        "spellArea": "one 10-ft. cube per level",
        "conditionals": [],
        "enh": {
          "value": null
        }
      }
    ],
    "uses": {
      "per": ""
    },
    "attackNotes": [],
    "effectNotes": [],
    "links": {
      "children": []
    },
    "scriptCalls": [],
    "learnedAt": {
      "class": [
        ["sorcerer/wizard", 5],
        ["cleric/oracle", 5],
        ["bard", 5],
        ["witch", 5],
        ["psychic", 5],
        ["mesmerist", 5]
      ],
      "domain": [],
      "subDomain": [],
      "elementalSchool": [],
      "bloodline": []
    },
    "level": 5,
    "school": "ill",
    "subschool": "figment",
    "types": "mind-affecting",
    "components": {
      "verbal": true,
      "somatic": true
    },
    "shortDescription": "<p>You throw an illusion over an area to make creatures that view or interact with it believe it has suffered some great catastrophe or calamity that renders it utterly worthless for their needs. You must set a few general guidelines when casting the spell as to the nature of this disaster (fire, tornado, bandit raid, plague, etc.), after which the illusion fills in the remaining details to make it seem realistic. When casting the spell, you can grant creatures with particular, clearly identifiable physical traits (race, gender, age category, etc.) immunity to this spell. This allows all such eligible creatures to perceive the true nature of the affected area instead of its illusory appearance. Creatures without this immunity that fail their saving throws always perceive the affected area as having absolutely nothing of interest or worth to them. Unless they have reason for suspicion, they always move on without closely investigating the area. Creatures with sufficient reasons for suspicion who do choose to investigate the area gain another saving throw, this one with a +2 bonus, as they enter the village and directly interact with the illusion.  You can expand the area of this spell by casting it multiple times. Each time you do, you must effectively \"attach\" the spell to the existing area by using the same disaster and granting the same sorts of creatures immunity to its effects. If you fail to do this, the entire illusion, no matter how large, disappears.</p>"
  }
}
