{
  "_id": "5nxfoXZ5KpOFYpLm",
  "name": "Adept",
  "type": "class",
  "img": "systems/pf1/icons/items/inventory/book-blue.jpg",
  "sort": 100001,
  "flags": {},
  "system": {
    "description": {
      "value": "<p><strong>Alignment:</strong> Any.</p>\n<p><strong>Hit Die</strong>: d6.</p>\n<h2><span id=\"Class_Skills\">Class Skills</span></h2>\n<p>The adept’s class skills (and the key ability for each skill) are <em>Craft</em>&nbsp;(<em>Int</em>), <em>Handle Animal</em>&nbsp;(<em>Cha</em>), <em>Heal</em>&nbsp;(<em>Wis</em>), <em>Knowledge</em>&nbsp;(all skills taken individually) (<em>Int</em>), <em>Profession</em>&nbsp;(<em>Wis</em>), <em>Spellcraft</em>&nbsp;(<em>Int</em>), and <em>Survival</em>&nbsp;(<em>Wis</em>).</p>\n<p><strong>Skill Ranks per Level</strong>: 2 +&nbsp;<em>Int</em>&nbsp;modifier.</p>"
    },
    "tags": [],
    "changes": [],
    "links": {
      "children": [],
      "classAssociations": []
    },
    "tag": "adept",
    "useCustomTag": true,
    "armorProf": {
      "value": []
    },
    "weaponProf": {
      "value": ["sim"]
    },
    "languages": {
      "value": []
    },
    "scriptCalls": [],
    "subType": "npc",
    "hd": 6,
    "hp": 6,
    "skillsPerLevel": 2,
    "savingThrows": {
      "will": {
        "value": "high"
      }
    },
    "classSkills": {
      "crf": true,
      "acr": false,
      "apr": false,
      "art": true,
      "blf": false,
      "clm": false,
      "dip": false,
      "dev": false,
      "dis": false,
      "esc": false,
      "fly": false,
      "han": true,
      "hea": true,
      "int": false,
      "kar": true,
      "kdu": true,
      "ken": true,
      "kge": true,
      "khi": true,
      "klo": true,
      "kna": true,
      "kno": true,
      "kpl": true,
      "kre": true,
      "lin": false,
      "lor": true,
      "per": false,
      "prf": false,
      "pro": true,
      "rid": false,
      "sen": false,
      "slt": false,
      "spl": true,
      "ste": false,
      "sur": true,
      "swm": false,
      "umd": false
    }
  }
}
