{
  "_id": "jOUMbWoFZHQlAMpJ",
  "name": "Gunslinger",
  "type": "class",
  "img": "systems/pf1/icons/skills/weapon_36.jpg",
  "sort": 0,
  "flags": {},
  "system": {
    "description": {
      "value": "<p>For a renegade few, battle sounds different than it does for the typical fighter. The clash of steel and the sizzle of spell energy are drowned out by the thunderous rhythm of gunfire—the pounding beat of the gunslinger.</p>\n<p>Gunslingers are a bold and mysterious lot. While many treat the secrets of black powder with the same care and reverence that a wizard typically reserves for his spellbook, most gunslingers know that firearms are a secret that cannot remain concealed forever. While current firearms are simple, often imprecise, and even dangerous devices, they are a technology on the move, and one that will become even more powerful when it is fully fused with magic.</p>\n<p><strong>Role</strong>: Gunslingers are thunderous artillery, often found where the fighting is fiercest. Brave, clever, and frequently foolhardy, many gunslingers push to position themselves at close range, barrels blazing, to take down their foes and demoralize their enemies. Other gunslingers are masters of distant death, picking off enemies from afar with their strange and wondrous weapons.</p>\n<p><strong>Alignment</strong>: Any.</p>\n<p><strong>Hit Die</strong>: d10.</p>\n<p><strong>Starting Wealth</strong>: 5d6 x 10 gp (average 175gp) In addition, each character begins play with an outfit worth 10 gp or less, and the gunslinger begins with her starting firearm.</p>\n<h2><span id=\"Class_Skills\">Class Skills</span></h2>\n<p>The gunslinger’s class skills are&nbsp;<em>Acrobatics</em>&nbsp;(<em>Dex</em>),&nbsp;<em>Bluff</em>&nbsp;(<em>Cha</em>),&nbsp;<em>Climb</em>&nbsp;(<em>Str</em>),&nbsp;<em>Craft</em>&nbsp;(<em>Int</em>),&nbsp;<em>Handle Animal</em>&nbsp;(<em>Cha</em>),&nbsp;<em>Heal</em>&nbsp;(<em>Wis</em>),&nbsp;<em>Intimidate</em>&nbsp;(<em>Cha</em>),&nbsp;<em>Knowledge</em>&nbsp;(engineering) (<em>Int</em>),&nbsp;<em>Knowledge</em>&nbsp;(local) (<em>Int</em>),&nbsp;<em>Perception</em>&nbsp;(<em>Wis</em>),&nbsp;<em>Profession</em>&nbsp;(<em>Wis</em>),&nbsp;<em>Ride</em>&nbsp;(<em>Dex</em>),&nbsp;<em>Sleight of Hand</em>&nbsp;(<em>Dex</em>),&nbsp;<em>Survival</em>&nbsp;(<em>Wis</em>), and&nbsp;<em>Swim</em>&nbsp;(<em>Str</em>).</p>\n<p><strong>Skill Ranks per Level</strong>: 4 +&nbsp;<em>Int</em>&nbsp;modifier.</p>"
    },
    "tags": [],
    "changes": [],
    "links": {
      "children": [],
      "classAssociations": [
        {
          "id": "pf1.class-abilities.KOfYE2fC3zYkrSPj",
          "dataType": "compendium",
          "name": "Deeds",
          "img": "systems/pf1/icons/skills/blood_11.jpg",
          "level": 1,
          "_index": 0
        },
        {
          "id": "pf1.class-abilities.Rh4www7gtV7wvUzg",
          "dataType": "compendium",
          "name": "Grit",
          "img": "systems/pf1/icons/skills/weapon_36.jpg",
          "level": 1,
          "_index": 1
        },
        {
          "id": "pf1.class-abilities.awBIJLvjcQIaPoCq",
          "dataType": "compendium",
          "name": "True Grit",
          "img": "systems/pf1/icons/skills/weapon_27.jpg",
          "level": 20,
          "_index": 2
        },
        {
          "id": "pf1.class-abilities.QTEANZz5ALZQcSIR",
          "dataType": "compendium",
          "name": "Gunsmith",
          "img": "systems/pf1/icons/skills/weapon_35.jpg",
          "level": 1,
          "_index": 3
        },
        {
          "id": "pf1.class-abilities.BTkYdjVLcQMfFsv9",
          "dataType": "compendium",
          "name": "Nimble",
          "img": "systems/pf1/icons/skills/armor_01.jpg",
          "level": 2,
          "_index": 4
        },
        {
          "id": "pf1.class-abilities.c1DXh24tF5vQFLaI",
          "dataType": "compendium",
          "name": "Bonus Feats (GUN)",
          "img": "systems/pf1/icons/skills/weapon_44.jpg",
          "level": 4,
          "_index": 5
        },
        {
          "id": "pf1.class-abilities.KeqW25zOjSQAl3n2",
          "dataType": "compendium",
          "name": "Gun Training",
          "img": "systems/pf1/icons/skills/weapon_37.jpg",
          "level": 5,
          "_index": 6
        }
      ]
    },
    "tag": "gunslinger",
    "useCustomTag": true,
    "armorProf": {
      "value": ["lgt"]
    },
    "weaponProf": {
      "value": ["sim", "mar"],
      "custom": "Firearms"
    },
    "languages": {
      "value": []
    },
    "scriptCalls": [],
    "hd": 10,
    "hp": 10,
    "bab": "high",
    "skillsPerLevel": 4,
    "savingThrows": {
      "fort": {
        "value": "high"
      },
      "ref": {
        "value": "high"
      }
    },
    "classSkills": {
      "acr": true,
      "apr": false,
      "art": true,
      "blf": true,
      "clm": true,
      "crf": true,
      "dip": false,
      "dev": false,
      "dis": false,
      "esc": false,
      "fly": false,
      "han": true,
      "hea": true,
      "int": true,
      "kar": false,
      "kdu": false,
      "ken": true,
      "kge": false,
      "khi": false,
      "klo": true,
      "kna": false,
      "kno": false,
      "kpl": false,
      "kre": false,
      "lin": false,
      "lor": true,
      "per": true,
      "prf": false,
      "pro": true,
      "rid": true,
      "sen": false,
      "slt": true,
      "spl": false,
      "ste": false,
      "sur": true,
      "swm": true,
      "umd": false
    }
  }
}
