{
  "_id": "jMi3GBtvdG0WhH8L",
  "name": "Shaman",
  "type": "class",
  "img": "systems/pf1/icons/skills/green_13.jpg",
  "sort": 0,
  "flags": {},
  "system": {
    "description": {
      "value": "<p>While some heroes speak to gods or consort with otherworldly muses, shamans commune with the spirits of the world and the energies that exist in every living thing. These divine adventurers draw upon their power to shape the world and expand the influence of their spiritual patrons. Shamans have strong ties to natural spirits. They form powerful bonds with particular spirits, and as their power grows they learn to call upon other spirits in times of need.</p>\n<p><strong>Role</strong>: Shamans make for potent divine spellcasters, capable of using divine spells and the power of their spirits to aid their allies and destroy their foes. While they aren’t the healers that clerics are, they can still fill that role when needed.</p>\n<p><strong>Alignment</strong>: Any.</p>\n<p><strong>Hit Die</strong>: d8.</p>\n<p><strong>Parent Classes</strong>:&nbsp;<em>Oracle</em>&nbsp;and&nbsp;<em>witch</em>.</p>\n<p><strong>Starting Wealth</strong>: 3d6 × 10 gp (average 105 gp.) In addition, each character begins play with an outfit worth 10 gp or less.</p>\n<h2><span id=\"Class_Skills\">Class Skills</span></h2>\n<p>The shaman’s class skills are <em>Craft</em>&nbsp;(<em>Int</em>), <em>Diplomacy</em>&nbsp;(<em>Cha</em>), <em>Fly</em>&nbsp;(<em>Dex</em>), <em>Handle Animal</em>&nbsp;(<em>Cha</em>), <em>Heal</em>&nbsp;(<em>Wis</em>), <em>Knowledge</em>&nbsp;(nature) (<em>Int</em>), <em>Knowledge</em>&nbsp;(planes) (<em>Int</em>), <em>Knowledge</em>&nbsp;(religion) (<em>Int</em>), <em>Profession</em>&nbsp;(<em>Wis</em>), <em>Ride</em>&nbsp;(<em>Dex</em>), <em>Spellcraft</em>&nbsp;(<em>Int</em>), and <em>Survival</em>&nbsp;(<em>Wis</em>).</p>\n<p><strong>Skill Ranks per Level</strong>: 4 +&nbsp;<em>Int</em> modifier.</p>"
    },
    "casting": {
      "type": "prepared",
      "progression": "high",
      "ability": "wis",
      "spells": "divine"
    },
    "tags": [],
    "changes": [],
    "links": {
      "children": [],
      "classAssociations": [
        {
          "id": "pf1.class-abilities.ohVBtSayzMqWwHny",
          "dataType": "compendium",
          "name": "Spirit",
          "img": "systems/pf1/icons/skills/affliction_05.jpg",
          "level": 1,
          "_index": 0
        },
        {
          "id": "pf1.class-abilities.gxNLi0faH5Jg4EHw",
          "dataType": "compendium",
          "name": "Spirit Animal",
          "img": "systems/pf1/icons/skills/emerald_04.jpg",
          "level": 1,
          "_index": 1
        },
        {
          "id": "pf1.class-abilities.nyS8BwyNSLYTaHLL",
          "dataType": "compendium",
          "name": "Spirit Magic",
          "img": "systems/pf1/icons/skills/blue_38.jpg",
          "level": 1,
          "_index": 2
        },
        {
          "id": "pf1.class-abilities.PW7CGt2iZsQFeZUI",
          "dataType": "compendium",
          "name": "Hex (SHA)",
          "img": "systems/pf1/icons/skills/affliction_09.jpg",
          "level": 2,
          "_index": 3
        },
        {
          "id": "pf1.class-abilities.hK3eV1W6GnifvoB8",
          "dataType": "compendium",
          "name": "Wandering Spirit",
          "img": "systems/pf1/icons/skills/blue_26.jpg",
          "level": 4,
          "_index": 4
        },
        {
          "id": "pf1.class-abilities.aAKLKhJV2DvKl1T8",
          "dataType": "compendium",
          "name": "Wandering Hex",
          "img": "systems/pf1/icons/skills/blue_01.jpg",
          "level": 6,
          "_index": 5
        },
        {
          "id": "pf1.class-abilities.Z2sZPjplxeUu0KNh",
          "dataType": "compendium",
          "name": "Manifestation",
          "img": "systems/pf1/icons/skills/blue_37.jpg",
          "level": 20,
          "_index": 6
        }
      ]
    },
    "tag": "shaman",
    "useCustomTag": true,
    "armorProf": {
      "value": ["lgt", "med"]
    },
    "weaponProf": {
      "value": ["sim"]
    },
    "languages": {
      "value": []
    },
    "scriptCalls": [],
    "bab": "med",
    "skillsPerLevel": 4,
    "savingThrows": {
      "will": {
        "value": "high"
      }
    },
    "classSkills": {
      "acr": false,
      "apr": false,
      "art": true,
      "blf": false,
      "clm": false,
      "crf": true,
      "dip": true,
      "dev": false,
      "dis": false,
      "esc": false,
      "fly": true,
      "han": true,
      "hea": true,
      "int": false,
      "kar": false,
      "kdu": false,
      "ken": false,
      "kge": false,
      "khi": false,
      "klo": false,
      "kna": true,
      "kno": false,
      "kpl": true,
      "kre": true,
      "lin": false,
      "lor": true,
      "per": false,
      "prf": false,
      "pro": true,
      "rid": true,
      "sen": false,
      "slt": false,
      "spl": true,
      "ste": false,
      "sur": true,
      "swm": false,
      "umd": false
    }
  }
}
